[DEBUG] 2018-12-20 10:42:48,802 | /home/babitagujar/frappe-bench/apps/frappe/frappe/utils/scheduler.py:
Site: ekart_site
Queued events for site ekart_site
[DEBUG] 2018-12-20 10:42:48,840 | /home/babitagujar/frappe-bench/apps/frappe/frappe/utils/scheduler.py:
Site: erpnext_site
Queued events for site erpnext_site
[DEBUG] 2018-12-20 10:42:48,890 | /home/babitagujar/frappe-bench/apps/frappe/frappe/utils/scheduler.py:
Site: library
Queued events for site library
[DEBUG] 2018-12-20 10:43:48,979 | /home/babitagujar/frappe-bench/apps/frappe/frappe/utils/scheduler.py:
Site: ekart_site
Queued events for site ekart_site
[DEBUG] 2018-12-20 10:43:48,991 | /home/babitagujar/frappe-bench/apps/frappe/frappe/utils/scheduler.py:
Site: erpnext_site
Queued events for site erpnext_site
[DEBUG] 2018-12-20 10:43:49,003 | /home/babitagujar/frappe-bench/apps/frappe/frappe/utils/scheduler.py:
Site: library
Queued events for site library
[DEBUG] 2018-12-20 10:44:49,089 | /home/babitagujar/frappe-bench/apps/frappe/frappe/utils/scheduler.py:
Site: ekart_site
Queued events for site ekart_site
[DEBUG] 2018-12-20 10:44:49,103 | /home/babitagujar/frappe-bench/apps/frappe/frappe/utils/scheduler.py:
Site: erpnext_site
Queued events for site erpnext_site
[DEBUG] 2018-12-20 10:44:49,115 | /home/babitagujar/frappe-bench/apps/frappe/frappe/utils/scheduler.py:
Site: library
Queued events for site library
[DEBUG] 2018-12-20 10:45:49,197 | /home/babitagujar/frappe-bench/apps/frappe/frappe/utils/scheduler.py:
Site: ekart_site
Queued events for site ekart_site
[DEBUG] 2018-12-20 10:45:49,209 | /home/babitagujar/frappe-bench/apps/frappe/frappe/utils/scheduler.py:
Site: erpnext_site
Queued events for site erpnext_site
[DEBUG] 2018-12-20 10:45:49,219 | /home/babitagujar/frappe-bench/apps/frappe/frappe/utils/scheduler.py:
Site: library
Queued events for site library
[DEBUG] 2018-12-20 10:46:49,324 | /home/babitagujar/frappe-bench/apps/frappe/frappe/utils/scheduler.py:
Site: ekart_site
Queued events for site ekart_site
[DEBUG] 2018-12-20 10:46:49,357 | /home/babitagujar/frappe-bench/apps/frappe/frappe/utils/scheduler.py:
Site: erpnext_site
Queued events for site erpnext_site
[DEBUG] 2018-12-20 10:46:49,411 | /home/babitagujar/frappe-bench/apps/frappe/frappe/utils/scheduler.py:
Site: library
Queued events for site library
[DEBUG] 2018-12-20 10:47:49,496 | /home/babitagujar/frappe-bench/apps/frappe/frappe/utils/scheduler.py:
Site: ekart_site
Queued events for site ekart_site
[DEBUG] 2018-12-20 10:47:49,507 | /home/babitagujar/frappe-bench/apps/frappe/frappe/utils/scheduler.py:
Site: erpnext_site
Queued events for site erpnext_site
[DEBUG] 2018-12-20 10:47:49,519 | /home/babitagujar/frappe-bench/apps/frappe/frappe/utils/scheduler.py:
Site: library
Queued events for site library
[DEBUG] 2018-12-20 10:48:49,604 | /home/babitagujar/frappe-bench/apps/frappe/frappe/utils/scheduler.py:
Site: ekart_site
Queued events for site ekart_site
[DEBUG] 2018-12-20 10:48:49,618 | /home/babitagujar/frappe-bench/apps/frappe/frappe/utils/scheduler.py:
Site: erpnext_site
Queued events for site erpnext_site
[DEBUG] 2018-12-20 10:48:49,631 | /home/babitagujar/frappe-bench/apps/frappe/frappe/utils/scheduler.py:
Site: library
Queued events for site library
[DEBUG] 2018-12-20 10:49:49,720 | /home/babitagujar/frappe-bench/apps/frappe/frappe/utils/scheduler.py:
Site: ekart_site
Queued events for site ekart_site
[DEBUG] 2018-12-20 10:49:49,734 | /home/babitagujar/frappe-bench/apps/frappe/frappe/utils/scheduler.py:
Site: erpnext_site
Queued events for site erpnext_site
[DEBUG] 2018-12-20 10:49:49,748 | /home/babitagujar/frappe-bench/apps/frappe/frappe/utils/scheduler.py:
Site: library
Queued events for site library
[DEBUG] 2018-12-20 10:50:49,848 | /home/babitagujar/frappe-bench/apps/frappe/frappe/utils/scheduler.py:
Site: ekart_site
Queued events for site ekart_site
[DEBUG] 2018-12-20 10:50:49,872 | /home/babitagujar/frappe-bench/apps/frappe/frappe/utils/scheduler.py:
Site: erpnext_site
Queued events for site erpnext_site
[DEBUG] 2018-12-20 10:50:49,912 | /home/babitagujar/frappe-bench/apps/frappe/frappe/utils/scheduler.py:
Site: library
Queued events for site library
[DEBUG] 2018-12-20 10:51:49,993 | /home/babitagujar/frappe-bench/apps/frappe/frappe/utils/scheduler.py:
Site: ekart_site
Queued events for site ekart_site
[DEBUG] 2018-12-20 10:51:50,007 | /home/babitagujar/frappe-bench/apps/frappe/frappe/utils/scheduler.py:
Site: erpnext_site
Queued events for site erpnext_site
[DEBUG] 2018-12-20 10:51:50,021 | /home/babitagujar/frappe-bench/apps/frappe/frappe/utils/scheduler.py:
Site: library
Queued events for site library
[DEBUG] 2018-12-20 10:52:50,104 | /home/babitagujar/frappe-bench/apps/frappe/frappe/utils/scheduler.py:
Site: ekart_site
Queued events for site ekart_site
[DEBUG] 2018-12-20 10:52:50,116 | /home/babitagujar/frappe-bench/apps/frappe/frappe/utils/scheduler.py:
Site: erpnext_site
Queued events for site erpnext_site
[DEBUG] 2018-12-20 10:52:50,128 | /home/babitagujar/frappe-bench/apps/frappe/frappe/utils/scheduler.py:
Site: library
Queued events for site library
[DEBUG] 2018-12-20 10:53:50,213 | /home/babitagujar/frappe-bench/apps/frappe/frappe/utils/scheduler.py:
Site: ekart_site
Queued events for site ekart_site
[DEBUG] 2018-12-20 10:53:50,226 | /home/babitagujar/frappe-bench/apps/frappe/frappe/utils/scheduler.py:
Site: erpnext_site
Queued events for site erpnext_site
[DEBUG] 2018-12-20 10:53:50,237 | /home/babitagujar/frappe-bench/apps/frappe/frappe/utils/scheduler.py:
Site: library
Queued events for site library
[DEBUG] 2018-12-20 10:54:50,336 | /home/babitagujar/frappe-bench/apps/frappe/frappe/utils/scheduler.py:
Site: ekart_site
Queued events for site ekart_site
[DEBUG] 2018-12-20 10:54:50,359 | /home/babitagujar/frappe-bench/apps/frappe/frappe/utils/scheduler.py:
Site: erpnext_site
Queued events for site erpnext_site
[DEBUG] 2018-12-20 10:54:50,398 | /home/babitagujar/frappe-bench/apps/frappe/frappe/utils/scheduler.py:
Site: library
Queued events for site library
[DEBUG] 2018-12-20 10:55:50,482 | /home/babitagujar/frappe-bench/apps/frappe/frappe/utils/scheduler.py:
Site: ekart_site
Queued events for site ekart_site
[DEBUG] 2018-12-20 10:55:50,497 | /home/babitagujar/frappe-bench/apps/frappe/frappe/utils/scheduler.py:
Site: erpnext_site
Queued events for site erpnext_site
[DEBUG] 2018-12-20 10:55:50,508 | /home/babitagujar/frappe-bench/apps/frappe/frappe/utils/scheduler.py:
Site: library
Queued events for site library
[DEBUG] 2018-12-20 10:56:50,592 | /home/babitagujar/frappe-bench/apps/frappe/frappe/utils/scheduler.py:
Site: ekart_site
Queued events for site ekart_site
[DEBUG] 2018-12-20 10:56:50,606 | /home/babitagujar/frappe-bench/apps/frappe/frappe/utils/scheduler.py:
Site: erpnext_site
Queued events for site erpnext_site
[DEBUG] 2018-12-20 10:56:50,621 | /home/babitagujar/frappe-bench/apps/frappe/frappe/utils/scheduler.py:
Site: library
Queued events for site library
[DEBUG] 2018-12-20 10:57:50,706 | /home/babitagujar/frappe-bench/apps/frappe/frappe/utils/scheduler.py:
Site: ekart_site
Queued events for site ekart_site
[DEBUG] 2018-12-20 10:57:50,720 | /home/babitagujar/frappe-bench/apps/frappe/frappe/utils/scheduler.py:
Site: erpnext_site
Queued events for site erpnext_site
[DEBUG] 2018-12-20 10:57:50,733 | /home/babitagujar/frappe-bench/apps/frappe/frappe/utils/scheduler.py:
Site: library
Queued events for site library
[DEBUG] 2018-12-20 10:58:50,838 | /home/babitagujar/frappe-bench/apps/frappe/frappe/utils/scheduler.py:
Site: ekart_site
Queued events for site ekart_site
[DEBUG] 2018-12-20 10:58:50,871 | /home/babitagujar/frappe-bench/apps/frappe/frappe/utils/scheduler.py:
Site: erpnext_site
Queued events for site erpnext_site
[DEBUG] 2018-12-20 10:58:50,930 | /home/babitagujar/frappe-bench/apps/frappe/frappe/utils/scheduler.py:
Site: library
Queued events for site library
[DEBUG] 2018-12-20 10:59:51,017 | /home/babitagujar/frappe-bench/apps/frappe/frappe/utils/scheduler.py:
Site: ekart_site
Queued events for site ekart_site
[DEBUG] 2018-12-20 10:59:51,031 | /home/babitagujar/frappe-bench/apps/frappe/frappe/utils/scheduler.py:
Site: erpnext_site
Queued events for site erpnext_site
[DEBUG] 2018-12-20 10:59:51,044 | /home/babitagujar/frappe-bench/apps/frappe/frappe/utils/scheduler.py:
Site: library
Queued events for site library
[DEBUG] 2018-12-20 11:00:51,120 | /home/babitagujar/frappe-bench/apps/frappe/frappe/utils/scheduler.py:
Site: ekart_site
Queued events for site ekart_site
[DEBUG] 2018-12-20 11:00:51,136 | /home/babitagujar/frappe-bench/apps/frappe/frappe/utils/scheduler.py:
Site: erpnext_site
Queued events for site erpnext_site
[DEBUG] 2018-12-20 11:00:51,153 | /home/babitagujar/frappe-bench/apps/frappe/frappe/utils/scheduler.py:
Site: library
Queued events for site library
[DEBUG] 2018-12-20 11:01:51,239 | /home/babitagujar/frappe-bench/apps/frappe/frappe/utils/scheduler.py:
Site: ekart_site
Queued events for site ekart_site
[DEBUG] 2018-12-20 11:01:51,253 | /home/babitagujar/frappe-bench/apps/frappe/frappe/utils/scheduler.py:
Site: erpnext_site
Queued events for site erpnext_site
[DEBUG] 2018-12-20 11:01:51,267 | /home/babitagujar/frappe-bench/apps/frappe/frappe/utils/scheduler.py:
Site: library
Queued events for site library
[DEBUG] 2018-12-20 11:02:51,376 | /home/babitagujar/frappe-bench/apps/frappe/frappe/utils/scheduler.py:
Site: ekart_site
Queued events for site ekart_site
[DEBUG] 2018-12-20 11:02:51,409 | /home/babitagujar/frappe-bench/apps/frappe/frappe/utils/scheduler.py:
Site: erpnext_site
Queued events for site erpnext_site
[DEBUG] 2018-12-20 11:02:51,464 | /home/babitagujar/frappe-bench/apps/frappe/frappe/utils/scheduler.py:
Site: library
Queued events for site library
[DEBUG] 2018-12-20 11:03:51,548 | /home/babitagujar/frappe-bench/apps/frappe/frappe/utils/scheduler.py:
Site: ekart_site
Queued events for site ekart_site
[DEBUG] 2018-12-20 11:03:51,560 | /home/babitagujar/frappe-bench/apps/frappe/frappe/utils/scheduler.py:
Site: erpnext_site
Queued events for site erpnext_site
[DEBUG] 2018-12-20 11:03:51,571 | /home/babitagujar/frappe-bench/apps/frappe/frappe/utils/scheduler.py:
Site: library
Queued events for site library
[DEBUG] 2018-12-20 11:04:51,658 | /home/babitagujar/frappe-bench/apps/frappe/frappe/utils/scheduler.py:
Site: ekart_site
Queued events for site ekart_site
[DEBUG] 2018-12-20 11:04:51,671 | /home/babitagujar/frappe-bench/apps/frappe/frappe/utils/scheduler.py:
Site: erpnext_site
Queued events for site erpnext_site
[DEBUG] 2018-12-20 11:04:51,684 | /home/babitagujar/frappe-bench/apps/frappe/frappe/utils/scheduler.py:
Site: library
Queued events for site library
[DEBUG] 2018-12-20 11:05:51,770 | /home/babitagujar/frappe-bench/apps/frappe/frappe/utils/scheduler.py:
Site: ekart_site
Queued events for site ekart_site
[DEBUG] 2018-12-20 11:05:51,783 | /home/babitagujar/frappe-bench/apps/frappe/frappe/utils/scheduler.py:
Site: erpnext_site
Queued events for site erpnext_site
[DEBUG] 2018-12-20 11:05:51,797 | /home/babitagujar/frappe-bench/apps/frappe/frappe/utils/scheduler.py:
Site: library
Queued events for site library
[DEBUG] 2018-12-20 11:06:51,904 | /home/babitagujar/frappe-bench/apps/frappe/frappe/utils/scheduler.py:
Site: ekart_site
Queued events for site ekart_site
[DEBUG] 2018-12-20 11:06:51,936 | /home/babitagujar/frappe-bench/apps/frappe/frappe/utils/scheduler.py:
Site: erpnext_site
Queued events for site erpnext_site
[DEBUG] 2018-12-20 11:06:51,986 | /home/babitagujar/frappe-bench/apps/frappe/frappe/utils/scheduler.py:
Site: library
Queued events for site library
[DEBUG] 2018-12-20 11:07:52,073 | /home/babitagujar/frappe-bench/apps/frappe/frappe/utils/scheduler.py:
Site: ekart_site
Queued events for site ekart_site
[DEBUG] 2018-12-20 11:07:52,087 | /home/babitagujar/frappe-bench/apps/frappe/frappe/utils/scheduler.py:
Site: erpnext_site
Queued events for site erpnext_site
[DEBUG] 2018-12-20 11:07:52,100 | /home/babitagujar/frappe-bench/apps/frappe/frappe/utils/scheduler.py:
Site: library
Queued events for site library
[DEBUG] 2018-12-20 11:08:52,184 | /home/babitagujar/frappe-bench/apps/frappe/frappe/utils/scheduler.py:
Site: ekart_site
Queued events for site ekart_site
[DEBUG] 2018-12-20 11:08:52,199 | /home/babitagujar/frappe-bench/apps/frappe/frappe/utils/scheduler.py:
Site: erpnext_site
Queued events for site erpnext_site
[DEBUG] 2018-12-20 11:08:52,212 | /home/babitagujar/frappe-bench/apps/frappe/frappe/utils/scheduler.py:
Site: library
Queued events for site library
[DEBUG] 2018-12-20 11:09:52,295 | /home/babitagujar/frappe-bench/apps/frappe/frappe/utils/scheduler.py:
Site: ekart_site
Queued events for site ekart_site
[DEBUG] 2018-12-20 11:09:52,309 | /home/babitagujar/frappe-bench/apps/frappe/frappe/utils/scheduler.py:
Site: erpnext_site
Queued events for site erpnext_site
[DEBUG] 2018-12-20 11:09:52,323 | /home/babitagujar/frappe-bench/apps/frappe/frappe/utils/scheduler.py:
Site: library
Queued events for site library
[DEBUG] 2018-12-20 11:10:52,435 | /home/babitagujar/frappe-bench/apps/frappe/frappe/utils/scheduler.py:
Site: ekart_site
Queued events for site ekart_site
[DEBUG] 2018-12-20 11:10:52,472 | /home/babitagujar/frappe-bench/apps/frappe/frappe/utils/scheduler.py:
Site: erpnext_site
Queued events for site erpnext_site
[DEBUG] 2018-12-20 11:10:52,527 | /home/babitagujar/frappe-bench/apps/frappe/frappe/utils/scheduler.py:
Site: library
Queued events for site library
[DEBUG] 2018-12-20 11:11:52,616 | /home/babitagujar/frappe-bench/apps/frappe/frappe/utils/scheduler.py:
Site: ekart_site
Queued events for site ekart_site
[DEBUG] 2018-12-20 11:11:52,629 | /home/babitagujar/frappe-bench/apps/frappe/frappe/utils/scheduler.py:
Site: erpnext_site
Queued events for site erpnext_site
[DEBUG] 2018-12-20 11:11:52,641 | /home/babitagujar/frappe-bench/apps/frappe/frappe/utils/scheduler.py:
Site: library
Queued events for site library
[DEBUG] 2018-12-20 11:12:52,724 | /home/babitagujar/frappe-bench/apps/frappe/frappe/utils/scheduler.py:
Site: ekart_site
Queued events for site ekart_site
[DEBUG] 2018-12-20 11:12:52,738 | /home/babitagujar/frappe-bench/apps/frappe/frappe/utils/scheduler.py:
Site: erpnext_site
Queued events for site erpnext_site
[DEBUG] 2018-12-20 11:12:52,751 | /home/babitagujar/frappe-bench/apps/frappe/frappe/utils/scheduler.py:
Site: library
Queued events for site library
[DEBUG] 2018-12-20 11:13:52,829 | /home/babitagujar/frappe-bench/apps/frappe/frappe/utils/scheduler.py:
Site: ekart_site
Queued events for site ekart_site
[DEBUG] 2018-12-20 11:13:52,841 | /home/babitagujar/frappe-bench/apps/frappe/frappe/utils/scheduler.py:
Site: erpnext_site
Queued events for site erpnext_site
[DEBUG] 2018-12-20 11:13:52,852 | /home/babitagujar/frappe-bench/apps/frappe/frappe/utils/scheduler.py:
Site: library
Queued events for site library
[DEBUG] 2018-12-20 11:14:52,957 | /home/babitagujar/frappe-bench/apps/frappe/frappe/utils/scheduler.py:
Site: ekart_site
Queued events for site ekart_site
[DEBUG] 2018-12-20 11:14:52,990 | /home/babitagujar/frappe-bench/apps/frappe/frappe/utils/scheduler.py:
Site: erpnext_site
Queued events for site erpnext_site
[DEBUG] 2018-12-20 11:14:53,040 | /home/babitagujar/frappe-bench/apps/frappe/frappe/utils/scheduler.py:
Site: library
Queued events for site library
[DEBUG] 2018-12-20 11:15:53,126 | /home/babitagujar/frappe-bench/apps/frappe/frappe/utils/scheduler.py:
Site: ekart_site
Queued events for site ekart_site
[DEBUG] 2018-12-20 11:15:53,139 | /home/babitagujar/frappe-bench/apps/frappe/frappe/utils/scheduler.py:
Site: erpnext_site
Queued events for site erpnext_site
[DEBUG] 2018-12-20 11:15:53,151 | /home/babitagujar/frappe-bench/apps/frappe/frappe/utils/scheduler.py:
Site: library
Queued events for site library
[DEBUG] 2018-12-20 11:16:53,239 | /home/babitagujar/frappe-bench/apps/frappe/frappe/utils/scheduler.py:
Site: ekart_site
Queued events for site ekart_site
[DEBUG] 2018-12-20 11:16:53,252 | /home/babitagujar/frappe-bench/apps/frappe/frappe/utils/scheduler.py:
Site: erpnext_site
Queued events for site erpnext_site
[DEBUG] 2018-12-20 11:16:53,270 | /home/babitagujar/frappe-bench/apps/frappe/frappe/utils/scheduler.py:
Site: library
Queued events for site library
[DEBUG] 2018-12-20 11:17:53,356 | /home/babitagujar/frappe-bench/apps/frappe/frappe/utils/scheduler.py:
Site: ekart_site
Queued events for site ekart_site
[DEBUG] 2018-12-20 11:17:53,370 | /home/babitagujar/frappe-bench/apps/frappe/frappe/utils/scheduler.py:
Site: erpnext_site
Queued events for site erpnext_site
[DEBUG] 2018-12-20 11:17:53,384 | /home/babitagujar/frappe-bench/apps/frappe/frappe/utils/scheduler.py:
Site: library
Queued events for site library
[DEBUG] 2018-12-20 11:18:53,485 | /home/babitagujar/frappe-bench/apps/frappe/frappe/utils/scheduler.py:
Site: ekart_site
Queued events for site ekart_site
[DEBUG] 2018-12-20 11:18:53,508 | /home/babitagujar/frappe-bench/apps/frappe/frappe/utils/scheduler.py:
Site: erpnext_site
Queued events for site erpnext_site
[DEBUG] 2018-12-20 11:18:53,547 | /home/babitagujar/frappe-bench/apps/frappe/frappe/utils/scheduler.py:
Site: library
Queued events for site library
[DEBUG] 2018-12-20 11:19:53,636 | /home/babitagujar/frappe-bench/apps/frappe/frappe/utils/scheduler.py:
Site: ekart_site
Queued events for site ekart_site
[DEBUG] 2018-12-20 11:19:53,651 | /home/babitagujar/frappe-bench/apps/frappe/frappe/utils/scheduler.py:
Site: erpnext_site
Queued events for site erpnext_site
[DEBUG] 2018-12-20 11:19:53,666 | /home/babitagujar/frappe-bench/apps/frappe/frappe/utils/scheduler.py:
Site: library
Queued events for site library
[DEBUG] 2018-12-20 11:20:53,757 | /home/babitagujar/frappe-bench/apps/frappe/frappe/utils/scheduler.py:
Site: ekart_site
Queued events for site ekart_site
[DEBUG] 2018-12-20 11:20:53,772 | /home/babitagujar/frappe-bench/apps/frappe/frappe/utils/scheduler.py:
Site: erpnext_site
Queued events for site erpnext_site
[DEBUG] 2018-12-20 11:20:53,786 | /home/babitagujar/frappe-bench/apps/frappe/frappe/utils/scheduler.py:
Site: library
Queued events for site library
[DEBUG] 2018-12-20 11:21:53,872 | /home/babitagujar/frappe-bench/apps/frappe/frappe/utils/scheduler.py:
Site: ekart_site
Queued events for site ekart_site
[DEBUG] 2018-12-20 11:21:53,885 | /home/babitagujar/frappe-bench/apps/frappe/frappe/utils/scheduler.py:
Site: erpnext_site
Queued events for site erpnext_site
[DEBUG] 2018-12-20 11:21:53,898 | /home/babitagujar/frappe-bench/apps/frappe/frappe/utils/scheduler.py:
Site: library
Queued events for site library
[DEBUG] 2018-12-20 11:22:54,000 | /home/babitagujar/frappe-bench/apps/frappe/frappe/utils/scheduler.py:
Site: ekart_site
Queued events for site ekart_site
[DEBUG] 2018-12-20 11:22:54,026 | /home/babitagujar/frappe-bench/apps/frappe/frappe/utils/scheduler.py:
Site: erpnext_site
Queued events for site erpnext_site
[DEBUG] 2018-12-20 11:22:54,078 | /home/babitagujar/frappe-bench/apps/frappe/frappe/utils/scheduler.py:
Site: library
Queued events for site library
[DEBUG] 2018-12-20 11:23:54,163 | /home/babitagujar/frappe-bench/apps/frappe/frappe/utils/scheduler.py:
Site: ekart_site
Queued events for site ekart_site
[DEBUG] 2018-12-20 11:23:54,176 | /home/babitagujar/frappe-bench/apps/frappe/frappe/utils/scheduler.py:
Site: erpnext_site
Queued events for site erpnext_site
[DEBUG] 2018-12-20 11:23:54,188 | /home/babitagujar/frappe-bench/apps/frappe/frappe/utils/scheduler.py:
Site: library
Queued events for site library
[DEBUG] 2018-12-20 11:24:54,272 | /home/babitagujar/frappe-bench/apps/frappe/frappe/utils/scheduler.py:
Site: ekart_site
Queued events for site ekart_site
[DEBUG] 2018-12-20 11:24:54,284 | /home/babitagujar/frappe-bench/apps/frappe/frappe/utils/scheduler.py:
Site: erpnext_site
Queued events for site erpnext_site
[DEBUG] 2018-12-20 11:24:54,297 | /home/babitagujar/frappe-bench/apps/frappe/frappe/utils/scheduler.py:
Site: library
Queued events for site library
[DEBUG] 2018-12-20 11:25:54,384 | /home/babitagujar/frappe-bench/apps/frappe/frappe/utils/scheduler.py:
Site: ekart_site
Queued events for site ekart_site
[DEBUG] 2018-12-20 11:25:54,398 | /home/babitagujar/frappe-bench/apps/frappe/frappe/utils/scheduler.py:
Site: erpnext_site
Queued events for site erpnext_site
[DEBUG] 2018-12-20 11:25:54,412 | /home/babitagujar/frappe-bench/apps/frappe/frappe/utils/scheduler.py:
Site: library
Queued events for site library
[DEBUG] 2018-12-20 11:26:54,515 | /home/babitagujar/frappe-bench/apps/frappe/frappe/utils/scheduler.py:
Site: ekart_site
Queued events for site ekart_site
[DEBUG] 2018-12-20 11:26:54,540 | /home/babitagujar/frappe-bench/apps/frappe/frappe/utils/scheduler.py:
Site: erpnext_site
Queued events for site erpnext_site
[DEBUG] 2018-12-20 11:26:54,583 | /home/babitagujar/frappe-bench/apps/frappe/frappe/utils/scheduler.py:
Site: library
Queued events for site library
[DEBUG] 2018-12-20 11:27:54,674 | /home/babitagujar/frappe-bench/apps/frappe/frappe/utils/scheduler.py:
Site: ekart_site
Queued events for site ekart_site
[DEBUG] 2018-12-20 11:27:54,688 | /home/babitagujar/frappe-bench/apps/frappe/frappe/utils/scheduler.py:
Site: erpnext_site
Queued events for site erpnext_site
[DEBUG] 2018-12-20 11:27:54,701 | /home/babitagujar/frappe-bench/apps/frappe/frappe/utils/scheduler.py:
Site: library
Queued events for site library
[DEBUG] 2018-12-20 11:28:54,790 | /home/babitagujar/frappe-bench/apps/frappe/frappe/utils/scheduler.py:
Site: ekart_site
Queued events for site ekart_site
[DEBUG] 2018-12-20 11:28:54,803 | /home/babitagujar/frappe-bench/apps/frappe/frappe/utils/scheduler.py:
Site: erpnext_site
Queued events for site erpnext_site
[DEBUG] 2018-12-20 11:28:54,818 | /home/babitagujar/frappe-bench/apps/frappe/frappe/utils/scheduler.py:
Site: library
Queued events for site library
[DEBUG] 2018-12-20 11:29:54,903 | /home/babitagujar/frappe-bench/apps/frappe/frappe/utils/scheduler.py:
Site: ekart_site
Queued events for site ekart_site
[DEBUG] 2018-12-20 11:29:54,917 | /home/babitagujar/frappe-bench/apps/frappe/frappe/utils/scheduler.py:
Site: erpnext_site
Queued events for site erpnext_site
[DEBUG] 2018-12-20 11:29:54,929 | /home/babitagujar/frappe-bench/apps/frappe/frappe/utils/scheduler.py:
Site: library
Queued events for site library
[DEBUG] 2018-12-20 11:30:55,038 | /home/babitagujar/frappe-bench/apps/frappe/frappe/utils/scheduler.py:
Site: ekart_site
Queued events for site ekart_site
[DEBUG] 2018-12-20 11:30:55,096 | /home/babitagujar/frappe-bench/apps/frappe/frappe/utils/scheduler.py:
Site: erpnext_site
Queued events for site erpnext_site
[DEBUG] 2018-12-20 11:30:55,166 | /home/babitagujar/frappe-bench/apps/frappe/frappe/utils/scheduler.py:
Site: library
Queued events for site library
[DEBUG] 2018-12-20 11:31:55,258 | /home/babitagujar/frappe-bench/apps/frappe/frappe/utils/scheduler.py:
Site: ekart_site
Queued events for site ekart_site
[DEBUG] 2018-12-20 11:31:55,281 | /home/babitagujar/frappe-bench/apps/frappe/frappe/utils/scheduler.py:
Site: erpnext_site
Queued events for site erpnext_site
[DEBUG] 2018-12-20 11:31:55,301 | /home/babitagujar/frappe-bench/apps/frappe/frappe/utils/scheduler.py:
Site: library
Queued events for site library
[DEBUG] 2018-12-20 11:32:55,389 | /home/babitagujar/frappe-bench/apps/frappe/frappe/utils/scheduler.py:
Site: ekart_site
Queued events for site ekart_site
[DEBUG] 2018-12-20 11:32:55,402 | /home/babitagujar/frappe-bench/apps/frappe/frappe/utils/scheduler.py:
Site: erpnext_site
Queued events for site erpnext_site
[DEBUG] 2018-12-20 11:32:55,413 | /home/babitagujar/frappe-bench/apps/frappe/frappe/utils/scheduler.py:
Site: library
Queued events for site library
[DEBUG] 2018-12-20 11:33:55,501 | /home/babitagujar/frappe-bench/apps/frappe/frappe/utils/scheduler.py:
Site: ekart_site
Queued events for site ekart_site
[DEBUG] 2018-12-20 11:33:55,514 | /home/babitagujar/frappe-bench/apps/frappe/frappe/utils/scheduler.py:
Site: erpnext_site
Queued events for site erpnext_site
[DEBUG] 2018-12-20 11:33:55,526 | /home/babitagujar/frappe-bench/apps/frappe/frappe/utils/scheduler.py:
Site: library
Queued events for site library
[DEBUG] 2018-12-20 11:34:55,635 | /home/babitagujar/frappe-bench/apps/frappe/frappe/utils/scheduler.py:
Site: ekart_site
Queued events for site ekart_site
[DEBUG] 2018-12-20 11:34:55,669 | /home/babitagujar/frappe-bench/apps/frappe/frappe/utils/scheduler.py:
Site: erpnext_site
Queued events for site erpnext_site
[DEBUG] 2018-12-20 11:34:55,730 | /home/babitagujar/frappe-bench/apps/frappe/frappe/utils/scheduler.py:
Site: library
Queued events for site library
[DEBUG] 2018-12-20 11:35:55,816 | /home/babitagujar/frappe-bench/apps/frappe/frappe/utils/scheduler.py:
Site: ekart_site
Queued events for site ekart_site
[DEBUG] 2018-12-20 11:35:55,830 | /home/babitagujar/frappe-bench/apps/frappe/frappe/utils/scheduler.py:
Site: erpnext_site
Queued events for site erpnext_site
[DEBUG] 2018-12-20 11:35:55,845 | /home/babitagujar/frappe-bench/apps/frappe/frappe/utils/scheduler.py:
Site: library
Queued events for site library
[DEBUG] 2018-12-20 11:36:55,935 | /home/babitagujar/frappe-bench/apps/frappe/frappe/utils/scheduler.py:
Site: ekart_site
Queued events for site ekart_site
[DEBUG] 2018-12-20 11:36:55,948 | /home/babitagujar/frappe-bench/apps/frappe/frappe/utils/scheduler.py:
Site: erpnext_site
Queued events for site erpnext_site
[DEBUG] 2018-12-20 11:36:55,962 | /home/babitagujar/frappe-bench/apps/frappe/frappe/utils/scheduler.py:
Site: library
Queued events for site library
[DEBUG] 2018-12-20 11:37:56,047 | /home/babitagujar/frappe-bench/apps/frappe/frappe/utils/scheduler.py:
Site: ekart_site
Queued events for site ekart_site
[DEBUG] 2018-12-20 11:37:56,060 | /home/babitagujar/frappe-bench/apps/frappe/frappe/utils/scheduler.py:
Site: erpnext_site
Queued events for site erpnext_site
[DEBUG] 2018-12-20 11:37:56,072 | /home/babitagujar/frappe-bench/apps/frappe/frappe/utils/scheduler.py:
Site: library
Queued events for site library
[DEBUG] 2018-12-20 11:38:56,178 | /home/babitagujar/frappe-bench/apps/frappe/frappe/utils/scheduler.py:
Site: ekart_site
Queued events for site ekart_site
[DEBUG] 2018-12-20 11:38:56,211 | /home/babitagujar/frappe-bench/apps/frappe/frappe/utils/scheduler.py:
Site: erpnext_site
Queued events for site erpnext_site
[DEBUG] 2018-12-20 11:38:56,263 | /home/babitagujar/frappe-bench/apps/frappe/frappe/utils/scheduler.py:
Site: library
Queued events for site library
[DEBUG] 2018-12-20 11:39:56,351 | /home/babitagujar/frappe-bench/apps/frappe/frappe/utils/scheduler.py:
Site: ekart_site
Queued events for site ekart_site
[DEBUG] 2018-12-20 11:39:56,365 | /home/babitagujar/frappe-bench/apps/frappe/frappe/utils/scheduler.py:
Site: erpnext_site
Queued events for site erpnext_site
[DEBUG] 2018-12-20 11:39:56,377 | /home/babitagujar/frappe-bench/apps/frappe/frappe/utils/scheduler.py:
Site: library
Queued events for site library
[DEBUG] 2018-12-20 11:40:56,462 | /home/babitagujar/frappe-bench/apps/frappe/frappe/utils/scheduler.py:
Site: ekart_site
Queued events for site ekart_site
[DEBUG] 2018-12-20 11:40:56,475 | /home/babitagujar/frappe-bench/apps/frappe/frappe/utils/scheduler.py:
Site: erpnext_site
Queued events for site erpnext_site
[DEBUG] 2018-12-20 11:40:56,488 | /home/babitagujar/frappe-bench/apps/frappe/frappe/utils/scheduler.py:
Site: library
Queued events for site library
[DEBUG] 2018-12-20 11:41:56,577 | /home/babitagujar/frappe-bench/apps/frappe/frappe/utils/scheduler.py:
Site: ekart_site
Queued events for site ekart_site
[DEBUG] 2018-12-20 11:41:56,590 | /home/babitagujar/frappe-bench/apps/frappe/frappe/utils/scheduler.py:
Site: erpnext_site
Queued events for site erpnext_site
[DEBUG] 2018-12-20 11:41:56,607 | /home/babitagujar/frappe-bench/apps/frappe/frappe/utils/scheduler.py:
Site: library
Queued events for site library
[DEBUG] 2018-12-20 11:42:56,710 | /home/babitagujar/frappe-bench/apps/frappe/frappe/utils/scheduler.py:
Site: ekart_site
Queued events for site ekart_site
[DEBUG] 2018-12-20 11:42:56,734 | /home/babitagujar/frappe-bench/apps/frappe/frappe/utils/scheduler.py:
Site: erpnext_site
Queued events for site erpnext_site
[DEBUG] 2018-12-20 11:42:56,776 | /home/babitagujar/frappe-bench/apps/frappe/frappe/utils/scheduler.py:
Site: library
Queued events for site library
[DEBUG] 2018-12-20 11:43:56,862 | /home/babitagujar/frappe-bench/apps/frappe/frappe/utils/scheduler.py:
Site: ekart_site
Queued events for site ekart_site
[DEBUG] 2018-12-20 11:43:56,876 | /home/babitagujar/frappe-bench/apps/frappe/frappe/utils/scheduler.py:
Site: erpnext_site
Queued events for site erpnext_site
[DEBUG] 2018-12-20 11:43:56,891 | /home/babitagujar/frappe-bench/apps/frappe/frappe/utils/scheduler.py:
Site: library
Queued events for site library
[DEBUG] 2018-12-20 11:44:56,976 | /home/babitagujar/frappe-bench/apps/frappe/frappe/utils/scheduler.py:
Site: ekart_site
Queued events for site ekart_site
[DEBUG] 2018-12-20 11:44:56,989 | /home/babitagujar/frappe-bench/apps/frappe/frappe/utils/scheduler.py:
Site: erpnext_site
Queued events for site erpnext_site
[DEBUG] 2018-12-20 11:44:57,004 | /home/babitagujar/frappe-bench/apps/frappe/frappe/utils/scheduler.py:
Site: library
Queued events for site library
[DEBUG] 2018-12-20 11:45:57,090 | /home/babitagujar/frappe-bench/apps/frappe/frappe/utils/scheduler.py:
Site: ekart_site
Queued events for site ekart_site
[DEBUG] 2018-12-20 11:45:57,104 | /home/babitagujar/frappe-bench/apps/frappe/frappe/utils/scheduler.py:
Site: erpnext_site
Queued events for site erpnext_site
[DEBUG] 2018-12-20 11:45:57,118 | /home/babitagujar/frappe-bench/apps/frappe/frappe/utils/scheduler.py:
Site: library
Queued events for site library
[DEBUG] 2018-12-20 11:46:57,224 | /home/babitagujar/frappe-bench/apps/frappe/frappe/utils/scheduler.py:
Site: ekart_site
Queued events for site ekart_site
[DEBUG] 2018-12-20 11:46:57,259 | /home/babitagujar/frappe-bench/apps/frappe/frappe/utils/scheduler.py:
Site: erpnext_site
Queued events for site erpnext_site
[DEBUG] 2018-12-20 11:46:57,312 | /home/babitagujar/frappe-bench/apps/frappe/frappe/utils/scheduler.py:
Site: library
Queued events for site library
[DEBUG] 2018-12-20 11:47:57,400 | /home/babitagujar/frappe-bench/apps/frappe/frappe/utils/scheduler.py:
Site: ekart_site
Queued events for site ekart_site
[DEBUG] 2018-12-20 11:47:57,412 | /home/babitagujar/frappe-bench/apps/frappe/frappe/utils/scheduler.py:
Site: erpnext_site
Queued events for site erpnext_site
[DEBUG] 2018-12-20 11:47:57,424 | /home/babitagujar/frappe-bench/apps/frappe/frappe/utils/scheduler.py:
Site: library
Queued events for site library
[DEBUG] 2018-12-20 11:48:57,512 | /home/babitagujar/frappe-bench/apps/frappe/frappe/utils/scheduler.py:
Site: ekart_site
Queued events for site ekart_site
[DEBUG] 2018-12-20 11:48:57,528 | /home/babitagujar/frappe-bench/apps/frappe/frappe/utils/scheduler.py:
Site: erpnext_site
Queued events for site erpnext_site
[DEBUG] 2018-12-20 11:48:57,544 | /home/babitagujar/frappe-bench/apps/frappe/frappe/utils/scheduler.py:
Site: library
Queued events for site library
[DEBUG] 2018-12-20 11:49:57,629 | /home/babitagujar/frappe-bench/apps/frappe/frappe/utils/scheduler.py:
Site: ekart_site
Queued events for site ekart_site
[DEBUG] 2018-12-20 11:49:57,643 | /home/babitagujar/frappe-bench/apps/frappe/frappe/utils/scheduler.py:
Site: erpnext_site
Queued events for site erpnext_site
[DEBUG] 2018-12-20 11:49:57,660 | /home/babitagujar/frappe-bench/apps/frappe/frappe/utils/scheduler.py:
Site: library
Queued events for site library
[DEBUG] 2018-12-20 11:50:57,763 | /home/babitagujar/frappe-bench/apps/frappe/frappe/utils/scheduler.py:
Site: ekart_site
Queued events for site ekart_site
[DEBUG] 2018-12-20 11:50:57,789 | /home/babitagujar/frappe-bench/apps/frappe/frappe/utils/scheduler.py:
Site: erpnext_site
Queued events for site erpnext_site
[DEBUG] 2018-12-20 11:50:57,836 | /home/babitagujar/frappe-bench/apps/frappe/frappe/utils/scheduler.py:
Site: library
Queued events for site library
[DEBUG] 2018-12-20 11:51:57,921 | /home/babitagujar/frappe-bench/apps/frappe/frappe/utils/scheduler.py:
Site: ekart_site
Queued events for site ekart_site
[DEBUG] 2018-12-20 11:51:57,933 | /home/babitagujar/frappe-bench/apps/frappe/frappe/utils/scheduler.py:
Site: erpnext_site
Queued events for site erpnext_site
[DEBUG] 2018-12-20 11:51:57,944 | /home/babitagujar/frappe-bench/apps/frappe/frappe/utils/scheduler.py:
Site: library
Queued events for site library
[DEBUG] 2018-12-20 11:52:58,030 | /home/babitagujar/frappe-bench/apps/frappe/frappe/utils/scheduler.py:
Site: ekart_site
Queued events for site ekart_site
[DEBUG] 2018-12-20 11:52:58,044 | /home/babitagujar/frappe-bench/apps/frappe/frappe/utils/scheduler.py:
Site: erpnext_site
Queued events for site erpnext_site
[DEBUG] 2018-12-20 11:52:58,058 | /home/babitagujar/frappe-bench/apps/frappe/frappe/utils/scheduler.py:
Site: library
Queued events for site library
[DEBUG] 2018-12-20 11:53:58,145 | /home/babitagujar/frappe-bench/apps/frappe/frappe/utils/scheduler.py:
Site: ekart_site
Queued events for site ekart_site
[DEBUG] 2018-12-20 11:53:58,159 | /home/babitagujar/frappe-bench/apps/frappe/frappe/utils/scheduler.py:
Site: erpnext_site
Queued events for site erpnext_site
[DEBUG] 2018-12-20 11:53:58,172 | /home/babitagujar/frappe-bench/apps/frappe/frappe/utils/scheduler.py:
Site: library
Queued events for site library
[DEBUG] 2018-12-20 11:54:58,278 | /home/babitagujar/frappe-bench/apps/frappe/frappe/utils/scheduler.py:
Site: ekart_site
Queued events for site ekart_site
[DEBUG] 2018-12-20 11:54:58,314 | /home/babitagujar/frappe-bench/apps/frappe/frappe/utils/scheduler.py:
Site: erpnext_site
Queued events for site erpnext_site
[DEBUG] 2018-12-20 11:54:58,363 | /home/babitagujar/frappe-bench/apps/frappe/frappe/utils/scheduler.py:
Site: library
Queued events for site library
[DEBUG] 2018-12-20 11:55:58,450 | /home/babitagujar/frappe-bench/apps/frappe/frappe/utils/scheduler.py:
Site: ekart_site
Queued events for site ekart_site
[DEBUG] 2018-12-20 11:55:58,465 | /home/babitagujar/frappe-bench/apps/frappe/frappe/utils/scheduler.py:
Site: erpnext_site
Queued events for site erpnext_site
[DEBUG] 2018-12-20 11:55:58,480 | /home/babitagujar/frappe-bench/apps/frappe/frappe/utils/scheduler.py:
Site: library
Queued events for site library
[DEBUG] 2018-12-20 11:56:58,569 | /home/babitagujar/frappe-bench/apps/frappe/frappe/utils/scheduler.py:
Site: ekart_site
Queued events for site ekart_site
[DEBUG] 2018-12-20 11:56:58,583 | /home/babitagujar/frappe-bench/apps/frappe/frappe/utils/scheduler.py:
Site: erpnext_site
Queued events for site erpnext_site
[DEBUG] 2018-12-20 11:56:58,596 | /home/babitagujar/frappe-bench/apps/frappe/frappe/utils/scheduler.py:
Site: library
Queued events for site library
[DEBUG] 2018-12-20 11:57:58,681 | /home/babitagujar/frappe-bench/apps/frappe/frappe/utils/scheduler.py:
Site: ekart_site
Queued events for site ekart_site
[DEBUG] 2018-12-20 11:57:58,695 | /home/babitagujar/frappe-bench/apps/frappe/frappe/utils/scheduler.py:
Site: erpnext_site
Queued events for site erpnext_site
[DEBUG] 2018-12-20 11:57:58,709 | /home/babitagujar/frappe-bench/apps/frappe/frappe/utils/scheduler.py:
Site: library
Queued events for site library
[DEBUG] 2018-12-20 11:58:58,813 | /home/babitagujar/frappe-bench/apps/frappe/frappe/utils/scheduler.py:
Site: ekart_site
Queued events for site ekart_site
[DEBUG] 2018-12-20 11:58:58,837 | /home/babitagujar/frappe-bench/apps/frappe/frappe/utils/scheduler.py:
Site: erpnext_site
Queued events for site erpnext_site
[DEBUG] 2018-12-20 11:58:58,875 | /home/babitagujar/frappe-bench/apps/frappe/frappe/utils/scheduler.py:
Site: library
Queued events for site library
[DEBUG] 2018-12-20 11:59:58,963 | /home/babitagujar/frappe-bench/apps/frappe/frappe/utils/scheduler.py:
Site: ekart_site
Queued events for site ekart_site
[DEBUG] 2018-12-20 11:59:58,977 | /home/babitagujar/frappe-bench/apps/frappe/frappe/utils/scheduler.py:
Site: erpnext_site
Queued events for site erpnext_site
[DEBUG] 2018-12-20 11:59:58,990 | /home/babitagujar/frappe-bench/apps/frappe/frappe/utils/scheduler.py:
Site: library
Queued events for site library
[DEBUG] 2018-12-20 12:00:59,076 | /home/babitagujar/frappe-bench/apps/frappe/frappe/utils/scheduler.py:
Site: ekart_site
Queued events for site ekart_site
[DEBUG] 2018-12-20 12:00:59,089 | /home/babitagujar/frappe-bench/apps/frappe/frappe/utils/scheduler.py:
Site: erpnext_site
Queued events for site erpnext_site
[DEBUG] 2018-12-20 12:00:59,102 | /home/babitagujar/frappe-bench/apps/frappe/frappe/utils/scheduler.py:
Site: library
Queued events for site library
[DEBUG] 2018-12-20 12:01:59,189 | /home/babitagujar/frappe-bench/apps/frappe/frappe/utils/scheduler.py:
Site: ekart_site
Queued events for site ekart_site
[DEBUG] 2018-12-20 12:01:59,201 | /home/babitagujar/frappe-bench/apps/frappe/frappe/utils/scheduler.py:
Site: erpnext_site
Queued events for site erpnext_site
[DEBUG] 2018-12-20 12:01:59,214 | /home/babitagujar/frappe-bench/apps/frappe/frappe/utils/scheduler.py:
Site: library
Queued events for site library
[DEBUG] 2018-12-20 12:02:59,326 | /home/babitagujar/frappe-bench/apps/frappe/frappe/utils/scheduler.py:
Site: ekart_site
Queued events for site ekart_site
[DEBUG] 2018-12-20 12:02:59,364 | /home/babitagujar/frappe-bench/apps/frappe/frappe/utils/scheduler.py:
Site: erpnext_site
Queued events for site erpnext_site
[DEBUG] 2018-12-20 12:02:59,427 | /home/babitagujar/frappe-bench/apps/frappe/frappe/utils/scheduler.py:
Site: library
Queued events for site library
[DEBUG] 2018-12-20 12:03:59,523 | /home/babitagujar/frappe-bench/apps/frappe/frappe/utils/scheduler.py:
Site: ekart_site
Queued events for site ekart_site
[DEBUG] 2018-12-20 12:03:59,536 | /home/babitagujar/frappe-bench/apps/frappe/frappe/utils/scheduler.py:
Site: erpnext_site
Queued events for site erpnext_site
[DEBUG] 2018-12-20 12:03:59,550 | /home/babitagujar/frappe-bench/apps/frappe/frappe/utils/scheduler.py:
Site: library
Queued events for site library
[DEBUG] 2018-12-20 12:04:59,639 | /home/babitagujar/frappe-bench/apps/frappe/frappe/utils/scheduler.py:
Site: ekart_site
Queued events for site ekart_site
[DEBUG] 2018-12-20 12:04:59,653 | /home/babitagujar/frappe-bench/apps/frappe/frappe/utils/scheduler.py:
Site: erpnext_site
Queued events for site erpnext_site
[DEBUG] 2018-12-20 12:04:59,668 | /home/babitagujar/frappe-bench/apps/frappe/frappe/utils/scheduler.py:
Site: library
Queued events for site library
[DEBUG] 2018-12-20 12:05:59,753 | /home/babitagujar/frappe-bench/apps/frappe/frappe/utils/scheduler.py:
Site: ekart_site
Queued events for site ekart_site
[DEBUG] 2018-12-20 12:05:59,767 | /home/babitagujar/frappe-bench/apps/frappe/frappe/utils/scheduler.py:
Site: erpnext_site
Queued events for site erpnext_site
[DEBUG] 2018-12-20 12:05:59,780 | /home/babitagujar/frappe-bench/apps/frappe/frappe/utils/scheduler.py:
Site: library
Queued events for site library
[DEBUG] 2018-12-20 12:06:59,888 | /home/babitagujar/frappe-bench/apps/frappe/frappe/utils/scheduler.py:
Site: ekart_site
Queued events for site ekart_site
[DEBUG] 2018-12-20 12:06:59,917 | /home/babitagujar/frappe-bench/apps/frappe/frappe/utils/scheduler.py:
Site: erpnext_site
Queued events for site erpnext_site
[DEBUG] 2018-12-20 12:06:59,957 | /home/babitagujar/frappe-bench/apps/frappe/frappe/utils/scheduler.py:
Site: library
Queued events for site library
[DEBUG] 2018-12-20 12:08:00,043 | /home/babitagujar/frappe-bench/apps/frappe/frappe/utils/scheduler.py:
Site: ekart_site
Queued events for site ekart_site
[DEBUG] 2018-12-20 12:08:00,056 | /home/babitagujar/frappe-bench/apps/frappe/frappe/utils/scheduler.py:
Site: erpnext_site
Queued events for site erpnext_site
[DEBUG] 2018-12-20 12:08:00,070 | /home/babitagujar/frappe-bench/apps/frappe/frappe/utils/scheduler.py:
Site: library
Queued events for site library
[DEBUG] 2018-12-20 12:09:00,158 | /home/babitagujar/frappe-bench/apps/frappe/frappe/utils/scheduler.py:
Site: ekart_site
Queued events for site ekart_site
[DEBUG] 2018-12-20 12:09:00,172 | /home/babitagujar/frappe-bench/apps/frappe/frappe/utils/scheduler.py:
Site: erpnext_site
Queued events for site erpnext_site
[DEBUG] 2018-12-20 12:09:00,186 | /home/babitagujar/frappe-bench/apps/frappe/frappe/utils/scheduler.py:
Site: library
Queued events for site library
[DEBUG] 2018-12-20 12:10:00,287 | /home/babitagujar/frappe-bench/apps/frappe/frappe/utils/scheduler.py:
Site: ekart_site
Queued events for site ekart_site
[DEBUG] 2018-12-20 12:10:00,311 | /home/babitagujar/frappe-bench/apps/frappe/frappe/utils/scheduler.py:
Site: erpnext_site
Queued events for site erpnext_site
[DEBUG] 2018-12-20 12:10:00,349 | /home/babitagujar/frappe-bench/apps/frappe/frappe/utils/scheduler.py:
Site: library
Queued events for site library
[DEBUG] 2018-12-20 12:11:00,435 | /home/babitagujar/frappe-bench/apps/frappe/frappe/utils/scheduler.py:
Site: ekart_site
Queued events for site ekart_site
[DEBUG] 2018-12-20 12:11:00,447 | /home/babitagujar/frappe-bench/apps/frappe/frappe/utils/scheduler.py:
Site: erpnext_site
Queued events for site erpnext_site
[DEBUG] 2018-12-20 12:11:00,461 | /home/babitagujar/frappe-bench/apps/frappe/frappe/utils/scheduler.py:
Site: library
Queued events for site library
[DEBUG] 2018-12-20 12:12:00,555 | /home/babitagujar/frappe-bench/apps/frappe/frappe/utils/scheduler.py:
Site: ekart_site
Queued events for site ekart_site
[DEBUG] 2018-12-20 12:12:00,574 | /home/babitagujar/frappe-bench/apps/frappe/frappe/utils/scheduler.py:
Site: erpnext_site
Queued events for site erpnext_site
[DEBUG] 2018-12-20 12:12:00,594 | /home/babitagujar/frappe-bench/apps/frappe/frappe/utils/scheduler.py:
Site: library
Queued events for site library
[DEBUG] 2018-12-20 12:13:00,681 | /home/babitagujar/frappe-bench/apps/frappe/frappe/utils/scheduler.py:
Site: ekart_site
Queued events for site ekart_site
[DEBUG] 2018-12-20 12:13:00,693 | /home/babitagujar/frappe-bench/apps/frappe/frappe/utils/scheduler.py:
Site: erpnext_site
Queued events for site erpnext_site
[DEBUG] 2018-12-20 12:13:00,705 | /home/babitagujar/frappe-bench/apps/frappe/frappe/utils/scheduler.py:
Site: library
Queued events for site library
[DEBUG] 2018-12-20 12:14:00,811 | /home/babitagujar/frappe-bench/apps/frappe/frappe/utils/scheduler.py:
Site: ekart_site
Queued events for site ekart_site
[DEBUG] 2018-12-20 12:14:00,844 | /home/babitagujar/frappe-bench/apps/frappe/frappe/utils/scheduler.py:
Site: erpnext_site
Queued events for site erpnext_site
[DEBUG] 2018-12-20 12:14:00,895 | /home/babitagujar/frappe-bench/apps/frappe/frappe/utils/scheduler.py:
Site: library
Queued events for site library
[DEBUG] 2018-12-20 12:15:00,981 | /home/babitagujar/frappe-bench/apps/frappe/frappe/utils/scheduler.py:
Site: ekart_site
Queued events for site ekart_site
[DEBUG] 2018-12-20 12:15:00,993 | /home/babitagujar/frappe-bench/apps/frappe/frappe/utils/scheduler.py:
Site: erpnext_site
Queued events for site erpnext_site
[DEBUG] 2018-12-20 12:15:01,008 | /home/babitagujar/frappe-bench/apps/frappe/frappe/utils/scheduler.py:
Site: library
Queued events for site library
[DEBUG] 2018-12-20 12:16:01,097 | /home/babitagujar/frappe-bench/apps/frappe/frappe/utils/scheduler.py:
Site: ekart_site
Queued events for site ekart_site
[DEBUG] 2018-12-20 12:16:01,111 | /home/babitagujar/frappe-bench/apps/frappe/frappe/utils/scheduler.py:
Site: erpnext_site
Queued events for site erpnext_site
[DEBUG] 2018-12-20 12:16:01,124 | /home/babitagujar/frappe-bench/apps/frappe/frappe/utils/scheduler.py:
Site: library
Queued events for site library
[DEBUG] 2018-12-20 12:17:01,206 | /home/babitagujar/frappe-bench/apps/frappe/frappe/utils/scheduler.py:
Site: ekart_site
Queued events for site ekart_site
[DEBUG] 2018-12-20 12:17:01,218 | /home/babitagujar/frappe-bench/apps/frappe/frappe/utils/scheduler.py:
Site: erpnext_site
Queued events for site erpnext_site
[DEBUG] 2018-12-20 12:17:01,231 | /home/babitagujar/frappe-bench/apps/frappe/frappe/utils/scheduler.py:
Site: library
Queued events for site library
[DEBUG] 2018-12-20 12:18:01,332 | /home/babitagujar/frappe-bench/apps/frappe/frappe/utils/scheduler.py:
Site: ekart_site
Queued events for site ekart_site
[DEBUG] 2018-12-20 12:18:01,363 | /home/babitagujar/frappe-bench/apps/frappe/frappe/utils/scheduler.py:
Site: erpnext_site
Queued events for site erpnext_site
[DEBUG] 2018-12-20 12:18:01,416 | /home/babitagujar/frappe-bench/apps/frappe/frappe/utils/scheduler.py:
Site: library
Queued events for site library
[DEBUG] 2018-12-20 12:19:01,488 | /home/babitagujar/frappe-bench/apps/frappe/frappe/utils/scheduler.py:
Site: ekart_site
Queued events for site ekart_site
[DEBUG] 2018-12-20 12:19:01,502 | /home/babitagujar/frappe-bench/apps/frappe/frappe/utils/scheduler.py:
Site: erpnext_site
Queued events for site erpnext_site
[DEBUG] 2018-12-20 12:19:01,516 | /home/babitagujar/frappe-bench/apps/frappe/frappe/utils/scheduler.py:
Site: library
Queued events for site library
[DEBUG] 2018-12-20 12:20:01,604 | /home/babitagujar/frappe-bench/apps/frappe/frappe/utils/scheduler.py:
Site: ekart_site
Queued events for site ekart_site
[DEBUG] 2018-12-20 12:20:01,618 | /home/babitagujar/frappe-bench/apps/frappe/frappe/utils/scheduler.py:
Site: erpnext_site
Queued events for site erpnext_site
[DEBUG] 2018-12-20 12:20:01,631 | /home/babitagujar/frappe-bench/apps/frappe/frappe/utils/scheduler.py:
Site: library
Queued events for site library
[DEBUG] 2018-12-20 12:21:01,715 | /home/babitagujar/frappe-bench/apps/frappe/frappe/utils/scheduler.py:
Site: ekart_site
Queued events for site ekart_site
[DEBUG] 2018-12-20 12:21:01,726 | /home/babitagujar/frappe-bench/apps/frappe/frappe/utils/scheduler.py:
Site: erpnext_site
Queued events for site erpnext_site
[DEBUG] 2018-12-20 12:21:01,738 | /home/babitagujar/frappe-bench/apps/frappe/frappe/utils/scheduler.py:
Site: library
Queued events for site library
[DEBUG] 2018-12-20 12:22:01,838 | /home/babitagujar/frappe-bench/apps/frappe/frappe/utils/scheduler.py:
Site: ekart_site
Queued events for site ekart_site
[DEBUG] 2018-12-20 12:22:01,863 | /home/babitagujar/frappe-bench/apps/frappe/frappe/utils/scheduler.py:
Site: erpnext_site
Queued events for site erpnext_site
[DEBUG] 2018-12-20 12:22:01,905 | /home/babitagujar/frappe-bench/apps/frappe/frappe/utils/scheduler.py:
Site: library
Queued events for site library
[DEBUG] 2018-12-20 12:23:01,993 | /home/babitagujar/frappe-bench/apps/frappe/frappe/utils/scheduler.py:
Site: ekart_site
Queued events for site ekart_site
[DEBUG] 2018-12-20 12:23:02,007 | /home/babitagujar/frappe-bench/apps/frappe/frappe/utils/scheduler.py:
Site: erpnext_site
Queued events for site erpnext_site
[DEBUG] 2018-12-20 12:23:02,021 | /home/babitagujar/frappe-bench/apps/frappe/frappe/utils/scheduler.py:
Site: library
Queued events for site library
[DEBUG] 2018-12-20 12:24:02,101 | /home/babitagujar/frappe-bench/apps/frappe/frappe/utils/scheduler.py:
Site: ekart_site
Queued events for site ekart_site
[DEBUG] 2018-12-20 12:24:02,114 | /home/babitagujar/frappe-bench/apps/frappe/frappe/utils/scheduler.py:
Site: erpnext_site
Queued events for site erpnext_site
[DEBUG] 2018-12-20 12:24:02,129 | /home/babitagujar/frappe-bench/apps/frappe/frappe/utils/scheduler.py:
Site: library
Queued events for site library
[DEBUG] 2018-12-20 12:25:02,217 | /home/babitagujar/frappe-bench/apps/frappe/frappe/utils/scheduler.py:
Site: ekart_site
Queued events for site ekart_site
[DEBUG] 2018-12-20 12:25:02,229 | /home/babitagujar/frappe-bench/apps/frappe/frappe/utils/scheduler.py:
Site: erpnext_site
Queued events for site erpnext_site
[DEBUG] 2018-12-20 12:25:02,245 | /home/babitagujar/frappe-bench/apps/frappe/frappe/utils/scheduler.py:
Site: library
Queued events for site library
[DEBUG] 2018-12-20 12:26:02,351 | /home/babitagujar/frappe-bench/apps/frappe/frappe/utils/scheduler.py:
Site: ekart_site
Queued events for site ekart_site
[DEBUG] 2018-12-20 12:26:02,375 | /home/babitagujar/frappe-bench/apps/frappe/frappe/utils/scheduler.py:
Site: erpnext_site
Queued events for site erpnext_site
[DEBUG] 2018-12-20 12:26:02,416 | /home/babitagujar/frappe-bench/apps/frappe/frappe/utils/scheduler.py:
Site: library
Queued events for site library
[DEBUG] 2018-12-20 12:27:02,503 | /home/babitagujar/frappe-bench/apps/frappe/frappe/utils/scheduler.py:
Site: ekart_site
Queued events for site ekart_site
[DEBUG] 2018-12-20 12:27:02,516 | /home/babitagujar/frappe-bench/apps/frappe/frappe/utils/scheduler.py:
Site: erpnext_site
Queued events for site erpnext_site
[DEBUG] 2018-12-20 12:27:02,531 | /home/babitagujar/frappe-bench/apps/frappe/frappe/utils/scheduler.py:
Site: library
Queued events for site library
[DEBUG] 2018-12-20 12:28:02,619 | /home/babitagujar/frappe-bench/apps/frappe/frappe/utils/scheduler.py:
Site: ekart_site
Queued events for site ekart_site
[DEBUG] 2018-12-20 12:28:02,633 | /home/babitagujar/frappe-bench/apps/frappe/frappe/utils/scheduler.py:
Site: erpnext_site
Queued events for site erpnext_site
[DEBUG] 2018-12-20 12:28:02,646 | /home/babitagujar/frappe-bench/apps/frappe/frappe/utils/scheduler.py:
Site: library
Queued events for site library
[DEBUG] 2018-12-20 12:29:02,733 | /home/babitagujar/frappe-bench/apps/frappe/frappe/utils/scheduler.py:
Site: ekart_site
Queued events for site ekart_site
[DEBUG] 2018-12-20 12:29:02,745 | /home/babitagujar/frappe-bench/apps/frappe/frappe/utils/scheduler.py:
Site: erpnext_site
Queued events for site erpnext_site
[DEBUG] 2018-12-20 12:29:02,757 | /home/babitagujar/frappe-bench/apps/frappe/frappe/utils/scheduler.py:
Site: library
Queued events for site library
[DEBUG] 2018-12-20 12:30:02,869 | /home/babitagujar/frappe-bench/apps/frappe/frappe/utils/scheduler.py:
Site: ekart_site
Queued events for site ekart_site
[DEBUG] 2018-12-20 12:30:02,926 | /home/babitagujar/frappe-bench/apps/frappe/frappe/utils/scheduler.py:
Site: erpnext_site
Queued events for site erpnext_site
[DEBUG] 2018-12-20 12:30:02,987 | /home/babitagujar/frappe-bench/apps/frappe/frappe/utils/scheduler.py:
Site: library
Queued events for site library
[DEBUG] 2018-12-20 12:31:03,073 | /home/babitagujar/frappe-bench/apps/frappe/frappe/utils/scheduler.py:
Site: ekart_site
Queued events for site ekart_site
[DEBUG] 2018-12-20 12:31:03,086 | /home/babitagujar/frappe-bench/apps/frappe/frappe/utils/scheduler.py:
Site: erpnext_site
Queued events for site erpnext_site
[DEBUG] 2018-12-20 12:31:03,099 | /home/babitagujar/frappe-bench/apps/frappe/frappe/utils/scheduler.py:
Site: library
Queued events for site library
[DEBUG] 2018-12-20 12:32:03,191 | /home/babitagujar/frappe-bench/apps/frappe/frappe/utils/scheduler.py:
Site: ekart_site
Queued events for site ekart_site
[DEBUG] 2018-12-20 12:32:03,204 | /home/babitagujar/frappe-bench/apps/frappe/frappe/utils/scheduler.py:
Site: erpnext_site
Queued events for site erpnext_site
[DEBUG] 2018-12-20 12:32:03,219 | /home/babitagujar/frappe-bench/apps/frappe/frappe/utils/scheduler.py:
Site: library
Queued events for site library
[DEBUG] 2018-12-20 12:33:03,307 | /home/babitagujar/frappe-bench/apps/frappe/frappe/utils/scheduler.py:
Site: ekart_site
Queued events for site ekart_site
[DEBUG] 2018-12-20 12:33:03,322 | /home/babitagujar/frappe-bench/apps/frappe/frappe/utils/scheduler.py:
Site: erpnext_site
Queued events for site erpnext_site
[DEBUG] 2018-12-20 12:33:03,335 | /home/babitagujar/frappe-bench/apps/frappe/frappe/utils/scheduler.py:
Site: library
Queued events for site library
[DEBUG] 2018-12-20 12:34:03,442 | /home/babitagujar/frappe-bench/apps/frappe/frappe/utils/scheduler.py:
Site: ekart_site
Queued events for site ekart_site
[DEBUG] 2018-12-20 12:34:03,472 | /home/babitagujar/frappe-bench/apps/frappe/frappe/utils/scheduler.py:
Site: erpnext_site
Queued events for site erpnext_site
[DEBUG] 2018-12-20 12:34:03,517 | /home/babitagujar/frappe-bench/apps/frappe/frappe/utils/scheduler.py:
Site: library
Queued events for site library
[DEBUG] 2018-12-20 12:35:03,604 | /home/babitagujar/frappe-bench/apps/frappe/frappe/utils/scheduler.py:
Site: ekart_site
Queued events for site ekart_site
[DEBUG] 2018-12-20 12:35:03,618 | /home/babitagujar/frappe-bench/apps/frappe/frappe/utils/scheduler.py:
Site: erpnext_site
Queued events for site erpnext_site
[DEBUG] 2018-12-20 12:35:03,632 | /home/babitagujar/frappe-bench/apps/frappe/frappe/utils/scheduler.py:
Site: library
Queued events for site library
[DEBUG] 2018-12-20 12:36:03,720 | /home/babitagujar/frappe-bench/apps/frappe/frappe/utils/scheduler.py:
Site: ekart_site
Queued events for site ekart_site
[DEBUG] 2018-12-20 12:36:03,738 | /home/babitagujar/frappe-bench/apps/frappe/frappe/utils/scheduler.py:
Site: erpnext_site
Queued events for site erpnext_site
[DEBUG] 2018-12-20 12:36:03,751 | /home/babitagujar/frappe-bench/apps/frappe/frappe/utils/scheduler.py:
Site: library
Queued events for site library
[DEBUG] 2018-12-20 12:37:03,833 | /home/babitagujar/frappe-bench/apps/frappe/frappe/utils/scheduler.py:
Site: ekart_site
Queued events for site ekart_site
[DEBUG] 2018-12-20 12:37:03,844 | /home/babitagujar/frappe-bench/apps/frappe/frappe/utils/scheduler.py:
Site: erpnext_site
Queued events for site erpnext_site
[DEBUG] 2018-12-20 12:37:03,856 | /home/babitagujar/frappe-bench/apps/frappe/frappe/utils/scheduler.py:
Site: library
Queued events for site library
[DEBUG] 2018-12-20 12:38:03,955 | /home/babitagujar/frappe-bench/apps/frappe/frappe/utils/scheduler.py:
Site: ekart_site
Queued events for site ekart_site
[DEBUG] 2018-12-20 12:38:03,982 | /home/babitagujar/frappe-bench/apps/frappe/frappe/utils/scheduler.py:
Site: erpnext_site
Queued events for site erpnext_site
[DEBUG] 2018-12-20 12:38:04,023 | /home/babitagujar/frappe-bench/apps/frappe/frappe/utils/scheduler.py:
Site: library
Queued events for site library
[DEBUG] 2018-12-20 12:39:04,108 | /home/babitagujar/frappe-bench/apps/frappe/frappe/utils/scheduler.py:
Site: ekart_site
Queued events for site ekart_site
[DEBUG] 2018-12-20 12:39:04,121 | /home/babitagujar/frappe-bench/apps/frappe/frappe/utils/scheduler.py:
Site: erpnext_site
Queued events for site erpnext_site
[DEBUG] 2018-12-20 12:39:04,135 | /home/babitagujar/frappe-bench/apps/frappe/frappe/utils/scheduler.py:
Site: library
Queued events for site library
[DEBUG] 2018-12-20 12:40:04,219 | /home/babitagujar/frappe-bench/apps/frappe/frappe/utils/scheduler.py:
Site: ekart_site
Queued events for site ekart_site
[DEBUG] 2018-12-20 12:40:04,231 | /home/babitagujar/frappe-bench/apps/frappe/frappe/utils/scheduler.py:
Site: erpnext_site
Queued events for site erpnext_site
[DEBUG] 2018-12-20 12:40:04,243 | /home/babitagujar/frappe-bench/apps/frappe/frappe/utils/scheduler.py:
Site: library
Queued events for site library
[DEBUG] 2018-12-20 12:41:04,329 | /home/babitagujar/frappe-bench/apps/frappe/frappe/utils/scheduler.py:
Site: ekart_site
Queued events for site ekart_site
[DEBUG] 2018-12-20 12:41:04,344 | /home/babitagujar/frappe-bench/apps/frappe/frappe/utils/scheduler.py:
Site: erpnext_site
Queued events for site erpnext_site
[DEBUG] 2018-12-20 12:41:04,357 | /home/babitagujar/frappe-bench/apps/frappe/frappe/utils/scheduler.py:
Site: library
Queued events for site library
[DEBUG] 2018-12-20 12:42:04,458 | /home/babitagujar/frappe-bench/apps/frappe/frappe/utils/scheduler.py:
Site: ekart_site
Queued events for site ekart_site
[DEBUG] 2018-12-20 12:42:04,483 | /home/babitagujar/frappe-bench/apps/frappe/frappe/utils/scheduler.py:
Site: erpnext_site
Queued events for site erpnext_site
[DEBUG] 2018-12-20 12:42:04,519 | /home/babitagujar/frappe-bench/apps/frappe/frappe/utils/scheduler.py:
Site: library
Queued events for site library
[DEBUG] 2018-12-20 12:43:04,604 | /home/babitagujar/frappe-bench/apps/frappe/frappe/utils/scheduler.py:
Site: ekart_site
Queued events for site ekart_site
[DEBUG] 2018-12-20 12:43:04,619 | /home/babitagujar/frappe-bench/apps/frappe/frappe/utils/scheduler.py:
Site: erpnext_site
Queued events for site erpnext_site
[DEBUG] 2018-12-20 12:43:04,632 | /home/babitagujar/frappe-bench/apps/frappe/frappe/utils/scheduler.py:
Site: library
Queued events for site library
[DEBUG] 2018-12-20 12:44:04,719 | /home/babitagujar/frappe-bench/apps/frappe/frappe/utils/scheduler.py:
Site: ekart_site
Queued events for site ekart_site
[DEBUG] 2018-12-20 12:44:04,733 | /home/babitagujar/frappe-bench/apps/frappe/frappe/utils/scheduler.py:
Site: erpnext_site
Queued events for site erpnext_site
[DEBUG] 2018-12-20 12:44:04,747 | /home/babitagujar/frappe-bench/apps/frappe/frappe/utils/scheduler.py:
Site: library
Queued events for site library
[DEBUG] 2018-12-20 12:45:04,833 | /home/babitagujar/frappe-bench/apps/frappe/frappe/utils/scheduler.py:
Site: ekart_site
Queued events for site ekart_site
[DEBUG] 2018-12-20 12:45:04,845 | /home/babitagujar/frappe-bench/apps/frappe/frappe/utils/scheduler.py:
Site: erpnext_site
Queued events for site erpnext_site
[DEBUG] 2018-12-20 12:45:04,856 | /home/babitagujar/frappe-bench/apps/frappe/frappe/utils/scheduler.py:
Site: library
Queued events for site library
[DEBUG] 2018-12-20 12:46:04,966 | /home/babitagujar/frappe-bench/apps/frappe/frappe/utils/scheduler.py:
Site: ekart_site
Queued events for site ekart_site
[DEBUG] 2018-12-20 12:46:04,990 | /home/babitagujar/frappe-bench/apps/frappe/frappe/utils/scheduler.py:
Site: erpnext_site
Queued events for site erpnext_site
[DEBUG] 2018-12-20 12:46:05,035 | /home/babitagujar/frappe-bench/apps/frappe/frappe/utils/scheduler.py:
Site: library
Queued events for site library
[DEBUG] 2018-12-20 12:47:05,127 | /home/babitagujar/frappe-bench/apps/frappe/frappe/utils/scheduler.py:
Site: ekart_site
Queued events for site ekart_site
[DEBUG] 2018-12-20 12:47:05,140 | /home/babitagujar/frappe-bench/apps/frappe/frappe/utils/scheduler.py:
Site: erpnext_site
Queued events for site erpnext_site
[DEBUG] 2018-12-20 12:47:05,154 | /home/babitagujar/frappe-bench/apps/frappe/frappe/utils/scheduler.py:
Site: library
Queued events for site library
[DEBUG] 2018-12-20 12:48:05,239 | /home/babitagujar/frappe-bench/apps/frappe/frappe/utils/scheduler.py:
Site: ekart_site
Queued events for site ekart_site
[DEBUG] 2018-12-20 12:48:05,253 | /home/babitagujar/frappe-bench/apps/frappe/frappe/utils/scheduler.py:
Site: erpnext_site
Queued events for site erpnext_site
[DEBUG] 2018-12-20 12:48:05,265 | /home/babitagujar/frappe-bench/apps/frappe/frappe/utils/scheduler.py:
Site: library
Queued events for site library
[DEBUG] 2018-12-20 12:49:05,353 | /home/babitagujar/frappe-bench/apps/frappe/frappe/utils/scheduler.py:
Site: ekart_site
Queued events for site ekart_site
[DEBUG] 2018-12-20 12:49:05,366 | /home/babitagujar/frappe-bench/apps/frappe/frappe/utils/scheduler.py:
Site: erpnext_site
Queued events for site erpnext_site
[DEBUG] 2018-12-20 12:49:05,379 | /home/babitagujar/frappe-bench/apps/frappe/frappe/utils/scheduler.py:
Site: library
Queued events for site library
[DEBUG] 2018-12-20 12:50:05,480 | /home/babitagujar/frappe-bench/apps/frappe/frappe/utils/scheduler.py:
Site: ekart_site
Queued events for site ekart_site
[DEBUG] 2018-12-20 12:50:05,506 | /home/babitagujar/frappe-bench/apps/frappe/frappe/utils/scheduler.py:
Site: erpnext_site
Queued events for site erpnext_site
[DEBUG] 2018-12-20 12:50:05,554 | /home/babitagujar/frappe-bench/apps/frappe/frappe/utils/scheduler.py:
Site: library
Queued events for site library
[DEBUG] 2018-12-20 12:51:05,642 | /home/babitagujar/frappe-bench/apps/frappe/frappe/utils/scheduler.py:
Site: ekart_site
Queued events for site ekart_site
[DEBUG] 2018-12-20 12:51:05,655 | /home/babitagujar/frappe-bench/apps/frappe/frappe/utils/scheduler.py:
Site: erpnext_site
Queued events for site erpnext_site
[DEBUG] 2018-12-20 12:51:05,669 | /home/babitagujar/frappe-bench/apps/frappe/frappe/utils/scheduler.py:
Site: library
Queued events for site library
[DEBUG] 2018-12-20 12:52:05,754 | /home/babitagujar/frappe-bench/apps/frappe/frappe/utils/scheduler.py:
Site: ekart_site
Queued events for site ekart_site
[DEBUG] 2018-12-20 12:52:05,766 | /home/babitagujar/frappe-bench/apps/frappe/frappe/utils/scheduler.py:
Site: erpnext_site
Queued events for site erpnext_site
[DEBUG] 2018-12-20 12:52:05,778 | /home/babitagujar/frappe-bench/apps/frappe/frappe/utils/scheduler.py:
Site: library
Queued events for site library
[DEBUG] 2018-12-20 12:53:05,864 | /home/babitagujar/frappe-bench/apps/frappe/frappe/utils/scheduler.py:
Site: ekart_site
Queued events for site ekart_site
[DEBUG] 2018-12-20 12:53:05,878 | /home/babitagujar/frappe-bench/apps/frappe/frappe/utils/scheduler.py:
Site: erpnext_site
Queued events for site erpnext_site
[DEBUG] 2018-12-20 12:53:05,891 | /home/babitagujar/frappe-bench/apps/frappe/frappe/utils/scheduler.py:
Site: library
Queued events for site library
[DEBUG] 2018-12-20 12:54:05,998 | /home/babitagujar/frappe-bench/apps/frappe/frappe/utils/scheduler.py:
Site: ekart_site
Queued events for site ekart_site
[DEBUG] 2018-12-20 12:54:06,031 | /home/babitagujar/frappe-bench/apps/frappe/frappe/utils/scheduler.py:
Site: erpnext_site
Queued events for site erpnext_site
[DEBUG] 2018-12-20 12:54:06,081 | /home/babitagujar/frappe-bench/apps/frappe/frappe/utils/scheduler.py:
Site: library
Queued events for site library
[DEBUG] 2018-12-20 12:55:06,151 | /home/babitagujar/frappe-bench/apps/frappe/frappe/utils/scheduler.py:
Site: ekart_site
Queued events for site ekart_site
[DEBUG] 2018-12-20 12:55:06,167 | /home/babitagujar/frappe-bench/apps/frappe/frappe/utils/scheduler.py:
Site: erpnext_site
Queued events for site erpnext_site
[DEBUG] 2018-12-20 12:55:06,180 | /home/babitagujar/frappe-bench/apps/frappe/frappe/utils/scheduler.py:
Site: library
Queued events for site library
[DEBUG] 2018-12-20 12:56:06,266 | /home/babitagujar/frappe-bench/apps/frappe/frappe/utils/scheduler.py:
Site: ekart_site
Queued events for site ekart_site
[DEBUG] 2018-12-20 12:56:06,277 | /home/babitagujar/frappe-bench/apps/frappe/frappe/utils/scheduler.py:
Site: erpnext_site
Queued events for site erpnext_site
[DEBUG] 2018-12-20 12:56:06,289 | /home/babitagujar/frappe-bench/apps/frappe/frappe/utils/scheduler.py:
Site: library
Queued events for site library
[DEBUG] 2018-12-20 12:57:06,374 | /home/babitagujar/frappe-bench/apps/frappe/frappe/utils/scheduler.py:
Site: ekart_site
Queued events for site ekart_site
[DEBUG] 2018-12-20 12:57:06,386 | /home/babitagujar/frappe-bench/apps/frappe/frappe/utils/scheduler.py:
Site: erpnext_site
Queued events for site erpnext_site
[DEBUG] 2018-12-20 12:57:06,400 | /home/babitagujar/frappe-bench/apps/frappe/frappe/utils/scheduler.py:
Site: library
Queued events for site library
[DEBUG] 2018-12-20 12:58:06,508 | /home/babitagujar/frappe-bench/apps/frappe/frappe/utils/scheduler.py:
Site: ekart_site
Queued events for site ekart_site
[DEBUG] 2018-12-20 12:58:06,542 | /home/babitagujar/frappe-bench/apps/frappe/frappe/utils/scheduler.py:
Site: erpnext_site
Queued events for site erpnext_site
[DEBUG] 2018-12-20 12:58:06,595 | /home/babitagujar/frappe-bench/apps/frappe/frappe/utils/scheduler.py:
Site: library
Queued events for site library
[DEBUG] 2018-12-20 12:59:06,682 | /home/babitagujar/frappe-bench/apps/frappe/frappe/utils/scheduler.py:
Site: ekart_site
Queued events for site ekart_site
[DEBUG] 2018-12-20 12:59:06,696 | /home/babitagujar/frappe-bench/apps/frappe/frappe/utils/scheduler.py:
Site: erpnext_site
Queued events for site erpnext_site
[DEBUG] 2018-12-20 12:59:06,709 | /home/babitagujar/frappe-bench/apps/frappe/frappe/utils/scheduler.py:
Site: library
Queued events for site library
[DEBUG] 2018-12-20 13:00:06,797 | /home/babitagujar/frappe-bench/apps/frappe/frappe/utils/scheduler.py:
Site: ekart_site
Queued events for site ekart_site
[DEBUG] 2018-12-20 13:00:06,817 | /home/babitagujar/frappe-bench/apps/frappe/frappe/utils/scheduler.py:
Site: erpnext_site
Queued events for site erpnext_site
[DEBUG] 2018-12-20 13:00:06,832 | /home/babitagujar/frappe-bench/apps/frappe/frappe/utils/scheduler.py:
Site: library
Queued events for site library
[DEBUG] 2018-12-20 13:01:06,917 | /home/babitagujar/frappe-bench/apps/frappe/frappe/utils/scheduler.py:
Site: ekart_site
Queued events for site ekart_site
[DEBUG] 2018-12-20 13:01:06,929 | /home/babitagujar/frappe-bench/apps/frappe/frappe/utils/scheduler.py:
Site: erpnext_site
Queued events for site erpnext_site
[DEBUG] 2018-12-20 13:01:06,941 | /home/babitagujar/frappe-bench/apps/frappe/frappe/utils/scheduler.py:
Site: library
Queued events for site library
[DEBUG] 2018-12-20 13:02:07,046 | /home/babitagujar/frappe-bench/apps/frappe/frappe/utils/scheduler.py:
Site: ekart_site
Queued events for site ekart_site
[DEBUG] 2018-12-20 13:02:07,068 | /home/babitagujar/frappe-bench/apps/frappe/frappe/utils/scheduler.py:
Site: erpnext_site
Queued events for site erpnext_site
[DEBUG] 2018-12-20 13:02:07,108 | /home/babitagujar/frappe-bench/apps/frappe/frappe/utils/scheduler.py:
Site: library
Queued events for site library
[DEBUG] 2018-12-20 13:03:07,195 | /home/babitagujar/frappe-bench/apps/frappe/frappe/utils/scheduler.py:
Site: ekart_site
Queued events for site ekart_site
[DEBUG] 2018-12-20 13:03:07,210 | /home/babitagujar/frappe-bench/apps/frappe/frappe/utils/scheduler.py:
Site: erpnext_site
Queued events for site erpnext_site
[DEBUG] 2018-12-20 13:03:07,224 | /home/babitagujar/frappe-bench/apps/frappe/frappe/utils/scheduler.py:
Site: library
Queued events for site library
[DEBUG] 2018-12-20 13:04:07,293 | /home/babitagujar/frappe-bench/apps/frappe/frappe/utils/scheduler.py:
Site: ekart_site
Queued events for site ekart_site
[DEBUG] 2018-12-20 13:04:07,307 | /home/babitagujar/frappe-bench/apps/frappe/frappe/utils/scheduler.py:
Site: erpnext_site
Queued events for site erpnext_site
[DEBUG] 2018-12-20 13:04:07,321 | /home/babitagujar/frappe-bench/apps/frappe/frappe/utils/scheduler.py:
Site: library
Queued events for site library
[DEBUG] 2018-12-20 13:05:07,411 | /home/babitagujar/frappe-bench/apps/frappe/frappe/utils/scheduler.py:
Site: ekart_site
Queued events for site ekart_site
[DEBUG] 2018-12-20 13:05:07,427 | /home/babitagujar/frappe-bench/apps/frappe/frappe/utils/scheduler.py:
Site: erpnext_site
Queued events for site erpnext_site
[DEBUG] 2018-12-20 13:05:07,444 | /home/babitagujar/frappe-bench/apps/frappe/frappe/utils/scheduler.py:
Site: library
Queued events for site library
[DEBUG] 2018-12-20 13:06:07,549 | /home/babitagujar/frappe-bench/apps/frappe/frappe/utils/scheduler.py:
Site: ekart_site
Queued events for site ekart_site
[DEBUG] 2018-12-20 13:06:07,573 | /home/babitagujar/frappe-bench/apps/frappe/frappe/utils/scheduler.py:
Site: erpnext_site
Queued events for site erpnext_site
[DEBUG] 2018-12-20 13:06:07,609 | /home/babitagujar/frappe-bench/apps/frappe/frappe/utils/scheduler.py:
Site: library
Queued events for site library
[DEBUG] 2018-12-20 13:07:07,699 | /home/babitagujar/frappe-bench/apps/frappe/frappe/utils/scheduler.py:
Site: ekart_site
Queued events for site ekart_site
[DEBUG] 2018-12-20 13:07:07,713 | /home/babitagujar/frappe-bench/apps/frappe/frappe/utils/scheduler.py:
Site: erpnext_site
Queued events for site erpnext_site
[DEBUG] 2018-12-20 13:07:07,725 | /home/babitagujar/frappe-bench/apps/frappe/frappe/utils/scheduler.py:
Site: library
Queued events for site library
[DEBUG] 2018-12-20 13:08:07,820 | /home/babitagujar/frappe-bench/apps/frappe/frappe/utils/scheduler.py:
Site: ekart_site
Queued events for site ekart_site
[DEBUG] 2018-12-20 13:08:07,838 | /home/babitagujar/frappe-bench/apps/frappe/frappe/utils/scheduler.py:
Site: erpnext_site
Queued events for site erpnext_site
[DEBUG] 2018-12-20 13:08:07,865 | /home/babitagujar/frappe-bench/apps/frappe/frappe/utils/scheduler.py:
Site: library
Queued events for site library
[DEBUG] 2018-12-20 13:09:07,953 | /home/babitagujar/frappe-bench/apps/frappe/frappe/utils/scheduler.py:
Site: ekart_site
Queued events for site ekart_site
[DEBUG] 2018-12-20 13:09:07,966 | /home/babitagujar/frappe-bench/apps/frappe/frappe/utils/scheduler.py:
Site: erpnext_site
Queued events for site erpnext_site
[DEBUG] 2018-12-20 13:09:07,981 | /home/babitagujar/frappe-bench/apps/frappe/frappe/utils/scheduler.py:
Site: library
Queued events for site library
[DEBUG] 2018-12-20 13:10:08,086 | /home/babitagujar/frappe-bench/apps/frappe/frappe/utils/scheduler.py:
Site: ekart_site
Queued events for site ekart_site
[DEBUG] 2018-12-20 13:10:08,118 | /home/babitagujar/frappe-bench/apps/frappe/frappe/utils/scheduler.py:
Site: erpnext_site
Queued events for site erpnext_site
[DEBUG] 2018-12-20 13:10:08,171 | /home/babitagujar/frappe-bench/apps/frappe/frappe/utils/scheduler.py:
Site: library
Queued events for site library
[DEBUG] 2018-12-20 13:11:08,257 | /home/babitagujar/frappe-bench/apps/frappe/frappe/utils/scheduler.py:
Site: ekart_site
Queued events for site ekart_site
[DEBUG] 2018-12-20 13:11:08,269 | /home/babitagujar/frappe-bench/apps/frappe/frappe/utils/scheduler.py:
Site: erpnext_site
Queued events for site erpnext_site
[DEBUG] 2018-12-20 13:11:08,281 | /home/babitagujar/frappe-bench/apps/frappe/frappe/utils/scheduler.py:
Site: library
Queued events for site library
[DEBUG] 2018-12-20 13:12:08,370 | /home/babitagujar/frappe-bench/apps/frappe/frappe/utils/scheduler.py:
Site: ekart_site
Queued events for site ekart_site
[DEBUG] 2018-12-20 13:12:08,383 | /home/babitagujar/frappe-bench/apps/frappe/frappe/utils/scheduler.py:
Site: erpnext_site
Queued events for site erpnext_site
[DEBUG] 2018-12-20 13:12:08,398 | /home/babitagujar/frappe-bench/apps/frappe/frappe/utils/scheduler.py:
Site: library
Queued events for site library
[DEBUG] 2018-12-20 13:13:08,470 | /home/babitagujar/frappe-bench/apps/frappe/frappe/utils/scheduler.py:
Site: ekart_site
Queued events for site ekart_site
[DEBUG] 2018-12-20 13:13:08,484 | /home/babitagujar/frappe-bench/apps/frappe/frappe/utils/scheduler.py:
Site: erpnext_site
Queued events for site erpnext_site
[DEBUG] 2018-12-20 13:13:08,497 | /home/babitagujar/frappe-bench/apps/frappe/frappe/utils/scheduler.py:
Site: library
Queued events for site library
[DEBUG] 2018-12-20 13:14:08,604 | /home/babitagujar/frappe-bench/apps/frappe/frappe/utils/scheduler.py:
Site: ekart_site
Queued events for site ekart_site
[DEBUG] 2018-12-20 13:14:08,636 | /home/babitagujar/frappe-bench/apps/frappe/frappe/utils/scheduler.py:
Site: erpnext_site
Queued events for site erpnext_site
[DEBUG] 2018-12-20 13:14:08,687 | /home/babitagujar/frappe-bench/apps/frappe/frappe/utils/scheduler.py:
Site: library
Queued events for site library
[DEBUG] 2018-12-20 13:15:08,775 | /home/babitagujar/frappe-bench/apps/frappe/frappe/utils/scheduler.py:
Site: ekart_site
Queued events for site ekart_site
[DEBUG] 2018-12-20 13:15:08,789 | /home/babitagujar/frappe-bench/apps/frappe/frappe/utils/scheduler.py:
Site: erpnext_site
Queued events for site erpnext_site
[DEBUG] 2018-12-20 13:15:08,803 | /home/babitagujar/frappe-bench/apps/frappe/frappe/utils/scheduler.py:
Site: library
Queued events for site library
[DEBUG] 2018-12-20 13:16:08,889 | /home/babitagujar/frappe-bench/apps/frappe/frappe/utils/scheduler.py:
Site: ekart_site
Queued events for site ekart_site
[DEBUG] 2018-12-20 13:16:08,902 | /home/babitagujar/frappe-bench/apps/frappe/frappe/utils/scheduler.py:
Site: erpnext_site
Queued events for site erpnext_site
[DEBUG] 2018-12-20 13:16:08,915 | /home/babitagujar/frappe-bench/apps/frappe/frappe/utils/scheduler.py:
Site: library
Queued events for site library
[DEBUG] 2018-12-20 13:17:09,000 | /home/babitagujar/frappe-bench/apps/frappe/frappe/utils/scheduler.py:
Site: ekart_site
Queued events for site ekart_site
[DEBUG] 2018-12-20 13:17:09,013 | /home/babitagujar/frappe-bench/apps/frappe/frappe/utils/scheduler.py:
Site: erpnext_site
Queued events for site erpnext_site
[DEBUG] 2018-12-20 13:17:09,025 | /home/babitagujar/frappe-bench/apps/frappe/frappe/utils/scheduler.py:
Site: library
Queued events for site library
[DEBUG] 2018-12-20 13:18:09,129 | /home/babitagujar/frappe-bench/apps/frappe/frappe/utils/scheduler.py:
Site: ekart_site
Queued events for site ekart_site
[DEBUG] 2018-12-20 13:18:09,152 | /home/babitagujar/frappe-bench/apps/frappe/frappe/utils/scheduler.py:
Site: erpnext_site
Queued events for site erpnext_site
[DEBUG] 2018-12-20 13:18:09,192 | /home/babitagujar/frappe-bench/apps/frappe/frappe/utils/scheduler.py:
Site: library
Queued events for site library
[DEBUG] 2018-12-20 13:19:09,281 | /home/babitagujar/frappe-bench/apps/frappe/frappe/utils/scheduler.py:
Site: ekart_site
Queued events for site ekart_site
[DEBUG] 2018-12-20 13:19:09,294 | /home/babitagujar/frappe-bench/apps/frappe/frappe/utils/scheduler.py:
Site: erpnext_site
Queued events for site erpnext_site
[DEBUG] 2018-12-20 13:19:09,307 | /home/babitagujar/frappe-bench/apps/frappe/frappe/utils/scheduler.py:
Site: library
Queued events for site library
[DEBUG] 2018-12-20 13:20:09,392 | /home/babitagujar/frappe-bench/apps/frappe/frappe/utils/scheduler.py:
Site: ekart_site
Queued events for site ekart_site
[DEBUG] 2018-12-20 13:20:09,404 | /home/babitagujar/frappe-bench/apps/frappe/frappe/utils/scheduler.py:
Site: erpnext_site
Queued events for site erpnext_site
[DEBUG] 2018-12-20 13:20:09,416 | /home/babitagujar/frappe-bench/apps/frappe/frappe/utils/scheduler.py:
Site: library
Queued events for site library
[DEBUG] 2018-12-20 13:21:09,498 | /home/babitagujar/frappe-bench/apps/frappe/frappe/utils/scheduler.py:
Site: ekart_site
Queued events for site ekart_site
[DEBUG] 2018-12-20 13:21:09,511 | /home/babitagujar/frappe-bench/apps/frappe/frappe/utils/scheduler.py:
Site: erpnext_site
Queued events for site erpnext_site
[DEBUG] 2018-12-20 13:21:09,523 | /home/babitagujar/frappe-bench/apps/frappe/frappe/utils/scheduler.py:
Site: library
Queued events for site library
[DEBUG] 2018-12-20 13:22:09,621 | /home/babitagujar/frappe-bench/apps/frappe/frappe/utils/scheduler.py:
Site: ekart_site
Queued events for site ekart_site
[DEBUG] 2018-12-20 13:22:09,647 | /home/babitagujar/frappe-bench/apps/frappe/frappe/utils/scheduler.py:
Site: erpnext_site
Queued events for site erpnext_site
[DEBUG] 2018-12-20 13:22:09,684 | /home/babitagujar/frappe-bench/apps/frappe/frappe/utils/scheduler.py:
Site: library
Queued events for site library
[DEBUG] 2018-12-20 13:23:09,767 | /home/babitagujar/frappe-bench/apps/frappe/frappe/utils/scheduler.py:
Site: ekart_site
Queued events for site ekart_site
[DEBUG] 2018-12-20 13:23:09,781 | /home/babitagujar/frappe-bench/apps/frappe/frappe/utils/scheduler.py:
Site: erpnext_site
Queued events for site erpnext_site
[DEBUG] 2018-12-20 13:23:09,795 | /home/babitagujar/frappe-bench/apps/frappe/frappe/utils/scheduler.py:
Site: library
Queued events for site library
[DEBUG] 2018-12-20 13:24:09,880 | /home/babitagujar/frappe-bench/apps/frappe/frappe/utils/scheduler.py:
Site: ekart_site
Queued events for site ekart_site
[DEBUG] 2018-12-20 13:24:09,892 | /home/babitagujar/frappe-bench/apps/frappe/frappe/utils/scheduler.py:
Site: erpnext_site
Queued events for site erpnext_site
[DEBUG] 2018-12-20 13:24:09,903 | /home/babitagujar/frappe-bench/apps/frappe/frappe/utils/scheduler.py:
Site: library
Queued events for site library
[DEBUG] 2018-12-20 13:25:09,988 | /home/babitagujar/frappe-bench/apps/frappe/frappe/utils/scheduler.py:
Site: ekart_site
Queued events for site ekart_site
[DEBUG] 2018-12-20 13:25:10,000 | /home/babitagujar/frappe-bench/apps/frappe/frappe/utils/scheduler.py:
Site: erpnext_site
Queued events for site erpnext_site
[DEBUG] 2018-12-20 13:25:10,012 | /home/babitagujar/frappe-bench/apps/frappe/frappe/utils/scheduler.py:
Site: library
Queued events for site library
[DEBUG] 2018-12-20 13:26:10,117 | /home/babitagujar/frappe-bench/apps/frappe/frappe/utils/scheduler.py:
Site: ekart_site
Queued events for site ekart_site
[DEBUG] 2018-12-20 13:26:10,150 | /home/babitagujar/frappe-bench/apps/frappe/frappe/utils/scheduler.py:
Site: erpnext_site
Queued events for site erpnext_site
[DEBUG] 2018-12-20 13:26:10,206 | /home/babitagujar/frappe-bench/apps/frappe/frappe/utils/scheduler.py:
Site: library
Queued events for site library
[DEBUG] 2018-12-20 13:27:10,293 | /home/babitagujar/frappe-bench/apps/frappe/frappe/utils/scheduler.py:
Site: ekart_site
Queued events for site ekart_site
[DEBUG] 2018-12-20 13:27:10,306 | /home/babitagujar/frappe-bench/apps/frappe/frappe/utils/scheduler.py:
Site: erpnext_site
Queued events for site erpnext_site
[DEBUG] 2018-12-20 13:27:10,319 | /home/babitagujar/frappe-bench/apps/frappe/frappe/utils/scheduler.py:
Site: library
Queued events for site library
[DEBUG] 2018-12-20 13:28:10,405 | /home/babitagujar/frappe-bench/apps/frappe/frappe/utils/scheduler.py:
Site: ekart_site
Queued events for site ekart_site
[DEBUG] 2018-12-20 13:28:10,418 | /home/babitagujar/frappe-bench/apps/frappe/frappe/utils/scheduler.py:
Site: erpnext_site
Queued events for site erpnext_site
[DEBUG] 2018-12-20 13:28:10,430 | /home/babitagujar/frappe-bench/apps/frappe/frappe/utils/scheduler.py:
Site: library
Queued events for site library
[DEBUG] 2018-12-20 13:29:10,517 | /home/babitagujar/frappe-bench/apps/frappe/frappe/utils/scheduler.py:
Site: ekart_site
Queued events for site ekart_site
[DEBUG] 2018-12-20 13:29:10,531 | /home/babitagujar/frappe-bench/apps/frappe/frappe/utils/scheduler.py:
Site: erpnext_site
Queued events for site erpnext_site
[DEBUG] 2018-12-20 13:29:10,546 | /home/babitagujar/frappe-bench/apps/frappe/frappe/utils/scheduler.py:
Site: library
Queued events for site library
[DEBUG] 2018-12-20 13:30:10,660 | /home/babitagujar/frappe-bench/apps/frappe/frappe/utils/scheduler.py:
Site: ekart_site
Queued events for site ekart_site
[DEBUG] 2018-12-20 13:30:10,713 | /home/babitagujar/frappe-bench/apps/frappe/frappe/utils/scheduler.py:
Site: erpnext_site
Queued events for site erpnext_site
[DEBUG] 2018-12-20 13:30:10,773 | /home/babitagujar/frappe-bench/apps/frappe/frappe/utils/scheduler.py:
Site: library
Queued events for site library
[DEBUG] 2018-12-20 13:31:10,844 | /home/babitagujar/frappe-bench/apps/frappe/frappe/utils/scheduler.py:
Site: ekart_site
Queued events for site ekart_site
[DEBUG] 2018-12-20 13:31:10,855 | /home/babitagujar/frappe-bench/apps/frappe/frappe/utils/scheduler.py:
Site: erpnext_site
Queued events for site erpnext_site
[DEBUG] 2018-12-20 13:31:10,873 | /home/babitagujar/frappe-bench/apps/frappe/frappe/utils/scheduler.py:
Site: library
Queued events for site library
[DEBUG] 2018-12-20 13:32:10,959 | /home/babitagujar/frappe-bench/apps/frappe/frappe/utils/scheduler.py:
Site: ekart_site
Queued events for site ekart_site
[DEBUG] 2018-12-20 13:32:10,973 | /home/babitagujar/frappe-bench/apps/frappe/frappe/utils/scheduler.py:
Site: erpnext_site
Queued events for site erpnext_site
[DEBUG] 2018-12-20 13:32:10,986 | /home/babitagujar/frappe-bench/apps/frappe/frappe/utils/scheduler.py:
Site: library
Queued events for site library
[DEBUG] 2018-12-20 13:33:11,073 | /home/babitagujar/frappe-bench/apps/frappe/frappe/utils/scheduler.py:
Site: ekart_site
Queued events for site ekart_site
[DEBUG] 2018-12-20 13:33:11,085 | /home/babitagujar/frappe-bench/apps/frappe/frappe/utils/scheduler.py:
Site: erpnext_site
Queued events for site erpnext_site
[DEBUG] 2018-12-20 13:33:11,098 | /home/babitagujar/frappe-bench/apps/frappe/frappe/utils/scheduler.py:
Site: library
Queued events for site library
[DEBUG] 2018-12-20 13:34:11,209 | /home/babitagujar/frappe-bench/apps/frappe/frappe/utils/scheduler.py:
Site: ekart_site
Queued events for site ekart_site
[DEBUG] 2018-12-20 13:34:11,234 | /home/babitagujar/frappe-bench/apps/frappe/frappe/utils/scheduler.py:
Site: erpnext_site
Queued events for site erpnext_site
[DEBUG] 2018-12-20 13:34:11,282 | /home/babitagujar/frappe-bench/apps/frappe/frappe/utils/scheduler.py:
Site: library
Queued events for site library
[DEBUG] 2018-12-20 13:35:11,350 | /home/babitagujar/frappe-bench/apps/frappe/frappe/utils/scheduler.py:
Site: ekart_site
Queued events for site ekart_site
[DEBUG] 2018-12-20 13:35:11,364 | /home/babitagujar/frappe-bench/apps/frappe/frappe/utils/scheduler.py:
Site: erpnext_site
Queued events for site erpnext_site
[DEBUG] 2018-12-20 13:35:11,377 | /home/babitagujar/frappe-bench/apps/frappe/frappe/utils/scheduler.py:
Site: library
Queued events for site library
[DEBUG] 2018-12-20 13:36:11,466 | /home/babitagujar/frappe-bench/apps/frappe/frappe/utils/scheduler.py:
Site: ekart_site
Queued events for site ekart_site
[DEBUG] 2018-12-20 13:36:11,483 | /home/babitagujar/frappe-bench/apps/frappe/frappe/utils/scheduler.py:
Site: erpnext_site
Queued events for site erpnext_site
[DEBUG] 2018-12-20 13:36:11,500 | /home/babitagujar/frappe-bench/apps/frappe/frappe/utils/scheduler.py:
Site: library
Queued events for site library
[DEBUG] 2018-12-20 13:37:11,587 | /home/babitagujar/frappe-bench/apps/frappe/frappe/utils/scheduler.py:
Site: ekart_site
Queued events for site ekart_site
[DEBUG] 2018-12-20 13:37:11,601 | /home/babitagujar/frappe-bench/apps/frappe/frappe/utils/scheduler.py:
Site: erpnext_site
Queued events for site erpnext_site
[DEBUG] 2018-12-20 13:37:11,616 | /home/babitagujar/frappe-bench/apps/frappe/frappe/utils/scheduler.py:
Site: library
Queued events for site library
[DEBUG] 2018-12-20 13:38:11,721 | /home/babitagujar/frappe-bench/apps/frappe/frappe/utils/scheduler.py:
Site: ekart_site
Queued events for site ekart_site
[DEBUG] 2018-12-20 13:38:11,749 | /home/babitagujar/frappe-bench/apps/frappe/frappe/utils/scheduler.py:
Site: erpnext_site
Queued events for site erpnext_site
[DEBUG] 2018-12-20 13:38:11,797 | /home/babitagujar/frappe-bench/apps/frappe/frappe/utils/scheduler.py:
Site: library
Queued events for site library
[DEBUG] 2018-12-20 13:39:11,885 | /home/babitagujar/frappe-bench/apps/frappe/frappe/utils/scheduler.py:
Site: ekart_site
Queued events for site ekart_site
[DEBUG] 2018-12-20 13:39:11,899 | /home/babitagujar/frappe-bench/apps/frappe/frappe/utils/scheduler.py:
Site: erpnext_site
Queued events for site erpnext_site
[DEBUG] 2018-12-20 13:39:11,912 | /home/babitagujar/frappe-bench/apps/frappe/frappe/utils/scheduler.py:
Site: library
Queued events for site library
[DEBUG] 2018-12-20 13:40:11,999 | /home/babitagujar/frappe-bench/apps/frappe/frappe/utils/scheduler.py:
Site: ekart_site
Queued events for site ekart_site
[DEBUG] 2018-12-20 13:40:12,013 | /home/babitagujar/frappe-bench/apps/frappe/frappe/utils/scheduler.py:
Site: erpnext_site
Queued events for site erpnext_site
[DEBUG] 2018-12-20 13:40:12,026 | /home/babitagujar/frappe-bench/apps/frappe/frappe/utils/scheduler.py:
Site: library
Queued events for site library
[DEBUG] 2018-12-20 13:41:12,111 | /home/babitagujar/frappe-bench/apps/frappe/frappe/utils/scheduler.py:
Site: ekart_site
Queued events for site ekart_site
[DEBUG] 2018-12-20 13:41:12,124 | /home/babitagujar/frappe-bench/apps/frappe/frappe/utils/scheduler.py:
Site: erpnext_site
Queued events for site erpnext_site
[DEBUG] 2018-12-20 13:41:12,137 | /home/babitagujar/frappe-bench/apps/frappe/frappe/utils/scheduler.py:
Site: library
Queued events for site library
[DEBUG] 2018-12-20 13:42:12,240 | /home/babitagujar/frappe-bench/apps/frappe/frappe/utils/scheduler.py:
Site: ekart_site
Queued events for site ekart_site
[DEBUG] 2018-12-20 13:42:12,274 | /home/babitagujar/frappe-bench/apps/frappe/frappe/utils/scheduler.py:
Site: erpnext_site
Queued events for site erpnext_site
[DEBUG] 2018-12-20 13:42:12,324 | /home/babitagujar/frappe-bench/apps/frappe/frappe/utils/scheduler.py:
Site: library
Queued events for site library
[DEBUG] 2018-12-20 13:43:12,410 | /home/babitagujar/frappe-bench/apps/frappe/frappe/utils/scheduler.py:
Site: ekart_site
Queued events for site ekart_site
[DEBUG] 2018-12-20 13:43:12,423 | /home/babitagujar/frappe-bench/apps/frappe/frappe/utils/scheduler.py:
Site: erpnext_site
Queued events for site erpnext_site
[DEBUG] 2018-12-20 13:43:12,435 | /home/babitagujar/frappe-bench/apps/frappe/frappe/utils/scheduler.py:
Site: library
Queued events for site library
[DEBUG] 2018-12-20 13:44:12,503 | /home/babitagujar/frappe-bench/apps/frappe/frappe/utils/scheduler.py:
Site: ekart_site
Queued events for site ekart_site
[DEBUG] 2018-12-20 13:44:12,515 | /home/babitagujar/frappe-bench/apps/frappe/frappe/utils/scheduler.py:
Site: erpnext_site
Queued events for site erpnext_site
[DEBUG] 2018-12-20 13:44:12,528 | /home/babitagujar/frappe-bench/apps/frappe/frappe/utils/scheduler.py:
Site: library
Queued events for site library
[DEBUG] 2018-12-20 13:45:12,614 | /home/babitagujar/frappe-bench/apps/frappe/frappe/utils/scheduler.py:
Site: ekart_site
Queued events for site ekart_site
[DEBUG] 2018-12-20 13:45:12,626 | /home/babitagujar/frappe-bench/apps/frappe/frappe/utils/scheduler.py:
Site: erpnext_site
Queued events for site erpnext_site
[DEBUG] 2018-12-20 13:45:12,638 | /home/babitagujar/frappe-bench/apps/frappe/frappe/utils/scheduler.py:
Site: library
Queued events for site library
[DEBUG] 2018-12-20 13:46:12,744 | /home/babitagujar/frappe-bench/apps/frappe/frappe/utils/scheduler.py:
Site: ekart_site
Queued events for site ekart_site
[DEBUG] 2018-12-20 13:46:12,777 | /home/babitagujar/frappe-bench/apps/frappe/frappe/utils/scheduler.py:
Site: erpnext_site
Queued events for site erpnext_site
[DEBUG] 2018-12-20 13:46:12,829 | /home/babitagujar/frappe-bench/apps/frappe/frappe/utils/scheduler.py:
Site: library
Queued events for site library
[DEBUG] 2018-12-20 13:47:12,917 | /home/babitagujar/frappe-bench/apps/frappe/frappe/utils/scheduler.py:
Site: ekart_site
Queued events for site ekart_site
[DEBUG] 2018-12-20 13:47:12,933 | /home/babitagujar/frappe-bench/apps/frappe/frappe/utils/scheduler.py:
Site: erpnext_site
Queued events for site erpnext_site
[DEBUG] 2018-12-20 13:47:12,948 | /home/babitagujar/frappe-bench/apps/frappe/frappe/utils/scheduler.py:
Site: library
Queued events for site library
[DEBUG] 2018-12-20 13:48:13,035 | /home/babitagujar/frappe-bench/apps/frappe/frappe/utils/scheduler.py:
Site: ekart_site
Queued events for site ekart_site
[DEBUG] 2018-12-20 13:48:13,050 | /home/babitagujar/frappe-bench/apps/frappe/frappe/utils/scheduler.py:
Site: erpnext_site
Queued events for site erpnext_site
[DEBUG] 2018-12-20 13:48:13,064 | /home/babitagujar/frappe-bench/apps/frappe/frappe/utils/scheduler.py:
Site: library
Queued events for site library
[DEBUG] 2018-12-20 13:49:13,149 | /home/babitagujar/frappe-bench/apps/frappe/frappe/utils/scheduler.py:
Site: ekart_site
Queued events for site ekart_site
[DEBUG] 2018-12-20 13:49:13,162 | /home/babitagujar/frappe-bench/apps/frappe/frappe/utils/scheduler.py:
Site: erpnext_site
Queued events for site erpnext_site
[DEBUG] 2018-12-20 13:49:13,174 | /home/babitagujar/frappe-bench/apps/frappe/frappe/utils/scheduler.py:
Site: library
Queued events for site library
[DEBUG] 2018-12-20 13:50:13,278 | /home/babitagujar/frappe-bench/apps/frappe/frappe/utils/scheduler.py:
Site: ekart_site
Queued events for site ekart_site
[DEBUG] 2018-12-20 13:50:13,302 | /home/babitagujar/frappe-bench/apps/frappe/frappe/utils/scheduler.py:
Site: erpnext_site
Queued events for site erpnext_site
[DEBUG] 2018-12-20 13:50:13,343 | /home/babitagujar/frappe-bench/apps/frappe/frappe/utils/scheduler.py:
Site: library
Queued events for site library
[DEBUG] 2018-12-20 13:51:13,431 | /home/babitagujar/frappe-bench/apps/frappe/frappe/utils/scheduler.py:
Site: ekart_site
Queued events for site ekart_site
[DEBUG] 2018-12-20 13:51:13,443 | /home/babitagujar/frappe-bench/apps/frappe/frappe/utils/scheduler.py:
Site: erpnext_site
Queued events for site erpnext_site
[DEBUG] 2018-12-20 13:51:13,460 | /home/babitagujar/frappe-bench/apps/frappe/frappe/utils/scheduler.py:
Site: library
Queued events for site library
[DEBUG] 2018-12-20 13:52:13,547 | /home/babitagujar/frappe-bench/apps/frappe/frappe/utils/scheduler.py:
Site: ekart_site
Queued events for site ekart_site
[DEBUG] 2018-12-20 13:52:13,561 | /home/babitagujar/frappe-bench/apps/frappe/frappe/utils/scheduler.py:
Site: erpnext_site
Queued events for site erpnext_site
[DEBUG] 2018-12-20 13:52:13,576 | /home/babitagujar/frappe-bench/apps/frappe/frappe/utils/scheduler.py:
Site: library
Queued events for site library
[DEBUG] 2018-12-20 13:53:13,657 | /home/babitagujar/frappe-bench/apps/frappe/frappe/utils/scheduler.py:
Site: ekart_site
Queued events for site ekart_site
[DEBUG] 2018-12-20 13:53:13,668 | /home/babitagujar/frappe-bench/apps/frappe/frappe/utils/scheduler.py:
Site: erpnext_site
Queued events for site erpnext_site
[DEBUG] 2018-12-20 13:53:13,680 | /home/babitagujar/frappe-bench/apps/frappe/frappe/utils/scheduler.py:
Site: library
Queued events for site library
[DEBUG] 2018-12-20 13:54:13,784 | /home/babitagujar/frappe-bench/apps/frappe/frappe/utils/scheduler.py:
Site: ekart_site
Queued events for site ekart_site
[DEBUG] 2018-12-20 13:54:13,808 | /home/babitagujar/frappe-bench/apps/frappe/frappe/utils/scheduler.py:
Site: erpnext_site
Queued events for site erpnext_site
[DEBUG] 2018-12-20 13:54:13,853 | /home/babitagujar/frappe-bench/apps/frappe/frappe/utils/scheduler.py:
Site: library
Queued events for site library
[DEBUG] 2018-12-20 13:55:13,939 | /home/babitagujar/frappe-bench/apps/frappe/frappe/utils/scheduler.py:
Site: ekart_site
Queued events for site ekart_site
[DEBUG] 2018-12-20 13:55:13,952 | /home/babitagujar/frappe-bench/apps/frappe/frappe/utils/scheduler.py:
Site: erpnext_site
Queued events for site erpnext_site
[DEBUG] 2018-12-20 13:55:13,966 | /home/babitagujar/frappe-bench/apps/frappe/frappe/utils/scheduler.py:
Site: library
Queued events for site library
[DEBUG] 2018-12-20 13:56:14,053 | /home/babitagujar/frappe-bench/apps/frappe/frappe/utils/scheduler.py:
Site: ekart_site
Queued events for site ekart_site
[DEBUG] 2018-12-20 13:56:14,065 | /home/babitagujar/frappe-bench/apps/frappe/frappe/utils/scheduler.py:
Site: erpnext_site
Queued events for site erpnext_site
[DEBUG] 2018-12-20 13:56:14,077 | /home/babitagujar/frappe-bench/apps/frappe/frappe/utils/scheduler.py:
Site: library
Queued events for site library
[DEBUG] 2018-12-20 13:57:14,163 | /home/babitagujar/frappe-bench/apps/frappe/frappe/utils/scheduler.py:
Site: ekart_site
Queued events for site ekart_site
[DEBUG] 2018-12-20 13:57:14,175 | /home/babitagujar/frappe-bench/apps/frappe/frappe/utils/scheduler.py:
Site: erpnext_site
Queued events for site erpnext_site
[DEBUG] 2018-12-20 13:57:14,187 | /home/babitagujar/frappe-bench/apps/frappe/frappe/utils/scheduler.py:
Site: library
Queued events for site library
[DEBUG] 2018-12-20 13:58:14,274 | /home/babitagujar/frappe-bench/apps/frappe/frappe/utils/scheduler.py:
Site: ekart_site
Queued events for site ekart_site
[DEBUG] 2018-12-20 13:58:14,299 | /home/babitagujar/frappe-bench/apps/frappe/frappe/utils/scheduler.py:
Site: erpnext_site
Queued events for site erpnext_site
[DEBUG] 2018-12-20 13:58:14,343 | /home/babitagujar/frappe-bench/apps/frappe/frappe/utils/scheduler.py:
Site: library
Queued events for site library
[DEBUG] 2018-12-20 13:59:14,428 | /home/babitagujar/frappe-bench/apps/frappe/frappe/utils/scheduler.py:
Site: ekart_site
Queued events for site ekart_site
[DEBUG] 2018-12-20 13:59:14,439 | /home/babitagujar/frappe-bench/apps/frappe/frappe/utils/scheduler.py:
Site: erpnext_site
Queued events for site erpnext_site
[DEBUG] 2018-12-20 13:59:14,451 | /home/babitagujar/frappe-bench/apps/frappe/frappe/utils/scheduler.py:
Site: library
Queued events for site library
[DEBUG] 2018-12-20 14:00:14,536 | /home/babitagujar/frappe-bench/apps/frappe/frappe/utils/scheduler.py:
Site: ekart_site
Queued events for site ekart_site
[DEBUG] 2018-12-20 14:00:14,548 | /home/babitagujar/frappe-bench/apps/frappe/frappe/utils/scheduler.py:
Site: erpnext_site
Queued events for site erpnext_site
[DEBUG] 2018-12-20 14:00:14,561 | /home/babitagujar/frappe-bench/apps/frappe/frappe/utils/scheduler.py:
Site: library
Queued events for site library
[DEBUG] 2018-12-20 14:01:14,648 | /home/babitagujar/frappe-bench/apps/frappe/frappe/utils/scheduler.py:
Site: ekart_site
Queued events for site ekart_site
[DEBUG] 2018-12-20 14:01:14,660 | /home/babitagujar/frappe-bench/apps/frappe/frappe/utils/scheduler.py:
Site: erpnext_site
Queued events for site erpnext_site
[DEBUG] 2018-12-20 14:01:14,673 | /home/babitagujar/frappe-bench/apps/frappe/frappe/utils/scheduler.py:
Site: library
Queued events for site library
[DEBUG] 2018-12-20 14:02:14,773 | /home/babitagujar/frappe-bench/apps/frappe/frappe/utils/scheduler.py:
Site: ekart_site
Queued events for site ekart_site
[DEBUG] 2018-12-20 14:02:14,801 | /home/babitagujar/frappe-bench/apps/frappe/frappe/utils/scheduler.py:
Site: erpnext_site
Queued events for site erpnext_site
[DEBUG] 2018-12-20 14:02:14,841 | /home/babitagujar/frappe-bench/apps/frappe/frappe/utils/scheduler.py:
Site: library
Queued events for site library
[DEBUG] 2018-12-20 14:03:14,925 | /home/babitagujar/frappe-bench/apps/frappe/frappe/utils/scheduler.py:
Site: ekart_site
Queued events for site ekart_site
[DEBUG] 2018-12-20 14:03:14,938 | /home/babitagujar/frappe-bench/apps/frappe/frappe/utils/scheduler.py:
Site: erpnext_site
Queued events for site erpnext_site
[DEBUG] 2018-12-20 14:03:14,949 | /home/babitagujar/frappe-bench/apps/frappe/frappe/utils/scheduler.py:
Site: library
Queued events for site library
[DEBUG] 2018-12-20 14:04:15,040 | /home/babitagujar/frappe-bench/apps/frappe/frappe/utils/scheduler.py:
Site: ekart_site
Queued events for site ekart_site
[DEBUG] 2018-12-20 14:04:15,058 | /home/babitagujar/frappe-bench/apps/frappe/frappe/utils/scheduler.py:
Site: erpnext_site
Queued events for site erpnext_site
[DEBUG] 2018-12-20 14:04:15,075 | /home/babitagujar/frappe-bench/apps/frappe/frappe/utils/scheduler.py:
Site: library
Queued events for site library
[DEBUG] 2018-12-20 14:05:15,160 | /home/babitagujar/frappe-bench/apps/frappe/frappe/utils/scheduler.py:
Site: ekart_site
Queued events for site ekart_site
[DEBUG] 2018-12-20 14:05:15,173 | /home/babitagujar/frappe-bench/apps/frappe/frappe/utils/scheduler.py:
Site: erpnext_site
Queued events for site erpnext_site
[DEBUG] 2018-12-20 14:05:15,186 | /home/babitagujar/frappe-bench/apps/frappe/frappe/utils/scheduler.py:
Site: library
Queued events for site library
[DEBUG] 2018-12-20 14:06:15,284 | /home/babitagujar/frappe-bench/apps/frappe/frappe/utils/scheduler.py:
Site: ekart_site
Queued events for site ekart_site
[DEBUG] 2018-12-20 14:06:15,310 | /home/babitagujar/frappe-bench/apps/frappe/frappe/utils/scheduler.py:
Site: erpnext_site
Queued events for site erpnext_site
[DEBUG] 2018-12-20 14:06:15,350 | /home/babitagujar/frappe-bench/apps/frappe/frappe/utils/scheduler.py:
Site: library
Queued events for site library
[DEBUG] 2018-12-20 14:07:15,426 | /home/babitagujar/frappe-bench/apps/frappe/frappe/utils/scheduler.py:
Site: ekart_site
Queued events for site ekart_site
[DEBUG] 2018-12-20 14:07:15,446 | /home/babitagujar/frappe-bench/apps/frappe/frappe/utils/scheduler.py:
Site: erpnext_site
Queued events for site erpnext_site
[DEBUG] 2018-12-20 14:07:15,465 | /home/babitagujar/frappe-bench/apps/frappe/frappe/utils/scheduler.py:
Site: library
Queued events for site library
[DEBUG] 2018-12-20 14:08:15,553 | /home/babitagujar/frappe-bench/apps/frappe/frappe/utils/scheduler.py:
Site: ekart_site
Queued events for site ekart_site
[DEBUG] 2018-12-20 14:08:15,565 | /home/babitagujar/frappe-bench/apps/frappe/frappe/utils/scheduler.py:
Site: erpnext_site
Queued events for site erpnext_site
[DEBUG] 2018-12-20 14:08:15,577 | /home/babitagujar/frappe-bench/apps/frappe/frappe/utils/scheduler.py:
Site: library
Queued events for site library
[DEBUG] 2018-12-20 14:09:15,665 | /home/babitagujar/frappe-bench/apps/frappe/frappe/utils/scheduler.py:
Site: ekart_site
Queued events for site ekart_site
[DEBUG] 2018-12-20 14:09:15,679 | /home/babitagujar/frappe-bench/apps/frappe/frappe/utils/scheduler.py:
Site: erpnext_site
Queued events for site erpnext_site
[DEBUG] 2018-12-20 14:09:15,692 | /home/babitagujar/frappe-bench/apps/frappe/frappe/utils/scheduler.py:
Site: library
Queued events for site library
[DEBUG] 2018-12-20 14:10:15,795 | /home/babitagujar/frappe-bench/apps/frappe/frappe/utils/scheduler.py:
Site: ekart_site
Queued events for site ekart_site
[DEBUG] 2018-12-20 14:10:15,818 | /home/babitagujar/frappe-bench/apps/frappe/frappe/utils/scheduler.py:
Site: erpnext_site
Queued events for site erpnext_site
[DEBUG] 2018-12-20 14:10:15,862 | /home/babitagujar/frappe-bench/apps/frappe/frappe/utils/scheduler.py:
Site: library
Queued events for site library
[DEBUG] 2018-12-20 14:11:15,947 | /home/babitagujar/frappe-bench/apps/frappe/frappe/utils/scheduler.py:
Site: ekart_site
Queued events for site ekart_site
[DEBUG] 2018-12-20 14:11:15,961 | /home/babitagujar/frappe-bench/apps/frappe/frappe/utils/scheduler.py:
Site: erpnext_site
Queued events for site erpnext_site
[DEBUG] 2018-12-20 14:11:15,974 | /home/babitagujar/frappe-bench/apps/frappe/frappe/utils/scheduler.py:
Site: library
Queued events for site library
[DEBUG] 2018-12-20 14:12:16,053 | /home/babitagujar/frappe-bench/apps/frappe/frappe/utils/scheduler.py:
Site: ekart_site
Queued events for site ekart_site
[DEBUG] 2018-12-20 14:12:16,065 | /home/babitagujar/frappe-bench/apps/frappe/frappe/utils/scheduler.py:
Site: erpnext_site
Queued events for site erpnext_site
[DEBUG] 2018-12-20 14:12:16,079 | /home/babitagujar/frappe-bench/apps/frappe/frappe/utils/scheduler.py:
Site: library
Queued events for site library
[DEBUG] 2018-12-20 14:13:16,170 | /home/babitagujar/frappe-bench/apps/frappe/frappe/utils/scheduler.py:
Site: ekart_site
Queued events for site ekart_site
[DEBUG] 2018-12-20 14:13:16,181 | /home/babitagujar/frappe-bench/apps/frappe/frappe/utils/scheduler.py:
Site: erpnext_site
Queued events for site erpnext_site
[DEBUG] 2018-12-20 14:13:16,193 | /home/babitagujar/frappe-bench/apps/frappe/frappe/utils/scheduler.py:
Site: library
Queued events for site library
[DEBUG] 2018-12-20 14:14:16,295 | /home/babitagujar/frappe-bench/apps/frappe/frappe/utils/scheduler.py:
Site: ekart_site
Queued events for site ekart_site
[DEBUG] 2018-12-20 14:14:16,319 | /home/babitagujar/frappe-bench/apps/frappe/frappe/utils/scheduler.py:
Site: erpnext_site
Queued events for site erpnext_site
[DEBUG] 2018-12-20 14:14:16,358 | /home/babitagujar/frappe-bench/apps/frappe/frappe/utils/scheduler.py:
Site: library
Queued events for site library
[DEBUG] 2018-12-20 14:15:16,445 | /home/babitagujar/frappe-bench/apps/frappe/frappe/utils/scheduler.py:
Site: ekart_site
Queued events for site ekart_site
[DEBUG] 2018-12-20 14:15:16,459 | /home/babitagujar/frappe-bench/apps/frappe/frappe/utils/scheduler.py:
Site: erpnext_site
Queued events for site erpnext_site
[DEBUG] 2018-12-20 14:15:16,473 | /home/babitagujar/frappe-bench/apps/frappe/frappe/utils/scheduler.py:
Site: library
Queued events for site library
[DEBUG] 2018-12-20 14:16:16,558 | /home/babitagujar/frappe-bench/apps/frappe/frappe/utils/scheduler.py:
Site: ekart_site
Queued events for site ekart_site
[DEBUG] 2018-12-20 14:16:16,570 | /home/babitagujar/frappe-bench/apps/frappe/frappe/utils/scheduler.py:
Site: erpnext_site
Queued events for site erpnext_site
[DEBUG] 2018-12-20 14:16:16,582 | /home/babitagujar/frappe-bench/apps/frappe/frappe/utils/scheduler.py:
Site: library
Queued events for site library
[DEBUG] 2018-12-20 14:17:16,669 | /home/babitagujar/frappe-bench/apps/frappe/frappe/utils/scheduler.py:
Site: ekart_site
Queued events for site ekart_site
[DEBUG] 2018-12-20 14:17:16,684 | /home/babitagujar/frappe-bench/apps/frappe/frappe/utils/scheduler.py:
Site: erpnext_site
Queued events for site erpnext_site
[DEBUG] 2018-12-20 14:17:16,699 | /home/babitagujar/frappe-bench/apps/frappe/frappe/utils/scheduler.py:
Site: library
Queued events for site library
[DEBUG] 2018-12-20 14:18:16,804 | /home/babitagujar/frappe-bench/apps/frappe/frappe/utils/scheduler.py:
Site: ekart_site
Queued events for site ekart_site
[DEBUG] 2018-12-20 14:18:16,837 | /home/babitagujar/frappe-bench/apps/frappe/frappe/utils/scheduler.py:
Site: erpnext_site
Queued events for site erpnext_site
