[DEBUG] 2018-12-20 04:21:55,585 | /home/babitagujar/frappe-bench/apps/frappe/frappe/utils/scheduler.py:
Site: ekart_site
Queued events for site ekart_site
[DEBUG] 2018-12-20 04:21:55,604 | /home/babitagujar/frappe-bench/apps/frappe/frappe/utils/scheduler.py:
Site: erpnext_site
Queued events for site erpnext_site
[DEBUG] 2018-12-20 04:21:55,618 | /home/babitagujar/frappe-bench/apps/frappe/frappe/utils/scheduler.py:
Site: library
Queued events for site library
[DEBUG] 2018-12-20 04:22:55,729 | /home/babitagujar/frappe-bench/apps/frappe/frappe/utils/scheduler.py:
Site: ekart_site
Queued events for site ekart_site
[DEBUG] 2018-12-20 04:22:55,766 | /home/babitagujar/frappe-bench/apps/frappe/frappe/utils/scheduler.py:
Site: erpnext_site
Queued events for site erpnext_site
[DEBUG] 2018-12-20 04:22:55,829 | /home/babitagujar/frappe-bench/apps/frappe/frappe/utils/scheduler.py:
Site: library
Queued events for site library
[DEBUG] 2018-12-20 04:23:55,900 | /home/babitagujar/frappe-bench/apps/frappe/frappe/utils/scheduler.py:
Site: ekart_site
Queued events for site ekart_site
[DEBUG] 2018-12-20 04:23:55,915 | /home/babitagujar/frappe-bench/apps/frappe/frappe/utils/scheduler.py:
Site: erpnext_site
Queued events for site erpnext_site
[DEBUG] 2018-12-20 04:23:55,929 | /home/babitagujar/frappe-bench/apps/frappe/frappe/utils/scheduler.py:
Site: library
Queued events for site library
[DEBUG] 2018-12-20 04:24:56,014 | /home/babitagujar/frappe-bench/apps/frappe/frappe/utils/scheduler.py:
Site: ekart_site
Queued events for site ekart_site
[DEBUG] 2018-12-20 04:24:56,030 | /home/babitagujar/frappe-bench/apps/frappe/frappe/utils/scheduler.py:
Site: erpnext_site
Queued events for site erpnext_site
[DEBUG] 2018-12-20 04:24:56,044 | /home/babitagujar/frappe-bench/apps/frappe/frappe/utils/scheduler.py:
Site: library
Queued events for site library
[DEBUG] 2018-12-20 04:25:56,136 | /home/babitagujar/frappe-bench/apps/frappe/frappe/utils/scheduler.py:
Site: ekart_site
Queued events for site ekart_site
[DEBUG] 2018-12-20 04:25:56,151 | /home/babitagujar/frappe-bench/apps/frappe/frappe/utils/scheduler.py:
Site: erpnext_site
Queued events for site erpnext_site
[DEBUG] 2018-12-20 04:25:56,166 | /home/babitagujar/frappe-bench/apps/frappe/frappe/utils/scheduler.py:
Site: library
Queued events for site library
[DEBUG] 2018-12-20 04:26:56,281 | /home/babitagujar/frappe-bench/apps/frappe/frappe/utils/scheduler.py:
Site: ekart_site
Queued events for site ekart_site
[DEBUG] 2018-12-20 04:26:56,318 | /home/babitagujar/frappe-bench/apps/frappe/frappe/utils/scheduler.py:
Site: erpnext_site
Queued events for site erpnext_site
[DEBUG] 2018-12-20 04:26:56,379 | /home/babitagujar/frappe-bench/apps/frappe/frappe/utils/scheduler.py:
Site: library
Queued events for site library
[DEBUG] 2018-12-20 04:27:56,456 | /home/babitagujar/frappe-bench/apps/frappe/frappe/utils/scheduler.py:
Site: ekart_site
Queued events for site ekart_site
[DEBUG] 2018-12-20 04:27:56,476 | /home/babitagujar/frappe-bench/apps/frappe/frappe/utils/scheduler.py:
Site: erpnext_site
Queued events for site erpnext_site
[DEBUG] 2018-12-20 04:27:56,496 | /home/babitagujar/frappe-bench/apps/frappe/frappe/utils/scheduler.py:
Site: library
Queued events for site library
[DEBUG] 2018-12-20 04:28:56,586 | /home/babitagujar/frappe-bench/apps/frappe/frappe/utils/scheduler.py:
Site: ekart_site
Queued events for site ekart_site
[DEBUG] 2018-12-20 04:28:56,600 | /home/babitagujar/frappe-bench/apps/frappe/frappe/utils/scheduler.py:
Site: erpnext_site
Queued events for site erpnext_site
[DEBUG] 2018-12-20 04:28:56,614 | /home/babitagujar/frappe-bench/apps/frappe/frappe/utils/scheduler.py:
Site: library
Queued events for site library
[DEBUG] 2018-12-20 04:29:56,706 | /home/babitagujar/frappe-bench/apps/frappe/frappe/utils/scheduler.py:
Site: ekart_site
Queued events for site ekart_site
[DEBUG] 2018-12-20 04:29:56,720 | /home/babitagujar/frappe-bench/apps/frappe/frappe/utils/scheduler.py:
Site: erpnext_site
Queued events for site erpnext_site
[DEBUG] 2018-12-20 04:29:56,735 | /home/babitagujar/frappe-bench/apps/frappe/frappe/utils/scheduler.py:
Site: library
Queued events for site library
[DEBUG] 2018-12-20 04:30:56,858 | /home/babitagujar/frappe-bench/apps/frappe/frappe/utils/scheduler.py:
Site: ekart_site
Queued events for site ekart_site
[DEBUG] 2018-12-20 04:30:56,935 | /home/babitagujar/frappe-bench/apps/frappe/frappe/utils/scheduler.py:
Site: erpnext_site
Queued events for site erpnext_site
[DEBUG] 2018-12-20 04:30:57,027 | /home/babitagujar/frappe-bench/apps/frappe/frappe/utils/scheduler.py:
Site: library
Queued events for site library
[DEBUG] 2018-12-20 04:31:57,111 | /home/babitagujar/frappe-bench/apps/frappe/frappe/utils/scheduler.py:
Site: ekart_site
Queued events for site ekart_site
[DEBUG] 2018-12-20 04:31:57,125 | /home/babitagujar/frappe-bench/apps/frappe/frappe/utils/scheduler.py:
Site: erpnext_site
Queued events for site erpnext_site
[DEBUG] 2018-12-20 04:31:57,138 | /home/babitagujar/frappe-bench/apps/frappe/frappe/utils/scheduler.py:
Site: library
Queued events for site library
[DEBUG] 2018-12-20 04:32:57,221 | /home/babitagujar/frappe-bench/apps/frappe/frappe/utils/scheduler.py:
Site: ekart_site
Queued events for site ekart_site
[DEBUG] 2018-12-20 04:32:57,234 | /home/babitagujar/frappe-bench/apps/frappe/frappe/utils/scheduler.py:
Site: erpnext_site
Queued events for site erpnext_site
[DEBUG] 2018-12-20 04:32:57,246 | /home/babitagujar/frappe-bench/apps/frappe/frappe/utils/scheduler.py:
Site: library
Queued events for site library
[DEBUG] 2018-12-20 04:33:57,331 | /home/babitagujar/frappe-bench/apps/frappe/frappe/utils/scheduler.py:
Site: ekart_site
Queued events for site ekart_site
[DEBUG] 2018-12-20 04:33:57,344 | /home/babitagujar/frappe-bench/apps/frappe/frappe/utils/scheduler.py:
Site: erpnext_site
Queued events for site erpnext_site
[DEBUG] 2018-12-20 04:33:57,357 | /home/babitagujar/frappe-bench/apps/frappe/frappe/utils/scheduler.py:
Site: library
Queued events for site library
[DEBUG] 2018-12-20 04:34:57,464 | /home/babitagujar/frappe-bench/apps/frappe/frappe/utils/scheduler.py:
Site: ekart_site
Queued events for site ekart_site
[DEBUG] 2018-12-20 04:34:57,498 | /home/babitagujar/frappe-bench/apps/frappe/frappe/utils/scheduler.py:
Site: erpnext_site
Queued events for site erpnext_site
[DEBUG] 2018-12-20 04:34:57,552 | /home/babitagujar/frappe-bench/apps/frappe/frappe/utils/scheduler.py:
Site: library
Queued events for site library
[DEBUG] 2018-12-20 04:35:57,620 | /home/babitagujar/frappe-bench/apps/frappe/frappe/utils/scheduler.py:
Site: ekart_site
Queued events for site ekart_site
[DEBUG] 2018-12-20 04:35:57,633 | /home/babitagujar/frappe-bench/apps/frappe/frappe/utils/scheduler.py:
Site: erpnext_site
Queued events for site erpnext_site
[DEBUG] 2018-12-20 04:35:57,647 | /home/babitagujar/frappe-bench/apps/frappe/frappe/utils/scheduler.py:
Site: library
Queued events for site library
[DEBUG] 2018-12-20 04:36:57,735 | /home/babitagujar/frappe-bench/apps/frappe/frappe/utils/scheduler.py:
Site: ekart_site
Queued events for site ekart_site
[DEBUG] 2018-12-20 04:36:57,748 | /home/babitagujar/frappe-bench/apps/frappe/frappe/utils/scheduler.py:
Site: erpnext_site
Queued events for site erpnext_site
[DEBUG] 2018-12-20 04:36:57,761 | /home/babitagujar/frappe-bench/apps/frappe/frappe/utils/scheduler.py:
Site: library
Queued events for site library
[DEBUG] 2018-12-20 04:37:57,847 | /home/babitagujar/frappe-bench/apps/frappe/frappe/utils/scheduler.py:
Site: ekart_site
Queued events for site ekart_site
[DEBUG] 2018-12-20 04:37:57,860 | /home/babitagujar/frappe-bench/apps/frappe/frappe/utils/scheduler.py:
Site: erpnext_site
Queued events for site erpnext_site
[DEBUG] 2018-12-20 04:37:57,873 | /home/babitagujar/frappe-bench/apps/frappe/frappe/utils/scheduler.py:
Site: library
Queued events for site library
[DEBUG] 2018-12-20 04:38:57,979 | /home/babitagujar/frappe-bench/apps/frappe/frappe/utils/scheduler.py:
Site: ekart_site
Queued events for site ekart_site
[DEBUG] 2018-12-20 04:38:58,006 | /home/babitagujar/frappe-bench/apps/frappe/frappe/utils/scheduler.py:
Site: erpnext_site
Queued events for site erpnext_site
[DEBUG] 2018-12-20 04:38:58,051 | /home/babitagujar/frappe-bench/apps/frappe/frappe/utils/scheduler.py:
Site: library
Queued events for site library
[DEBUG] 2018-12-20 04:39:58,136 | /home/babitagujar/frappe-bench/apps/frappe/frappe/utils/scheduler.py:
Site: ekart_site
Queued events for site ekart_site
[DEBUG] 2018-12-20 04:39:58,150 | /home/babitagujar/frappe-bench/apps/frappe/frappe/utils/scheduler.py:
Site: erpnext_site
Queued events for site erpnext_site
[DEBUG] 2018-12-20 04:39:58,163 | /home/babitagujar/frappe-bench/apps/frappe/frappe/utils/scheduler.py:
Site: library
Queued events for site library
[DEBUG] 2018-12-20 04:40:58,246 | /home/babitagujar/frappe-bench/apps/frappe/frappe/utils/scheduler.py:
Site: ekart_site
Queued events for site ekart_site
[DEBUG] 2018-12-20 04:40:58,259 | /home/babitagujar/frappe-bench/apps/frappe/frappe/utils/scheduler.py:
Site: erpnext_site
Queued events for site erpnext_site
[DEBUG] 2018-12-20 04:40:58,274 | /home/babitagujar/frappe-bench/apps/frappe/frappe/utils/scheduler.py:
Site: library
Queued events for site library
[DEBUG] 2018-12-20 04:41:58,363 | /home/babitagujar/frappe-bench/apps/frappe/frappe/utils/scheduler.py:
Site: ekart_site
Queued events for site ekart_site
[DEBUG] 2018-12-20 04:41:58,376 | /home/babitagujar/frappe-bench/apps/frappe/frappe/utils/scheduler.py:
Site: erpnext_site
Queued events for site erpnext_site
[DEBUG] 2018-12-20 04:41:58,389 | /home/babitagujar/frappe-bench/apps/frappe/frappe/utils/scheduler.py:
Site: library
Queued events for site library
[DEBUG] 2018-12-20 04:42:58,498 | /home/babitagujar/frappe-bench/apps/frappe/frappe/utils/scheduler.py:
Site: ekart_site
Queued events for site ekart_site
[DEBUG] 2018-12-20 04:42:58,533 | /home/babitagujar/frappe-bench/apps/frappe/frappe/utils/scheduler.py:
Site: erpnext_site
Queued events for site erpnext_site
[DEBUG] 2018-12-20 04:42:58,591 | /home/babitagujar/frappe-bench/apps/frappe/frappe/utils/scheduler.py:
Site: library
Queued events for site library
[DEBUG] 2018-12-20 04:43:58,683 | /home/babitagujar/frappe-bench/apps/frappe/frappe/utils/scheduler.py:
Site: ekart_site
Queued events for site ekart_site
[DEBUG] 2018-12-20 04:43:58,697 | /home/babitagujar/frappe-bench/apps/frappe/frappe/utils/scheduler.py:
Site: erpnext_site
Queued events for site erpnext_site
[DEBUG] 2018-12-20 04:43:58,712 | /home/babitagujar/frappe-bench/apps/frappe/frappe/utils/scheduler.py:
Site: library
Queued events for site library
[DEBUG] 2018-12-20 04:44:58,803 | /home/babitagujar/frappe-bench/apps/frappe/frappe/utils/scheduler.py:
Site: ekart_site
Queued events for site ekart_site
[DEBUG] 2018-12-20 04:44:58,817 | /home/babitagujar/frappe-bench/apps/frappe/frappe/utils/scheduler.py:
Site: erpnext_site
Queued events for site erpnext_site
[DEBUG] 2018-12-20 04:44:58,831 | /home/babitagujar/frappe-bench/apps/frappe/frappe/utils/scheduler.py:
Site: library
Queued events for site library
[DEBUG] 2018-12-20 04:45:58,921 | /home/babitagujar/frappe-bench/apps/frappe/frappe/utils/scheduler.py:
Site: ekart_site
Queued events for site ekart_site
[DEBUG] 2018-12-20 04:45:58,938 | /home/babitagujar/frappe-bench/apps/frappe/frappe/utils/scheduler.py:
Site: erpnext_site
Queued events for site erpnext_site
[DEBUG] 2018-12-20 04:45:58,953 | /home/babitagujar/frappe-bench/apps/frappe/frappe/utils/scheduler.py:
Site: library
Queued events for site library
[DEBUG] 2018-12-20 04:46:59,066 | /home/babitagujar/frappe-bench/apps/frappe/frappe/utils/scheduler.py:
Site: ekart_site
Queued events for site ekart_site
[DEBUG] 2018-12-20 04:46:59,102 | /home/babitagujar/frappe-bench/apps/frappe/frappe/utils/scheduler.py:
Site: erpnext_site
Queued events for site erpnext_site
[DEBUG] 2018-12-20 04:46:59,160 | /home/babitagujar/frappe-bench/apps/frappe/frappe/utils/scheduler.py:
Site: library
Queued events for site library
[DEBUG] 2018-12-20 04:47:59,250 | /home/babitagujar/frappe-bench/apps/frappe/frappe/utils/scheduler.py:
Site: ekart_site
Queued events for site ekart_site
[DEBUG] 2018-12-20 04:47:59,264 | /home/babitagujar/frappe-bench/apps/frappe/frappe/utils/scheduler.py:
Site: erpnext_site
Queued events for site erpnext_site
[DEBUG] 2018-12-20 04:47:59,278 | /home/babitagujar/frappe-bench/apps/frappe/frappe/utils/scheduler.py:
Site: library
Queued events for site library
[DEBUG] 2018-12-20 04:48:59,348 | /home/babitagujar/frappe-bench/apps/frappe/frappe/utils/scheduler.py:
Site: ekart_site
Queued events for site ekart_site
[DEBUG] 2018-12-20 04:48:59,363 | /home/babitagujar/frappe-bench/apps/frappe/frappe/utils/scheduler.py:
Site: erpnext_site
Queued events for site erpnext_site
[DEBUG] 2018-12-20 04:48:59,379 | /home/babitagujar/frappe-bench/apps/frappe/frappe/utils/scheduler.py:
Site: library
Queued events for site library
[DEBUG] 2018-12-20 04:49:59,470 | /home/babitagujar/frappe-bench/apps/frappe/frappe/utils/scheduler.py:
Site: ekart_site
Queued events for site ekart_site
[DEBUG] 2018-12-20 04:49:59,484 | /home/babitagujar/frappe-bench/apps/frappe/frappe/utils/scheduler.py:
Site: erpnext_site
Queued events for site erpnext_site
[DEBUG] 2018-12-20 04:49:59,497 | /home/babitagujar/frappe-bench/apps/frappe/frappe/utils/scheduler.py:
Site: library
Queued events for site library
[DEBUG] 2018-12-20 04:50:59,611 | /home/babitagujar/frappe-bench/apps/frappe/frappe/utils/scheduler.py:
Site: ekart_site
Queued events for site ekart_site
[DEBUG] 2018-12-20 04:50:59,648 | /home/babitagujar/frappe-bench/apps/frappe/frappe/utils/scheduler.py:
Site: erpnext_site
Queued events for site erpnext_site
[DEBUG] 2018-12-20 04:50:59,713 | /home/babitagujar/frappe-bench/apps/frappe/frappe/utils/scheduler.py:
Site: library
Queued events for site library
[DEBUG] 2018-12-20 04:51:59,800 | /home/babitagujar/frappe-bench/apps/frappe/frappe/utils/scheduler.py:
Site: ekart_site
Queued events for site ekart_site
[DEBUG] 2018-12-20 04:51:59,813 | /home/babitagujar/frappe-bench/apps/frappe/frappe/utils/scheduler.py:
Site: erpnext_site
Queued events for site erpnext_site
[DEBUG] 2018-12-20 04:51:59,827 | /home/babitagujar/frappe-bench/apps/frappe/frappe/utils/scheduler.py:
Site: library
Queued events for site library
[DEBUG] 2018-12-20 04:52:59,903 | /home/babitagujar/frappe-bench/apps/frappe/frappe/utils/scheduler.py:
Site: ekart_site
Queued events for site ekart_site
[DEBUG] 2018-12-20 04:52:59,916 | /home/babitagujar/frappe-bench/apps/frappe/frappe/utils/scheduler.py:
Site: erpnext_site
Queued events for site erpnext_site
[DEBUG] 2018-12-20 04:52:59,931 | /home/babitagujar/frappe-bench/apps/frappe/frappe/utils/scheduler.py:
Site: library
Queued events for site library
[DEBUG] 2018-12-20 04:54:00,035 | /home/babitagujar/frappe-bench/apps/frappe/frappe/utils/scheduler.py:
Site: ekart_site
Queued events for site ekart_site
[DEBUG] 2018-12-20 04:54:00,069 | /home/babitagujar/frappe-bench/apps/frappe/frappe/utils/scheduler.py:
Site: erpnext_site
Queued events for site erpnext_site
[DEBUG] 2018-12-20 04:54:00,124 | /home/babitagujar/frappe-bench/apps/frappe/frappe/utils/scheduler.py:
Site: library
Queued events for site library
[DEBUG] 2018-12-20 04:55:00,211 | /home/babitagujar/frappe-bench/apps/frappe/frappe/utils/scheduler.py:
Site: ekart_site
Queued events for site ekart_site
[DEBUG] 2018-12-20 04:55:00,225 | /home/babitagujar/frappe-bench/apps/frappe/frappe/utils/scheduler.py:
Site: erpnext_site
Queued events for site erpnext_site
[DEBUG] 2018-12-20 04:55:00,238 | /home/babitagujar/frappe-bench/apps/frappe/frappe/utils/scheduler.py:
Site: library
Queued events for site library
[DEBUG] 2018-12-20 04:56:00,324 | /home/babitagujar/frappe-bench/apps/frappe/frappe/utils/scheduler.py:
Site: ekart_site
Queued events for site ekart_site
[DEBUG] 2018-12-20 04:56:00,336 | /home/babitagujar/frappe-bench/apps/frappe/frappe/utils/scheduler.py:
Site: erpnext_site
Queued events for site erpnext_site
[DEBUG] 2018-12-20 04:56:00,350 | /home/babitagujar/frappe-bench/apps/frappe/frappe/utils/scheduler.py:
Site: library
Queued events for site library
[DEBUG] 2018-12-20 04:57:00,435 | /home/babitagujar/frappe-bench/apps/frappe/frappe/utils/scheduler.py:
Site: ekart_site
Queued events for site ekart_site
[DEBUG] 2018-12-20 04:57:00,448 | /home/babitagujar/frappe-bench/apps/frappe/frappe/utils/scheduler.py:
Site: erpnext_site
Queued events for site erpnext_site
[DEBUG] 2018-12-20 04:57:00,462 | /home/babitagujar/frappe-bench/apps/frappe/frappe/utils/scheduler.py:
Site: library
Queued events for site library
[DEBUG] 2018-12-20 04:58:00,570 | /home/babitagujar/frappe-bench/apps/frappe/frappe/utils/scheduler.py:
Site: ekart_site
Queued events for site ekart_site
[DEBUG] 2018-12-20 04:58:00,599 | /home/babitagujar/frappe-bench/apps/frappe/frappe/utils/scheduler.py:
Site: erpnext_site
Queued events for site erpnext_site
[DEBUG] 2018-12-20 04:58:00,650 | /home/babitagujar/frappe-bench/apps/frappe/frappe/utils/scheduler.py:
Site: library
Queued events for site library
[DEBUG] 2018-12-20 04:59:00,738 | /home/babitagujar/frappe-bench/apps/frappe/frappe/utils/scheduler.py:
Site: ekart_site
Queued events for site ekart_site
[DEBUG] 2018-12-20 04:59:00,755 | /home/babitagujar/frappe-bench/apps/frappe/frappe/utils/scheduler.py:
Site: erpnext_site
Queued events for site erpnext_site
[DEBUG] 2018-12-20 04:59:00,773 | /home/babitagujar/frappe-bench/apps/frappe/frappe/utils/scheduler.py:
Site: library
Queued events for site library
[DEBUG] 2018-12-20 05:00:00,859 | /home/babitagujar/frappe-bench/apps/frappe/frappe/utils/scheduler.py:
Site: ekart_site
Queued events for site ekart_site
[DEBUG] 2018-12-20 05:00:00,871 | /home/babitagujar/frappe-bench/apps/frappe/frappe/utils/scheduler.py:
Site: erpnext_site
Queued events for site erpnext_site
[DEBUG] 2018-12-20 05:00:00,884 | /home/babitagujar/frappe-bench/apps/frappe/frappe/utils/scheduler.py:
Site: library
Queued events for site library
[DEBUG] 2018-12-20 05:01:00,972 | /home/babitagujar/frappe-bench/apps/frappe/frappe/utils/scheduler.py:
Site: ekart_site
Queued events for site ekart_site
[DEBUG] 2018-12-20 05:01:00,988 | /home/babitagujar/frappe-bench/apps/frappe/frappe/utils/scheduler.py:
Site: erpnext_site
Queued events for site erpnext_site
[DEBUG] 2018-12-20 05:01:01,003 | /home/babitagujar/frappe-bench/apps/frappe/frappe/utils/scheduler.py:
Site: library
Queued events for site library
[DEBUG] 2018-12-20 05:02:01,110 | /home/babitagujar/frappe-bench/apps/frappe/frappe/utils/scheduler.py:
Site: ekart_site
Queued events for site ekart_site
[DEBUG] 2018-12-20 05:02:01,135 | /home/babitagujar/frappe-bench/apps/frappe/frappe/utils/scheduler.py:
Site: erpnext_site
Queued events for site erpnext_site
[DEBUG] 2018-12-20 05:02:01,172 | /home/babitagujar/frappe-bench/apps/frappe/frappe/utils/scheduler.py:
Site: library
Queued events for site library
[DEBUG] 2018-12-20 05:03:01,258 | /home/babitagujar/frappe-bench/apps/frappe/frappe/utils/scheduler.py:
Site: ekart_site
Queued events for site ekart_site
[DEBUG] 2018-12-20 05:03:01,271 | /home/babitagujar/frappe-bench/apps/frappe/frappe/utils/scheduler.py:
Site: erpnext_site
Queued events for site erpnext_site
[DEBUG] 2018-12-20 05:03:01,288 | /home/babitagujar/frappe-bench/apps/frappe/frappe/utils/scheduler.py:
Site: library
Queued events for site library
[DEBUG] 2018-12-20 05:04:01,378 | /home/babitagujar/frappe-bench/apps/frappe/frappe/utils/scheduler.py:
Site: ekart_site
Queued events for site ekart_site
[DEBUG] 2018-12-20 05:04:01,391 | /home/babitagujar/frappe-bench/apps/frappe/frappe/utils/scheduler.py:
Site: erpnext_site
Queued events for site erpnext_site
[DEBUG] 2018-12-20 05:04:01,408 | /home/babitagujar/frappe-bench/apps/frappe/frappe/utils/scheduler.py:
Site: library
Queued events for site library
[DEBUG] 2018-12-20 05:05:01,492 | /home/babitagujar/frappe-bench/apps/frappe/frappe/utils/scheduler.py:
Site: ekart_site
Queued events for site ekart_site
[DEBUG] 2018-12-20 05:05:01,505 | /home/babitagujar/frappe-bench/apps/frappe/frappe/utils/scheduler.py:
Site: erpnext_site
Queued events for site erpnext_site
[DEBUG] 2018-12-20 05:05:01,518 | /home/babitagujar/frappe-bench/apps/frappe/frappe/utils/scheduler.py:
Site: library
Queued events for site library
[DEBUG] 2018-12-20 05:06:01,622 | /home/babitagujar/frappe-bench/apps/frappe/frappe/utils/scheduler.py:
Site: ekart_site
Queued events for site ekart_site
[DEBUG] 2018-12-20 05:06:01,654 | /home/babitagujar/frappe-bench/apps/frappe/frappe/utils/scheduler.py:
Site: erpnext_site
Queued events for site erpnext_site
[DEBUG] 2018-12-20 05:06:01,696 | /home/babitagujar/frappe-bench/apps/frappe/frappe/utils/scheduler.py:
Site: library
Queued events for site library
[DEBUG] 2018-12-20 05:07:01,787 | /home/babitagujar/frappe-bench/apps/frappe/frappe/utils/scheduler.py:
Site: ekart_site
Queued events for site ekart_site
[DEBUG] 2018-12-20 05:07:01,805 | /home/babitagujar/frappe-bench/apps/frappe/frappe/utils/scheduler.py:
Site: erpnext_site
Queued events for site erpnext_site
[DEBUG] 2018-12-20 05:07:01,824 | /home/babitagujar/frappe-bench/apps/frappe/frappe/utils/scheduler.py:
Site: library
Queued events for site library
[DEBUG] 2018-12-20 05:08:01,910 | /home/babitagujar/frappe-bench/apps/frappe/frappe/utils/scheduler.py:
Site: ekart_site
Queued events for site ekart_site
[DEBUG] 2018-12-20 05:08:01,924 | /home/babitagujar/frappe-bench/apps/frappe/frappe/utils/scheduler.py:
Site: erpnext_site
Queued events for site erpnext_site
[DEBUG] 2018-12-20 05:08:01,937 | /home/babitagujar/frappe-bench/apps/frappe/frappe/utils/scheduler.py:
Site: library
Queued events for site library
[DEBUG] 2018-12-20 05:09:02,027 | /home/babitagujar/frappe-bench/apps/frappe/frappe/utils/scheduler.py:
Site: ekart_site
Queued events for site ekart_site
[DEBUG] 2018-12-20 05:09:02,042 | /home/babitagujar/frappe-bench/apps/frappe/frappe/utils/scheduler.py:
Site: erpnext_site
Queued events for site erpnext_site
[DEBUG] 2018-12-20 05:09:02,057 | /home/babitagujar/frappe-bench/apps/frappe/frappe/utils/scheduler.py:
Site: library
Queued events for site library
[DEBUG] 2018-12-20 05:10:02,172 | /home/babitagujar/frappe-bench/apps/frappe/frappe/utils/scheduler.py:
Site: ekart_site
Queued events for site ekart_site
[DEBUG] 2018-12-20 05:10:02,208 | /home/babitagujar/frappe-bench/apps/frappe/frappe/utils/scheduler.py:
Site: erpnext_site
Queued events for site erpnext_site
[DEBUG] 2018-12-20 05:10:02,265 | /home/babitagujar/frappe-bench/apps/frappe/frappe/utils/scheduler.py:
Site: library
Queued events for site library
[DEBUG] 2018-12-20 05:11:02,350 | /home/babitagujar/frappe-bench/apps/frappe/frappe/utils/scheduler.py:
Site: ekart_site
Queued events for site ekart_site
[DEBUG] 2018-12-20 05:11:02,363 | /home/babitagujar/frappe-bench/apps/frappe/frappe/utils/scheduler.py:
Site: erpnext_site
Queued events for site erpnext_site
[DEBUG] 2018-12-20 05:11:02,376 | /home/babitagujar/frappe-bench/apps/frappe/frappe/utils/scheduler.py:
Site: library
Queued events for site library
[DEBUG] 2018-12-20 05:12:02,468 | /home/babitagujar/frappe-bench/apps/frappe/frappe/utils/scheduler.py:
Site: ekart_site
Queued events for site ekart_site
[DEBUG] 2018-12-20 05:12:02,486 | /home/babitagujar/frappe-bench/apps/frappe/frappe/utils/scheduler.py:
Site: erpnext_site
Queued events for site erpnext_site
[DEBUG] 2018-12-20 05:12:02,503 | /home/babitagujar/frappe-bench/apps/frappe/frappe/utils/scheduler.py:
Site: library
Queued events for site library
[DEBUG] 2018-12-20 05:13:02,596 | /home/babitagujar/frappe-bench/apps/frappe/frappe/utils/scheduler.py:
Site: ekart_site
Queued events for site ekart_site
[DEBUG] 2018-12-20 05:13:02,614 | /home/babitagujar/frappe-bench/apps/frappe/frappe/utils/scheduler.py:
Site: erpnext_site
Queued events for site erpnext_site
[DEBUG] 2018-12-20 05:13:02,631 | /home/babitagujar/frappe-bench/apps/frappe/frappe/utils/scheduler.py:
Site: library
Queued events for site library
[DEBUG] 2018-12-20 05:14:02,741 | /home/babitagujar/frappe-bench/apps/frappe/frappe/utils/scheduler.py:
Site: ekart_site
Queued events for site ekart_site
[DEBUG] 2018-12-20 05:14:02,767 | /home/babitagujar/frappe-bench/apps/frappe/frappe/utils/scheduler.py:
Site: erpnext_site
Queued events for site erpnext_site
[DEBUG] 2018-12-20 05:14:02,809 | /home/babitagujar/frappe-bench/apps/frappe/frappe/utils/scheduler.py:
Site: library
Queued events for site library
[DEBUG] 2018-12-20 05:15:02,893 | /home/babitagujar/frappe-bench/apps/frappe/frappe/utils/scheduler.py:
Site: ekart_site
Queued events for site ekart_site
[DEBUG] 2018-12-20 05:15:02,907 | /home/babitagujar/frappe-bench/apps/frappe/frappe/utils/scheduler.py:
Site: erpnext_site
Queued events for site erpnext_site
[DEBUG] 2018-12-20 05:15:02,920 | /home/babitagujar/frappe-bench/apps/frappe/frappe/utils/scheduler.py:
Site: library
Queued events for site library
[DEBUG] 2018-12-20 05:16:03,012 | /home/babitagujar/frappe-bench/apps/frappe/frappe/utils/scheduler.py:
Site: ekart_site
Queued events for site ekart_site
[DEBUG] 2018-12-20 05:16:03,031 | /home/babitagujar/frappe-bench/apps/frappe/frappe/utils/scheduler.py:
Site: erpnext_site
Queued events for site erpnext_site
[DEBUG] 2018-12-20 05:16:03,050 | /home/babitagujar/frappe-bench/apps/frappe/frappe/utils/scheduler.py:
Site: library
Queued events for site library
[DEBUG] 2018-12-20 05:17:03,138 | /home/babitagujar/frappe-bench/apps/frappe/frappe/utils/scheduler.py:
Site: ekart_site
Queued events for site ekart_site
[DEBUG] 2018-12-20 05:17:03,152 | /home/babitagujar/frappe-bench/apps/frappe/frappe/utils/scheduler.py:
Site: erpnext_site
Queued events for site erpnext_site
[DEBUG] 2018-12-20 05:17:03,166 | /home/babitagujar/frappe-bench/apps/frappe/frappe/utils/scheduler.py:
Site: library
Queued events for site library
[DEBUG] 2018-12-20 05:21:32,357 | /home/babitagujar/frappe-bench/apps/frappe/frappe/utils/scheduler.py:
Site: ekart_site
Queued events for site ekart_site
[DEBUG] 2018-12-20 05:21:32,400 | /home/babitagujar/frappe-bench/apps/frappe/frappe/utils/scheduler.py:
Site: erpnext_site
Queued events for site erpnext_site
[DEBUG] 2018-12-20 05:21:32,472 | /home/babitagujar/frappe-bench/apps/frappe/frappe/utils/scheduler.py:
Site: library
Queued events for site library
[DEBUG] 2018-12-20 05:22:32,600 | /home/babitagujar/frappe-bench/apps/frappe/frappe/utils/scheduler.py:
Site: ekart_site
Queued events for site ekart_site
[DEBUG] 2018-12-20 05:22:32,652 | /home/babitagujar/frappe-bench/apps/frappe/frappe/utils/scheduler.py:
Site: erpnext_site
Queued events for site erpnext_site
[DEBUG] 2018-12-20 05:22:32,723 | /home/babitagujar/frappe-bench/apps/frappe/frappe/utils/scheduler.py:
Site: library
Queued events for site library
[DEBUG] 2018-12-20 05:23:32,808 | /home/babitagujar/frappe-bench/apps/frappe/frappe/utils/scheduler.py:
Site: ekart_site
Queued events for site ekart_site
[DEBUG] 2018-12-20 05:23:32,820 | /home/babitagujar/frappe-bench/apps/frappe/frappe/utils/scheduler.py:
Site: erpnext_site
Queued events for site erpnext_site
[DEBUG] 2018-12-20 05:23:32,833 | /home/babitagujar/frappe-bench/apps/frappe/frappe/utils/scheduler.py:
Site: library
Queued events for site library
[DEBUG] 2018-12-20 05:24:32,919 | /home/babitagujar/frappe-bench/apps/frappe/frappe/utils/scheduler.py:
Site: ekart_site
Queued events for site ekart_site
[DEBUG] 2018-12-20 05:24:32,934 | /home/babitagujar/frappe-bench/apps/frappe/frappe/utils/scheduler.py:
Site: erpnext_site
Queued events for site erpnext_site
[DEBUG] 2018-12-20 05:24:32,949 | /home/babitagujar/frappe-bench/apps/frappe/frappe/utils/scheduler.py:
Site: library
Queued events for site library
[DEBUG] 2018-12-20 05:25:33,035 | /home/babitagujar/frappe-bench/apps/frappe/frappe/utils/scheduler.py:
Site: ekart_site
Queued events for site ekart_site
[DEBUG] 2018-12-20 05:25:33,049 | /home/babitagujar/frappe-bench/apps/frappe/frappe/utils/scheduler.py:
Site: erpnext_site
Queued events for site erpnext_site
[DEBUG] 2018-12-20 05:25:33,061 | /home/babitagujar/frappe-bench/apps/frappe/frappe/utils/scheduler.py:
Site: library
Queued events for site library
[DEBUG] 2018-12-20 05:26:33,160 | /home/babitagujar/frappe-bench/apps/frappe/frappe/utils/scheduler.py:
Site: ekart_site
Queued events for site ekart_site
[DEBUG] 2018-12-20 05:26:33,184 | /home/babitagujar/frappe-bench/apps/frappe/frappe/utils/scheduler.py:
Site: erpnext_site
Queued events for site erpnext_site
[DEBUG] 2018-12-20 05:26:33,229 | /home/babitagujar/frappe-bench/apps/frappe/frappe/utils/scheduler.py:
Site: library
Queued events for site library
[DEBUG] 2018-12-20 05:27:33,314 | /home/babitagujar/frappe-bench/apps/frappe/frappe/utils/scheduler.py:
Site: ekart_site
Queued events for site ekart_site
[DEBUG] 2018-12-20 05:27:33,327 | /home/babitagujar/frappe-bench/apps/frappe/frappe/utils/scheduler.py:
Site: erpnext_site
Queued events for site erpnext_site
[DEBUG] 2018-12-20 05:27:33,339 | /home/babitagujar/frappe-bench/apps/frappe/frappe/utils/scheduler.py:
Site: library
Queued events for site library
[DEBUG] 2018-12-20 05:28:33,423 | /home/babitagujar/frappe-bench/apps/frappe/frappe/utils/scheduler.py:
Site: ekart_site
Queued events for site ekart_site
[DEBUG] 2018-12-20 05:28:33,437 | /home/babitagujar/frappe-bench/apps/frappe/frappe/utils/scheduler.py:
Site: erpnext_site
Queued events for site erpnext_site
[DEBUG] 2018-12-20 05:28:33,450 | /home/babitagujar/frappe-bench/apps/frappe/frappe/utils/scheduler.py:
Site: library
Queued events for site library
[DEBUG] 2018-12-20 05:29:33,534 | /home/babitagujar/frappe-bench/apps/frappe/frappe/utils/scheduler.py:
Site: ekart_site
Queued events for site ekart_site
[DEBUG] 2018-12-20 05:29:33,547 | /home/babitagujar/frappe-bench/apps/frappe/frappe/utils/scheduler.py:
Site: erpnext_site
Queued events for site erpnext_site
[DEBUG] 2018-12-20 05:29:33,559 | /home/babitagujar/frappe-bench/apps/frappe/frappe/utils/scheduler.py:
Site: library
Queued events for site library
[DEBUG] 2018-12-20 05:30:33,675 | /home/babitagujar/frappe-bench/apps/frappe/frappe/utils/scheduler.py:
Site: ekart_site
Queued events for site ekart_site
[DEBUG] 2018-12-20 05:30:33,758 | /home/babitagujar/frappe-bench/apps/frappe/frappe/utils/scheduler.py:
Site: erpnext_site
Queued events for site erpnext_site
[DEBUG] 2018-12-20 05:30:33,839 | /home/babitagujar/frappe-bench/apps/frappe/frappe/utils/scheduler.py:
Site: library
Queued events for site library
[DEBUG] 2018-12-20 05:31:33,924 | /home/babitagujar/frappe-bench/apps/frappe/frappe/utils/scheduler.py:
Site: ekart_site
Queued events for site ekart_site
[DEBUG] 2018-12-20 05:31:33,937 | /home/babitagujar/frappe-bench/apps/frappe/frappe/utils/scheduler.py:
Site: erpnext_site
Queued events for site erpnext_site
[DEBUG] 2018-12-20 05:31:33,950 | /home/babitagujar/frappe-bench/apps/frappe/frappe/utils/scheduler.py:
Site: library
Queued events for site library
[DEBUG] 2018-12-20 05:32:34,035 | /home/babitagujar/frappe-bench/apps/frappe/frappe/utils/scheduler.py:
Site: ekart_site
Queued events for site ekart_site
[DEBUG] 2018-12-20 05:32:34,047 | /home/babitagujar/frappe-bench/apps/frappe/frappe/utils/scheduler.py:
Site: erpnext_site
Queued events for site erpnext_site
[DEBUG] 2018-12-20 05:32:34,059 | /home/babitagujar/frappe-bench/apps/frappe/frappe/utils/scheduler.py:
Site: library
Queued events for site library
[DEBUG] 2018-12-20 05:33:34,146 | /home/babitagujar/frappe-bench/apps/frappe/frappe/utils/scheduler.py:
Site: ekart_site
Queued events for site ekart_site
[DEBUG] 2018-12-20 05:33:34,159 | /home/babitagujar/frappe-bench/apps/frappe/frappe/utils/scheduler.py:
Site: erpnext_site
Queued events for site erpnext_site
[DEBUG] 2018-12-20 05:33:34,173 | /home/babitagujar/frappe-bench/apps/frappe/frappe/utils/scheduler.py:
Site: library
Queued events for site library
[DEBUG] 2018-12-20 05:34:34,265 | /home/babitagujar/frappe-bench/apps/frappe/frappe/utils/scheduler.py:
Site: ekart_site
Queued events for site ekart_site
[DEBUG] 2018-12-20 05:34:34,299 | /home/babitagujar/frappe-bench/apps/frappe/frappe/utils/scheduler.py:
Site: erpnext_site
Queued events for site erpnext_site
[DEBUG] 2018-12-20 05:34:34,352 | /home/babitagujar/frappe-bench/apps/frappe/frappe/utils/scheduler.py:
Site: library
Queued events for site library
[DEBUG] 2018-12-20 05:35:34,436 | /home/babitagujar/frappe-bench/apps/frappe/frappe/utils/scheduler.py:
Site: ekart_site
Queued events for site ekart_site
[DEBUG] 2018-12-20 05:35:34,449 | /home/babitagujar/frappe-bench/apps/frappe/frappe/utils/scheduler.py:
Site: erpnext_site
Queued events for site erpnext_site
[DEBUG] 2018-12-20 05:35:34,461 | /home/babitagujar/frappe-bench/apps/frappe/frappe/utils/scheduler.py:
Site: library
Queued events for site library
[DEBUG] 2018-12-20 05:36:34,546 | /home/babitagujar/frappe-bench/apps/frappe/frappe/utils/scheduler.py:
Site: ekart_site
Queued events for site ekart_site
[DEBUG] 2018-12-20 05:36:34,558 | /home/babitagujar/frappe-bench/apps/frappe/frappe/utils/scheduler.py:
Site: erpnext_site
Queued events for site erpnext_site
[DEBUG] 2018-12-20 05:36:34,571 | /home/babitagujar/frappe-bench/apps/frappe/frappe/utils/scheduler.py:
Site: library
Queued events for site library
[DEBUG] 2018-12-20 05:37:34,654 | /home/babitagujar/frappe-bench/apps/frappe/frappe/utils/scheduler.py:
Site: ekart_site
Queued events for site ekart_site
[DEBUG] 2018-12-20 05:37:34,665 | /home/babitagujar/frappe-bench/apps/frappe/frappe/utils/scheduler.py:
Site: erpnext_site
Queued events for site erpnext_site
[DEBUG] 2018-12-20 05:37:34,677 | /home/babitagujar/frappe-bench/apps/frappe/frappe/utils/scheduler.py:
Site: library
Queued events for site library
[DEBUG] 2018-12-20 05:38:34,784 | /home/babitagujar/frappe-bench/apps/frappe/frappe/utils/scheduler.py:
Site: ekart_site
Queued events for site ekart_site
[DEBUG] 2018-12-20 05:38:34,817 | /home/babitagujar/frappe-bench/apps/frappe/frappe/utils/scheduler.py:
Site: erpnext_site
Queued events for site erpnext_site
[DEBUG] 2018-12-20 05:38:34,868 | /home/babitagujar/frappe-bench/apps/frappe/frappe/utils/scheduler.py:
Site: library
Queued events for site library
[DEBUG] 2018-12-20 05:39:34,953 | /home/babitagujar/frappe-bench/apps/frappe/frappe/utils/scheduler.py:
Site: ekart_site
Queued events for site ekart_site
[DEBUG] 2018-12-20 05:39:34,966 | /home/babitagujar/frappe-bench/apps/frappe/frappe/utils/scheduler.py:
Site: erpnext_site
Queued events for site erpnext_site
[DEBUG] 2018-12-20 05:39:34,979 | /home/babitagujar/frappe-bench/apps/frappe/frappe/utils/scheduler.py:
Site: library
Queued events for site library
[DEBUG] 2018-12-20 05:40:35,065 | /home/babitagujar/frappe-bench/apps/frappe/frappe/utils/scheduler.py:
Site: ekart_site
Queued events for site ekart_site
[DEBUG] 2018-12-20 05:40:35,077 | /home/babitagujar/frappe-bench/apps/frappe/frappe/utils/scheduler.py:
Site: erpnext_site
Queued events for site erpnext_site
[DEBUG] 2018-12-20 05:40:35,089 | /home/babitagujar/frappe-bench/apps/frappe/frappe/utils/scheduler.py:
Site: library
Queued events for site library
[DEBUG] 2018-12-20 05:41:35,178 | /home/babitagujar/frappe-bench/apps/frappe/frappe/utils/scheduler.py:
Site: ekart_site
Queued events for site ekart_site
[DEBUG] 2018-12-20 05:41:35,193 | /home/babitagujar/frappe-bench/apps/frappe/frappe/utils/scheduler.py:
Site: erpnext_site
Queued events for site erpnext_site
[DEBUG] 2018-12-20 05:41:35,208 | /home/babitagujar/frappe-bench/apps/frappe/frappe/utils/scheduler.py:
Site: library
Queued events for site library
[DEBUG] 2018-12-20 05:42:35,313 | /home/babitagujar/frappe-bench/apps/frappe/frappe/utils/scheduler.py:
Site: ekart_site
Queued events for site ekart_site
[DEBUG] 2018-12-20 05:42:35,348 | /home/babitagujar/frappe-bench/apps/frappe/frappe/utils/scheduler.py:
Site: erpnext_site
Queued events for site erpnext_site
[DEBUG] 2018-12-20 05:42:35,403 | /home/babitagujar/frappe-bench/apps/frappe/frappe/utils/scheduler.py:
Site: library
Queued events for site library
[DEBUG] 2018-12-20 05:43:35,489 | /home/babitagujar/frappe-bench/apps/frappe/frappe/utils/scheduler.py:
Site: ekart_site
Queued events for site ekart_site
[DEBUG] 2018-12-20 05:43:35,502 | /home/babitagujar/frappe-bench/apps/frappe/frappe/utils/scheduler.py:
Site: erpnext_site
Queued events for site erpnext_site
[DEBUG] 2018-12-20 05:43:35,515 | /home/babitagujar/frappe-bench/apps/frappe/frappe/utils/scheduler.py:
Site: library
Queued events for site library
[DEBUG] 2018-12-20 05:44:35,600 | /home/babitagujar/frappe-bench/apps/frappe/frappe/utils/scheduler.py:
Site: ekart_site
Queued events for site ekart_site
[DEBUG] 2018-12-20 05:44:35,613 | /home/babitagujar/frappe-bench/apps/frappe/frappe/utils/scheduler.py:
Site: erpnext_site
Queued events for site erpnext_site
[DEBUG] 2018-12-20 05:44:35,625 | /home/babitagujar/frappe-bench/apps/frappe/frappe/utils/scheduler.py:
Site: library
Queued events for site library
[DEBUG] 2018-12-20 05:45:35,711 | /home/babitagujar/frappe-bench/apps/frappe/frappe/utils/scheduler.py:
Site: ekart_site
Queued events for site ekart_site
[DEBUG] 2018-12-20 05:45:35,725 | /home/babitagujar/frappe-bench/apps/frappe/frappe/utils/scheduler.py:
Site: erpnext_site
Queued events for site erpnext_site
[DEBUG] 2018-12-20 05:45:35,737 | /home/babitagujar/frappe-bench/apps/frappe/frappe/utils/scheduler.py:
Site: library
Queued events for site library
[DEBUG] 2018-12-20 05:46:35,839 | /home/babitagujar/frappe-bench/apps/frappe/frappe/utils/scheduler.py:
Site: ekart_site
Queued events for site ekart_site
[DEBUG] 2018-12-20 05:46:35,864 | /home/babitagujar/frappe-bench/apps/frappe/frappe/utils/scheduler.py:
Site: erpnext_site
Queued events for site erpnext_site
[DEBUG] 2018-12-20 05:46:35,903 | /home/babitagujar/frappe-bench/apps/frappe/frappe/utils/scheduler.py:
Site: library
Queued events for site library
[DEBUG] 2018-12-20 05:47:35,991 | /home/babitagujar/frappe-bench/apps/frappe/frappe/utils/scheduler.py:
Site: ekart_site
Queued events for site ekart_site
[DEBUG] 2018-12-20 05:47:36,003 | /home/babitagujar/frappe-bench/apps/frappe/frappe/utils/scheduler.py:
Site: erpnext_site
Queued events for site erpnext_site
[DEBUG] 2018-12-20 05:47:36,016 | /home/babitagujar/frappe-bench/apps/frappe/frappe/utils/scheduler.py:
Site: library
Queued events for site library
[DEBUG] 2018-12-20 05:48:36,105 | /home/babitagujar/frappe-bench/apps/frappe/frappe/utils/scheduler.py:
Site: ekart_site
Queued events for site ekart_site
[DEBUG] 2018-12-20 05:48:36,122 | /home/babitagujar/frappe-bench/apps/frappe/frappe/utils/scheduler.py:
Site: erpnext_site
Queued events for site erpnext_site
[DEBUG] 2018-12-20 05:48:36,139 | /home/babitagujar/frappe-bench/apps/frappe/frappe/utils/scheduler.py:
Site: library
Queued events for site library
[DEBUG] 2018-12-20 05:49:36,226 | /home/babitagujar/frappe-bench/apps/frappe/frappe/utils/scheduler.py:
Site: ekart_site
Queued events for site ekart_site
[DEBUG] 2018-12-20 05:49:36,238 | /home/babitagujar/frappe-bench/apps/frappe/frappe/utils/scheduler.py:
Site: erpnext_site
Queued events for site erpnext_site
[DEBUG] 2018-12-20 05:49:36,251 | /home/babitagujar/frappe-bench/apps/frappe/frappe/utils/scheduler.py:
Site: library
Queued events for site library
[DEBUG] 2018-12-20 05:50:36,353 | /home/babitagujar/frappe-bench/apps/frappe/frappe/utils/scheduler.py:
Site: ekart_site
Queued events for site ekart_site
[DEBUG] 2018-12-20 05:50:36,378 | /home/babitagujar/frappe-bench/apps/frappe/frappe/utils/scheduler.py:
Site: erpnext_site
Queued events for site erpnext_site
[DEBUG] 2018-12-20 05:50:36,424 | /home/babitagujar/frappe-bench/apps/frappe/frappe/utils/scheduler.py:
Site: library
Queued events for site library
[DEBUG] 2018-12-20 05:51:36,515 | /home/babitagujar/frappe-bench/apps/frappe/frappe/utils/scheduler.py:
Site: ekart_site
Queued events for site ekart_site
[DEBUG] 2018-12-20 05:51:36,527 | /home/babitagujar/frappe-bench/apps/frappe/frappe/utils/scheduler.py:
Site: erpnext_site
Queued events for site erpnext_site
[DEBUG] 2018-12-20 05:51:36,540 | /home/babitagujar/frappe-bench/apps/frappe/frappe/utils/scheduler.py:
Site: library
Queued events for site library
[DEBUG] 2018-12-20 05:52:36,627 | /home/babitagujar/frappe-bench/apps/frappe/frappe/utils/scheduler.py:
Site: ekart_site
Queued events for site ekart_site
[DEBUG] 2018-12-20 05:52:36,641 | /home/babitagujar/frappe-bench/apps/frappe/frappe/utils/scheduler.py:
Site: erpnext_site
Queued events for site erpnext_site
[DEBUG] 2018-12-20 05:52:36,654 | /home/babitagujar/frappe-bench/apps/frappe/frappe/utils/scheduler.py:
Site: library
Queued events for site library
[DEBUG] 2018-12-20 05:53:36,740 | /home/babitagujar/frappe-bench/apps/frappe/frappe/utils/scheduler.py:
Site: ekart_site
Queued events for site ekart_site
[DEBUG] 2018-12-20 05:53:36,754 | /home/babitagujar/frappe-bench/apps/frappe/frappe/utils/scheduler.py:
Site: erpnext_site
Queued events for site erpnext_site
[DEBUG] 2018-12-20 05:53:36,769 | /home/babitagujar/frappe-bench/apps/frappe/frappe/utils/scheduler.py:
Site: library
Queued events for site library
[DEBUG] 2018-12-20 05:54:36,874 | /home/babitagujar/frappe-bench/apps/frappe/frappe/utils/scheduler.py:
Site: ekart_site
Queued events for site ekart_site
[DEBUG] 2018-12-20 05:54:36,899 | /home/babitagujar/frappe-bench/apps/frappe/frappe/utils/scheduler.py:
Site: erpnext_site
Queued events for site erpnext_site
[DEBUG] 2018-12-20 05:54:36,937 | /home/babitagujar/frappe-bench/apps/frappe/frappe/utils/scheduler.py:
Site: library
Queued events for site library
[DEBUG] 2018-12-20 05:55:37,023 | /home/babitagujar/frappe-bench/apps/frappe/frappe/utils/scheduler.py:
Site: ekart_site
Queued events for site ekart_site
[DEBUG] 2018-12-20 05:55:37,035 | /home/babitagujar/frappe-bench/apps/frappe/frappe/utils/scheduler.py:
Site: erpnext_site
Queued events for site erpnext_site
[DEBUG] 2018-12-20 05:55:37,048 | /home/babitagujar/frappe-bench/apps/frappe/frappe/utils/scheduler.py:
Site: library
Queued events for site library
[DEBUG] 2018-12-20 05:56:37,134 | /home/babitagujar/frappe-bench/apps/frappe/frappe/utils/scheduler.py:
Site: ekart_site
Queued events for site ekart_site
[DEBUG] 2018-12-20 05:56:37,148 | /home/babitagujar/frappe-bench/apps/frappe/frappe/utils/scheduler.py:
Site: erpnext_site
Queued events for site erpnext_site
[DEBUG] 2018-12-20 05:56:37,161 | /home/babitagujar/frappe-bench/apps/frappe/frappe/utils/scheduler.py:
Site: library
Queued events for site library
[DEBUG] 2018-12-20 05:57:37,246 | /home/babitagujar/frappe-bench/apps/frappe/frappe/utils/scheduler.py:
Site: ekart_site
Queued events for site ekart_site
[DEBUG] 2018-12-20 05:57:37,259 | /home/babitagujar/frappe-bench/apps/frappe/frappe/utils/scheduler.py:
Site: erpnext_site
Queued events for site erpnext_site
[DEBUG] 2018-12-20 05:57:37,271 | /home/babitagujar/frappe-bench/apps/frappe/frappe/utils/scheduler.py:
Site: library
Queued events for site library
[DEBUG] 2018-12-20 05:58:37,378 | /home/babitagujar/frappe-bench/apps/frappe/frappe/utils/scheduler.py:
Site: ekart_site
Queued events for site ekart_site
[DEBUG] 2018-12-20 05:58:37,410 | /home/babitagujar/frappe-bench/apps/frappe/frappe/utils/scheduler.py:
Site: erpnext_site
Queued events for site erpnext_site
[DEBUG] 2018-12-20 05:58:37,462 | /home/babitagujar/frappe-bench/apps/frappe/frappe/utils/scheduler.py:
Site: library
Queued events for site library
[DEBUG] 2018-12-20 05:59:37,547 | /home/babitagujar/frappe-bench/apps/frappe/frappe/utils/scheduler.py:
Site: ekart_site
Queued events for site ekart_site
[DEBUG] 2018-12-20 05:59:37,559 | /home/babitagujar/frappe-bench/apps/frappe/frappe/utils/scheduler.py:
Site: erpnext_site
Queued events for site erpnext_site
[DEBUG] 2018-12-20 05:59:37,572 | /home/babitagujar/frappe-bench/apps/frappe/frappe/utils/scheduler.py:
Site: library
Queued events for site library
[DEBUG] 2018-12-20 06:00:37,664 | /home/babitagujar/frappe-bench/apps/frappe/frappe/utils/scheduler.py:
Site: ekart_site
Queued events for site ekart_site
[DEBUG] 2018-12-20 06:00:37,681 | /home/babitagujar/frappe-bench/apps/frappe/frappe/utils/scheduler.py:
Site: erpnext_site
Queued events for site erpnext_site
[DEBUG] 2018-12-20 06:00:37,698 | /home/babitagujar/frappe-bench/apps/frappe/frappe/utils/scheduler.py:
Site: library
Queued events for site library
[DEBUG] 2018-12-20 06:01:37,788 | /home/babitagujar/frappe-bench/apps/frappe/frappe/utils/scheduler.py:
Site: ekart_site
Queued events for site ekart_site
[DEBUG] 2018-12-20 06:01:37,803 | /home/babitagujar/frappe-bench/apps/frappe/frappe/utils/scheduler.py:
Site: erpnext_site
Queued events for site erpnext_site
[DEBUG] 2018-12-20 06:01:37,818 | /home/babitagujar/frappe-bench/apps/frappe/frappe/utils/scheduler.py:
Site: library
Queued events for site library
[DEBUG] 2018-12-20 06:02:37,924 | /home/babitagujar/frappe-bench/apps/frappe/frappe/utils/scheduler.py:
Site: ekart_site
Queued events for site ekart_site
[DEBUG] 2018-12-20 06:02:37,958 | /home/babitagujar/frappe-bench/apps/frappe/frappe/utils/scheduler.py:
Site: erpnext_site
Queued events for site erpnext_site
[DEBUG] 2018-12-20 06:02:38,009 | /home/babitagujar/frappe-bench/apps/frappe/frappe/utils/scheduler.py:
Site: library
Queued events for site library
[DEBUG] 2018-12-20 06:03:38,096 | /home/babitagujar/frappe-bench/apps/frappe/frappe/utils/scheduler.py:
Site: ekart_site
Queued events for site ekart_site
[DEBUG] 2018-12-20 06:03:38,109 | /home/babitagujar/frappe-bench/apps/frappe/frappe/utils/scheduler.py:
Site: erpnext_site
Queued events for site erpnext_site
[DEBUG] 2018-12-20 06:03:38,122 | /home/babitagujar/frappe-bench/apps/frappe/frappe/utils/scheduler.py:
Site: library
Queued events for site library
[DEBUG] 2018-12-20 06:04:38,210 | /home/babitagujar/frappe-bench/apps/frappe/frappe/utils/scheduler.py:
Site: ekart_site
Queued events for site ekart_site
[DEBUG] 2018-12-20 06:04:38,224 | /home/babitagujar/frappe-bench/apps/frappe/frappe/utils/scheduler.py:
Site: erpnext_site
Queued events for site erpnext_site
[DEBUG] 2018-12-20 06:04:38,238 | /home/babitagujar/frappe-bench/apps/frappe/frappe/utils/scheduler.py:
Site: library
Queued events for site library
[DEBUG] 2018-12-20 06:05:38,325 | /home/babitagujar/frappe-bench/apps/frappe/frappe/utils/scheduler.py:
Site: ekart_site
Queued events for site ekart_site
[DEBUG] 2018-12-20 06:05:38,338 | /home/babitagujar/frappe-bench/apps/frappe/frappe/utils/scheduler.py:
Site: erpnext_site
Queued events for site erpnext_site
[DEBUG] 2018-12-20 06:05:38,352 | /home/babitagujar/frappe-bench/apps/frappe/frappe/utils/scheduler.py:
Site: library
Queued events for site library
[DEBUG] 2018-12-20 06:06:38,436 | /home/babitagujar/frappe-bench/apps/frappe/frappe/utils/scheduler.py:
Site: ekart_site
Queued events for site ekart_site
[DEBUG] 2018-12-20 06:06:38,469 | /home/babitagujar/frappe-bench/apps/frappe/frappe/utils/scheduler.py:
Site: erpnext_site
Queued events for site erpnext_site
[DEBUG] 2018-12-20 06:06:38,529 | /home/babitagujar/frappe-bench/apps/frappe/frappe/utils/scheduler.py:
Site: library
Queued events for site library
[DEBUG] 2018-12-20 06:07:38,617 | /home/babitagujar/frappe-bench/apps/frappe/frappe/utils/scheduler.py:
Site: ekart_site
Queued events for site ekart_site
[DEBUG] 2018-12-20 06:07:38,633 | /home/babitagujar/frappe-bench/apps/frappe/frappe/utils/scheduler.py:
Site: erpnext_site
Queued events for site erpnext_site
[DEBUG] 2018-12-20 06:07:38,649 | /home/babitagujar/frappe-bench/apps/frappe/frappe/utils/scheduler.py:
Site: library
Queued events for site library
[DEBUG] 2018-12-20 06:08:38,737 | /home/babitagujar/frappe-bench/apps/frappe/frappe/utils/scheduler.py:
Site: ekart_site
Queued events for site ekart_site
[DEBUG] 2018-12-20 06:08:38,751 | /home/babitagujar/frappe-bench/apps/frappe/frappe/utils/scheduler.py:
Site: erpnext_site
Queued events for site erpnext_site
[DEBUG] 2018-12-20 06:08:38,766 | /home/babitagujar/frappe-bench/apps/frappe/frappe/utils/scheduler.py:
Site: library
Queued events for site library
[DEBUG] 2018-12-20 06:09:38,855 | /home/babitagujar/frappe-bench/apps/frappe/frappe/utils/scheduler.py:
Site: ekart_site
Queued events for site ekart_site
[DEBUG] 2018-12-20 06:09:38,869 | /home/babitagujar/frappe-bench/apps/frappe/frappe/utils/scheduler.py:
Site: erpnext_site
Queued events for site erpnext_site
[DEBUG] 2018-12-20 06:09:38,884 | /home/babitagujar/frappe-bench/apps/frappe/frappe/utils/scheduler.py:
Site: library
Queued events for site library
[DEBUG] 2018-12-20 06:10:38,992 | /home/babitagujar/frappe-bench/apps/frappe/frappe/utils/scheduler.py:
Site: ekart_site
Queued events for site ekart_site
[DEBUG] 2018-12-20 06:10:39,020 | /home/babitagujar/frappe-bench/apps/frappe/frappe/utils/scheduler.py:
Site: erpnext_site
Queued events for site erpnext_site
[DEBUG] 2018-12-20 06:10:39,060 | /home/babitagujar/frappe-bench/apps/frappe/frappe/utils/scheduler.py:
Site: library
Queued events for site library
[DEBUG] 2018-12-20 06:11:39,148 | /home/babitagujar/frappe-bench/apps/frappe/frappe/utils/scheduler.py:
Site: ekart_site
Queued events for site ekart_site
[DEBUG] 2018-12-20 06:11:39,162 | /home/babitagujar/frappe-bench/apps/frappe/frappe/utils/scheduler.py:
Site: erpnext_site
Queued events for site erpnext_site
[DEBUG] 2018-12-20 06:11:39,176 | /home/babitagujar/frappe-bench/apps/frappe/frappe/utils/scheduler.py:
Site: library
Queued events for site library
[DEBUG] 2018-12-20 06:12:39,258 | /home/babitagujar/frappe-bench/apps/frappe/frappe/utils/scheduler.py:
Site: ekart_site
Queued events for site ekart_site
[DEBUG] 2018-12-20 06:12:39,271 | /home/babitagujar/frappe-bench/apps/frappe/frappe/utils/scheduler.py:
Site: erpnext_site
Queued events for site erpnext_site
[DEBUG] 2018-12-20 06:12:39,284 | /home/babitagujar/frappe-bench/apps/frappe/frappe/utils/scheduler.py:
Site: library
Queued events for site library
[DEBUG] 2018-12-20 06:13:39,366 | /home/babitagujar/frappe-bench/apps/frappe/frappe/utils/scheduler.py:
Site: ekart_site
Queued events for site ekart_site
[DEBUG] 2018-12-20 06:13:39,379 | /home/babitagujar/frappe-bench/apps/frappe/frappe/utils/scheduler.py:
Site: erpnext_site
Queued events for site erpnext_site
[DEBUG] 2018-12-20 06:13:39,392 | /home/babitagujar/frappe-bench/apps/frappe/frappe/utils/scheduler.py:
Site: library
Queued events for site library
[DEBUG] 2018-12-20 06:14:39,495 | /home/babitagujar/frappe-bench/apps/frappe/frappe/utils/scheduler.py:
Site: ekart_site
Queued events for site ekart_site
[DEBUG] 2018-12-20 06:14:39,528 | /home/babitagujar/frappe-bench/apps/frappe/frappe/utils/scheduler.py:
Site: erpnext_site
Queued events for site erpnext_site
[DEBUG] 2018-12-20 06:14:39,581 | /home/babitagujar/frappe-bench/apps/frappe/frappe/utils/scheduler.py:
Site: library
Queued events for site library
[DEBUG] 2018-12-20 06:15:39,664 | /home/babitagujar/frappe-bench/apps/frappe/frappe/utils/scheduler.py:
Site: ekart_site
Queued events for site ekart_site
[DEBUG] 2018-12-20 06:15:39,678 | /home/babitagujar/frappe-bench/apps/frappe/frappe/utils/scheduler.py:
Site: erpnext_site
Queued events for site erpnext_site
[DEBUG] 2018-12-20 06:15:39,690 | /home/babitagujar/frappe-bench/apps/frappe/frappe/utils/scheduler.py:
Site: library
Queued events for site library
[DEBUG] 2018-12-20 06:16:39,777 | /home/babitagujar/frappe-bench/apps/frappe/frappe/utils/scheduler.py:
Site: ekart_site
Queued events for site ekart_site
[DEBUG] 2018-12-20 06:16:39,790 | /home/babitagujar/frappe-bench/apps/frappe/frappe/utils/scheduler.py:
Site: erpnext_site
Queued events for site erpnext_site
[DEBUG] 2018-12-20 06:16:39,803 | /home/babitagujar/frappe-bench/apps/frappe/frappe/utils/scheduler.py:
Site: library
Queued events for site library
[DEBUG] 2018-12-20 06:17:39,889 | /home/babitagujar/frappe-bench/apps/frappe/frappe/utils/scheduler.py:
Site: ekart_site
Queued events for site ekart_site
[DEBUG] 2018-12-20 06:17:39,904 | /home/babitagujar/frappe-bench/apps/frappe/frappe/utils/scheduler.py:
Site: erpnext_site
Queued events for site erpnext_site
[DEBUG] 2018-12-20 06:17:39,918 | /home/babitagujar/frappe-bench/apps/frappe/frappe/utils/scheduler.py:
Site: library
Queued events for site library
[DEBUG] 2018-12-20 06:18:40,024 | /home/babitagujar/frappe-bench/apps/frappe/frappe/utils/scheduler.py:
Site: ekart_site
Queued events for site ekart_site
[DEBUG] 2018-12-20 06:18:40,057 | /home/babitagujar/frappe-bench/apps/frappe/frappe/utils/scheduler.py:
Site: erpnext_site
Queued events for site erpnext_site
[DEBUG] 2018-12-20 06:18:40,110 | /home/babitagujar/frappe-bench/apps/frappe/frappe/utils/scheduler.py:
Site: library
Queued events for site library
[DEBUG] 2018-12-20 06:19:40,190 | /home/babitagujar/frappe-bench/apps/frappe/frappe/utils/scheduler.py:
Site: ekart_site
Queued events for site ekart_site
[DEBUG] 2018-12-20 06:19:40,211 | /home/babitagujar/frappe-bench/apps/frappe/frappe/utils/scheduler.py:
Site: erpnext_site
Queued events for site erpnext_site
[DEBUG] 2018-12-20 06:19:40,233 | /home/babitagujar/frappe-bench/apps/frappe/frappe/utils/scheduler.py:
Site: library
Queued events for site library
[DEBUG] 2018-12-20 06:20:40,320 | /home/babitagujar/frappe-bench/apps/frappe/frappe/utils/scheduler.py:
Site: ekart_site
Queued events for site ekart_site
[DEBUG] 2018-12-20 06:20:40,333 | /home/babitagujar/frappe-bench/apps/frappe/frappe/utils/scheduler.py:
Site: erpnext_site
Queued events for site erpnext_site
[DEBUG] 2018-12-20 06:20:40,347 | /home/babitagujar/frappe-bench/apps/frappe/frappe/utils/scheduler.py:
Site: library
Queued events for site library
[DEBUG] 2018-12-20 06:21:40,431 | /home/babitagujar/frappe-bench/apps/frappe/frappe/utils/scheduler.py:
Site: ekart_site
Queued events for site ekart_site
[DEBUG] 2018-12-20 06:21:40,443 | /home/babitagujar/frappe-bench/apps/frappe/frappe/utils/scheduler.py:
Site: erpnext_site
Queued events for site erpnext_site
[DEBUG] 2018-12-20 06:21:40,455 | /home/babitagujar/frappe-bench/apps/frappe/frappe/utils/scheduler.py:
Site: library
Queued events for site library
[DEBUG] 2018-12-20 06:22:40,565 | /home/babitagujar/frappe-bench/apps/frappe/frappe/utils/scheduler.py:
Site: ekart_site
Queued events for site ekart_site
[DEBUG] 2018-12-20 06:22:40,606 | /home/babitagujar/frappe-bench/apps/frappe/frappe/utils/scheduler.py:
Site: erpnext_site
Queued events for site erpnext_site
[DEBUG] 2018-12-20 06:22:40,654 | /home/babitagujar/frappe-bench/apps/frappe/frappe/utils/scheduler.py:
Site: library
Queued events for site library
[DEBUG] 2018-12-20 06:23:40,735 | /home/babitagujar/frappe-bench/apps/frappe/frappe/utils/scheduler.py:
Site: ekart_site
Queued events for site ekart_site
[DEBUG] 2018-12-20 06:23:40,748 | /home/babitagujar/frappe-bench/apps/frappe/frappe/utils/scheduler.py:
Site: erpnext_site
Queued events for site erpnext_site
[DEBUG] 2018-12-20 06:23:40,760 | /home/babitagujar/frappe-bench/apps/frappe/frappe/utils/scheduler.py:
Site: library
Queued events for site library
[DEBUG] 2018-12-20 06:24:40,846 | /home/babitagujar/frappe-bench/apps/frappe/frappe/utils/scheduler.py:
Site: ekart_site
Queued events for site ekart_site
[DEBUG] 2018-12-20 06:24:40,860 | /home/babitagujar/frappe-bench/apps/frappe/frappe/utils/scheduler.py:
Site: erpnext_site
Queued events for site erpnext_site
[DEBUG] 2018-12-20 06:24:40,873 | /home/babitagujar/frappe-bench/apps/frappe/frappe/utils/scheduler.py:
Site: library
Queued events for site library
[DEBUG] 2018-12-20 06:25:40,957 | /home/babitagujar/frappe-bench/apps/frappe/frappe/utils/scheduler.py:
Site: ekart_site
Queued events for site ekart_site
[DEBUG] 2018-12-20 06:25:40,970 | /home/babitagujar/frappe-bench/apps/frappe/frappe/utils/scheduler.py:
Site: erpnext_site
Queued events for site erpnext_site
[DEBUG] 2018-12-20 06:25:40,988 | /home/babitagujar/frappe-bench/apps/frappe/frappe/utils/scheduler.py:
Site: library
Queued events for site library
[DEBUG] 2018-12-20 06:26:41,093 | /home/babitagujar/frappe-bench/apps/frappe/frappe/utils/scheduler.py:
Site: ekart_site
Queued events for site ekart_site
[DEBUG] 2018-12-20 06:26:41,129 | /home/babitagujar/frappe-bench/apps/frappe/frappe/utils/scheduler.py:
Site: erpnext_site
Queued events for site erpnext_site
[DEBUG] 2018-12-20 06:26:41,180 | /home/babitagujar/frappe-bench/apps/frappe/frappe/utils/scheduler.py:
Site: library
Queued events for site library
[DEBUG] 2018-12-20 06:27:41,266 | /home/babitagujar/frappe-bench/apps/frappe/frappe/utils/scheduler.py:
Site: ekart_site
Queued events for site ekart_site
[DEBUG] 2018-12-20 06:27:41,279 | /home/babitagujar/frappe-bench/apps/frappe/frappe/utils/scheduler.py:
Site: erpnext_site
Queued events for site erpnext_site
[DEBUG] 2018-12-20 06:27:41,291 | /home/babitagujar/frappe-bench/apps/frappe/frappe/utils/scheduler.py:
Site: library
Queued events for site library
[DEBUG] 2018-12-20 06:28:41,380 | /home/babitagujar/frappe-bench/apps/frappe/frappe/utils/scheduler.py:
Site: ekart_site
Queued events for site ekart_site
[DEBUG] 2018-12-20 06:28:41,395 | /home/babitagujar/frappe-bench/apps/frappe/frappe/utils/scheduler.py:
Site: erpnext_site
Queued events for site erpnext_site
[DEBUG] 2018-12-20 06:28:41,409 | /home/babitagujar/frappe-bench/apps/frappe/frappe/utils/scheduler.py:
Site: library
Queued events for site library
[DEBUG] 2018-12-20 06:29:41,500 | /home/babitagujar/frappe-bench/apps/frappe/frappe/utils/scheduler.py:
Site: ekart_site
Queued events for site ekart_site
[DEBUG] 2018-12-20 06:29:41,514 | /home/babitagujar/frappe-bench/apps/frappe/frappe/utils/scheduler.py:
Site: erpnext_site
Queued events for site erpnext_site
[DEBUG] 2018-12-20 06:29:41,528 | /home/babitagujar/frappe-bench/apps/frappe/frappe/utils/scheduler.py:
Site: library
Queued events for site library
[DEBUG] 2018-12-20 06:30:41,647 | /home/babitagujar/frappe-bench/apps/frappe/frappe/utils/scheduler.py:
Site: ekart_site
Queued events for site ekart_site
[DEBUG] 2018-12-20 06:30:41,718 | /home/babitagujar/frappe-bench/apps/frappe/frappe/utils/scheduler.py:
Site: erpnext_site
Queued events for site erpnext_site
[DEBUG] 2018-12-20 06:30:41,815 | /home/babitagujar/frappe-bench/apps/frappe/frappe/utils/scheduler.py:
Site: library
Queued events for site library
[DEBUG] 2018-12-20 06:31:41,862 | /home/babitagujar/frappe-bench/apps/frappe/frappe/utils/scheduler.py:
Site: ekart_site
Queued events for site ekart_site
[DEBUG] 2018-12-20 06:31:41,874 | /home/babitagujar/frappe-bench/apps/frappe/frappe/utils/scheduler.py:
Site: erpnext_site
Queued events for site erpnext_site
[DEBUG] 2018-12-20 06:31:41,886 | /home/babitagujar/frappe-bench/apps/frappe/frappe/utils/scheduler.py:
Site: library
Queued events for site library
[DEBUG] 2018-12-20 06:32:41,971 | /home/babitagujar/frappe-bench/apps/frappe/frappe/utils/scheduler.py:
Site: ekart_site
Queued events for site ekart_site
[DEBUG] 2018-12-20 06:32:41,983 | /home/babitagujar/frappe-bench/apps/frappe/frappe/utils/scheduler.py:
Site: erpnext_site
Queued events for site erpnext_site
[DEBUG] 2018-12-20 06:32:41,996 | /home/babitagujar/frappe-bench/apps/frappe/frappe/utils/scheduler.py:
Site: library
Queued events for site library
[DEBUG] 2018-12-20 06:33:42,082 | /home/babitagujar/frappe-bench/apps/frappe/frappe/utils/scheduler.py:
Site: ekart_site
Queued events for site ekart_site
[DEBUG] 2018-12-20 06:33:42,097 | /home/babitagujar/frappe-bench/apps/frappe/frappe/utils/scheduler.py:
Site: erpnext_site
Queued events for site erpnext_site
[DEBUG] 2018-12-20 06:33:42,115 | /home/babitagujar/frappe-bench/apps/frappe/frappe/utils/scheduler.py:
Site: library
Queued events for site library
[DEBUG] 2018-12-20 06:34:42,223 | /home/babitagujar/frappe-bench/apps/frappe/frappe/utils/scheduler.py:
Site: ekart_site
Queued events for site ekart_site
[DEBUG] 2018-12-20 06:34:42,248 | /home/babitagujar/frappe-bench/apps/frappe/frappe/utils/scheduler.py:
Site: erpnext_site
Queued events for site erpnext_site
[DEBUG] 2018-12-20 06:34:42,289 | /home/babitagujar/frappe-bench/apps/frappe/frappe/utils/scheduler.py:
Site: library
Queued events for site library
[DEBUG] 2018-12-20 06:35:42,376 | /home/babitagujar/frappe-bench/apps/frappe/frappe/utils/scheduler.py:
Site: ekart_site
Queued events for site ekart_site
[DEBUG] 2018-12-20 06:35:42,390 | /home/babitagujar/frappe-bench/apps/frappe/frappe/utils/scheduler.py:
Site: erpnext_site
Queued events for site erpnext_site
[DEBUG] 2018-12-20 06:35:42,403 | /home/babitagujar/frappe-bench/apps/frappe/frappe/utils/scheduler.py:
Site: library
Queued events for site library
[DEBUG] 2018-12-20 06:36:42,481 | /home/babitagujar/frappe-bench/apps/frappe/frappe/utils/scheduler.py:
Site: ekart_site
Queued events for site ekart_site
[DEBUG] 2018-12-20 06:36:42,494 | /home/babitagujar/frappe-bench/apps/frappe/frappe/utils/scheduler.py:
Site: erpnext_site
Queued events for site erpnext_site
[DEBUG] 2018-12-20 06:36:42,506 | /home/babitagujar/frappe-bench/apps/frappe/frappe/utils/scheduler.py:
Site: library
Queued events for site library
[DEBUG] 2018-12-20 06:37:42,590 | /home/babitagujar/frappe-bench/apps/frappe/frappe/utils/scheduler.py:
Site: ekart_site
Queued events for site ekart_site
[DEBUG] 2018-12-20 06:37:42,603 | /home/babitagujar/frappe-bench/apps/frappe/frappe/utils/scheduler.py:
Site: erpnext_site
Queued events for site erpnext_site
[DEBUG] 2018-12-20 06:37:42,615 | /home/babitagujar/frappe-bench/apps/frappe/frappe/utils/scheduler.py:
Site: library
Queued events for site library
[DEBUG] 2018-12-20 06:38:42,723 | /home/babitagujar/frappe-bench/apps/frappe/frappe/utils/scheduler.py:
Site: ekart_site
Queued events for site ekart_site
[DEBUG] 2018-12-20 06:38:42,757 | /home/babitagujar/frappe-bench/apps/frappe/frappe/utils/scheduler.py:
Site: erpnext_site
Queued events for site erpnext_site
[DEBUG] 2018-12-20 06:38:42,808 | /home/babitagujar/frappe-bench/apps/frappe/frappe/utils/scheduler.py:
Site: library
Queued events for site library
[DEBUG] 2018-12-20 06:39:42,897 | /home/babitagujar/frappe-bench/apps/frappe/frappe/utils/scheduler.py:
Site: ekart_site
Queued events for site ekart_site
[DEBUG] 2018-12-20 06:39:42,913 | /home/babitagujar/frappe-bench/apps/frappe/frappe/utils/scheduler.py:
Site: erpnext_site
Queued events for site erpnext_site
[DEBUG] 2018-12-20 06:39:42,929 | /home/babitagujar/frappe-bench/apps/frappe/frappe/utils/scheduler.py:
Site: library
Queued events for site library
[DEBUG] 2018-12-20 06:40:43,012 | /home/babitagujar/frappe-bench/apps/frappe/frappe/utils/scheduler.py:
Site: ekart_site
Queued events for site ekart_site
[DEBUG] 2018-12-20 06:40:43,025 | /home/babitagujar/frappe-bench/apps/frappe/frappe/utils/scheduler.py:
Site: erpnext_site
Queued events for site erpnext_site
[DEBUG] 2018-12-20 06:40:43,039 | /home/babitagujar/frappe-bench/apps/frappe/frappe/utils/scheduler.py:
Site: library
Queued events for site library
[DEBUG] 2018-12-20 06:41:43,129 | /home/babitagujar/frappe-bench/apps/frappe/frappe/utils/scheduler.py:
Site: ekart_site
Queued events for site ekart_site
[DEBUG] 2018-12-20 06:41:43,145 | /home/babitagujar/frappe-bench/apps/frappe/frappe/utils/scheduler.py:
Site: erpnext_site
Queued events for site erpnext_site
[DEBUG] 2018-12-20 06:41:43,161 | /home/babitagujar/frappe-bench/apps/frappe/frappe/utils/scheduler.py:
Site: library
Queued events for site library
[DEBUG] 2018-12-20 06:42:43,281 | /home/babitagujar/frappe-bench/apps/frappe/frappe/utils/scheduler.py:
Site: ekart_site
Queued events for site ekart_site
[DEBUG] 2018-12-20 06:42:43,313 | /home/babitagujar/frappe-bench/apps/frappe/frappe/utils/scheduler.py:
Site: erpnext_site
Queued events for site erpnext_site
[DEBUG] 2018-12-20 06:42:43,360 | /home/babitagujar/frappe-bench/apps/frappe/frappe/utils/scheduler.py:
Site: library
Queued events for site library
[DEBUG] 2018-12-20 06:43:43,444 | /home/babitagujar/frappe-bench/apps/frappe/frappe/utils/scheduler.py:
Site: ekart_site
Queued events for site ekart_site
[DEBUG] 2018-12-20 06:43:43,456 | /home/babitagujar/frappe-bench/apps/frappe/frappe/utils/scheduler.py:
Site: erpnext_site
Queued events for site erpnext_site
[DEBUG] 2018-12-20 06:43:43,469 | /home/babitagujar/frappe-bench/apps/frappe/frappe/utils/scheduler.py:
Site: library
Queued events for site library
[DEBUG] 2018-12-20 06:44:43,557 | /home/babitagujar/frappe-bench/apps/frappe/frappe/utils/scheduler.py:
Site: ekart_site
Queued events for site ekart_site
[DEBUG] 2018-12-20 06:44:43,571 | /home/babitagujar/frappe-bench/apps/frappe/frappe/utils/scheduler.py:
Site: erpnext_site
Queued events for site erpnext_site
[DEBUG] 2018-12-20 06:44:43,585 | /home/babitagujar/frappe-bench/apps/frappe/frappe/utils/scheduler.py:
Site: library
Queued events for site library
[DEBUG] 2018-12-20 06:45:43,676 | /home/babitagujar/frappe-bench/apps/frappe/frappe/utils/scheduler.py:
Site: ekart_site
Queued events for site ekart_site
[DEBUG] 2018-12-20 06:45:43,696 | /home/babitagujar/frappe-bench/apps/frappe/frappe/utils/scheduler.py:
Site: erpnext_site
Queued events for site erpnext_site
[DEBUG] 2018-12-20 06:45:43,717 | /home/babitagujar/frappe-bench/apps/frappe/frappe/utils/scheduler.py:
Site: library
Queued events for site library
[DEBUG] 2018-12-20 06:46:43,818 | /home/babitagujar/frappe-bench/apps/frappe/frappe/utils/scheduler.py:
Site: ekart_site
Queued events for site ekart_site
[DEBUG] 2018-12-20 06:46:43,853 | /home/babitagujar/frappe-bench/apps/frappe/frappe/utils/scheduler.py:
Site: erpnext_site
Queued events for site erpnext_site
[DEBUG] 2018-12-20 06:46:43,908 | /home/babitagujar/frappe-bench/apps/frappe/frappe/utils/scheduler.py:
Site: library
Queued events for site library
[DEBUG] 2018-12-20 06:47:43,989 | /home/babitagujar/frappe-bench/apps/frappe/frappe/utils/scheduler.py:
Site: ekart_site
Queued events for site ekart_site
[DEBUG] 2018-12-20 06:47:44,002 | /home/babitagujar/frappe-bench/apps/frappe/frappe/utils/scheduler.py:
Site: erpnext_site
Queued events for site erpnext_site
[DEBUG] 2018-12-20 06:47:44,014 | /home/babitagujar/frappe-bench/apps/frappe/frappe/utils/scheduler.py:
Site: library
Queued events for site library
[DEBUG] 2018-12-20 06:48:44,103 | /home/babitagujar/frappe-bench/apps/frappe/frappe/utils/scheduler.py:
Site: ekart_site
Queued events for site ekart_site
[DEBUG] 2018-12-20 06:48:44,119 | /home/babitagujar/frappe-bench/apps/frappe/frappe/utils/scheduler.py:
Site: erpnext_site
Queued events for site erpnext_site
[DEBUG] 2018-12-20 06:48:44,133 | /home/babitagujar/frappe-bench/apps/frappe/frappe/utils/scheduler.py:
Site: library
Queued events for site library
[DEBUG] 2018-12-20 06:49:44,221 | /home/babitagujar/frappe-bench/apps/frappe/frappe/utils/scheduler.py:
Site: ekart_site
Queued events for site ekart_site
[DEBUG] 2018-12-20 06:49:44,236 | /home/babitagujar/frappe-bench/apps/frappe/frappe/utils/scheduler.py:
Site: erpnext_site
Queued events for site erpnext_site
[DEBUG] 2018-12-20 06:49:44,249 | /home/babitagujar/frappe-bench/apps/frappe/frappe/utils/scheduler.py:
Site: library
Queued events for site library
[DEBUG] 2018-12-20 06:50:44,357 | /home/babitagujar/frappe-bench/apps/frappe/frappe/utils/scheduler.py:
Site: ekart_site
Queued events for site ekart_site
[DEBUG] 2018-12-20 06:50:44,392 | /home/babitagujar/frappe-bench/apps/frappe/frappe/utils/scheduler.py:
Site: erpnext_site
Queued events for site erpnext_site
[DEBUG] 2018-12-20 06:50:44,447 | /home/babitagujar/frappe-bench/apps/frappe/frappe/utils/scheduler.py:
Site: library
Queued events for site library
[DEBUG] 2018-12-20 06:51:44,534 | /home/babitagujar/frappe-bench/apps/frappe/frappe/utils/scheduler.py:
Site: ekart_site
Queued events for site ekart_site
[DEBUG] 2018-12-20 06:51:44,547 | /home/babitagujar/frappe-bench/apps/frappe/frappe/utils/scheduler.py:
Site: erpnext_site
Queued events for site erpnext_site
[DEBUG] 2018-12-20 06:51:44,558 | /home/babitagujar/frappe-bench/apps/frappe/frappe/utils/scheduler.py:
Site: library
Queued events for site library
[DEBUG] 2018-12-20 06:52:44,647 | /home/babitagujar/frappe-bench/apps/frappe/frappe/utils/scheduler.py:
Site: ekart_site
Queued events for site ekart_site
[DEBUG] 2018-12-20 06:52:44,662 | /home/babitagujar/frappe-bench/apps/frappe/frappe/utils/scheduler.py:
Site: erpnext_site
Queued events for site erpnext_site
[DEBUG] 2018-12-20 06:52:44,677 | /home/babitagujar/frappe-bench/apps/frappe/frappe/utils/scheduler.py:
Site: library
Queued events for site library
[DEBUG] 2018-12-20 06:53:44,737 | /home/babitagujar/frappe-bench/apps/frappe/frappe/utils/scheduler.py:
Site: ekart_site
Queued events for site ekart_site
[DEBUG] 2018-12-20 06:53:44,749 | /home/babitagujar/frappe-bench/apps/frappe/frappe/utils/scheduler.py:
Site: erpnext_site
Queued events for site erpnext_site
[DEBUG] 2018-12-20 06:53:44,761 | /home/babitagujar/frappe-bench/apps/frappe/frappe/utils/scheduler.py:
Site: library
Queued events for site library
[DEBUG] 2018-12-20 06:54:44,865 | /home/babitagujar/frappe-bench/apps/frappe/frappe/utils/scheduler.py:
Site: ekart_site
Queued events for site ekart_site
[DEBUG] 2018-12-20 06:54:44,897 | /home/babitagujar/frappe-bench/apps/frappe/frappe/utils/scheduler.py:
Site: erpnext_site
Queued events for site erpnext_site
[DEBUG] 2018-12-20 06:54:44,953 | /home/babitagujar/frappe-bench/apps/frappe/frappe/utils/scheduler.py:
Site: library
Queued events for site library
[DEBUG] 2018-12-20 06:55:45,042 | /home/babitagujar/frappe-bench/apps/frappe/frappe/utils/scheduler.py:
Site: ekart_site
Queued events for site ekart_site
[DEBUG] 2018-12-20 06:55:45,057 | /home/babitagujar/frappe-bench/apps/frappe/frappe/utils/scheduler.py:
Site: erpnext_site
Queued events for site erpnext_site
[DEBUG] 2018-12-20 06:55:45,071 | /home/babitagujar/frappe-bench/apps/frappe/frappe/utils/scheduler.py:
Site: library
Queued events for site library
[DEBUG] 2018-12-20 06:56:45,167 | /home/babitagujar/frappe-bench/apps/frappe/frappe/utils/scheduler.py:
Site: ekart_site
Queued events for site ekart_site
[DEBUG] 2018-12-20 06:56:45,188 | /home/babitagujar/frappe-bench/apps/frappe/frappe/utils/scheduler.py:
Site: erpnext_site
Queued events for site erpnext_site
[DEBUG] 2018-12-20 06:56:45,209 | /home/babitagujar/frappe-bench/apps/frappe/frappe/utils/scheduler.py:
Site: library
Queued events for site library
[DEBUG] 2018-12-20 06:57:45,294 | /home/babitagujar/frappe-bench/apps/frappe/frappe/utils/scheduler.py:
Site: ekart_site
Queued events for site ekart_site
[DEBUG] 2018-12-20 06:57:45,307 | /home/babitagujar/frappe-bench/apps/frappe/frappe/utils/scheduler.py:
Site: erpnext_site
Queued events for site erpnext_site
[DEBUG] 2018-12-20 06:57:45,319 | /home/babitagujar/frappe-bench/apps/frappe/frappe/utils/scheduler.py:
Site: library
Queued events for site library
[DEBUG] 2018-12-20 06:58:45,425 | /home/babitagujar/frappe-bench/apps/frappe/frappe/utils/scheduler.py:
Site: ekart_site
Queued events for site ekart_site
[DEBUG] 2018-12-20 06:58:45,466 | /home/babitagujar/frappe-bench/apps/frappe/frappe/utils/scheduler.py:
Site: erpnext_site
Queued events for site erpnext_site
[DEBUG] 2018-12-20 06:58:45,508 | /home/babitagujar/frappe-bench/apps/frappe/frappe/utils/scheduler.py:
Site: library
Queued events for site library
[DEBUG] 2018-12-20 06:59:45,594 | /home/babitagujar/frappe-bench/apps/frappe/frappe/utils/scheduler.py:
Site: ekart_site
Queued events for site ekart_site
[DEBUG] 2018-12-20 06:59:45,607 | /home/babitagujar/frappe-bench/apps/frappe/frappe/utils/scheduler.py:
Site: erpnext_site
Queued events for site erpnext_site
[DEBUG] 2018-12-20 06:59:45,619 | /home/babitagujar/frappe-bench/apps/frappe/frappe/utils/scheduler.py:
Site: library
Queued events for site library
[DEBUG] 2018-12-20 07:00:45,708 | /home/babitagujar/frappe-bench/apps/frappe/frappe/utils/scheduler.py:
Site: ekart_site
Queued events for site ekart_site
[DEBUG] 2018-12-20 07:00:45,724 | /home/babitagujar/frappe-bench/apps/frappe/frappe/utils/scheduler.py:
Site: erpnext_site
Queued events for site erpnext_site
[DEBUG] 2018-12-20 07:00:45,737 | /home/babitagujar/frappe-bench/apps/frappe/frappe/utils/scheduler.py:
Site: library
Queued events for site library
[DEBUG] 2018-12-20 07:01:45,826 | /home/babitagujar/frappe-bench/apps/frappe/frappe/utils/scheduler.py:
Site: ekart_site
Queued events for site ekart_site
[DEBUG] 2018-12-20 07:01:45,839 | /home/babitagujar/frappe-bench/apps/frappe/frappe/utils/scheduler.py:
Site: erpnext_site
Queued events for site erpnext_site
[DEBUG] 2018-12-20 07:01:45,852 | /home/babitagujar/frappe-bench/apps/frappe/frappe/utils/scheduler.py:
Site: library
Queued events for site library
[DEBUG] 2018-12-20 07:02:45,949 | /home/babitagujar/frappe-bench/apps/frappe/frappe/utils/scheduler.py:
Site: ekart_site
Queued events for site ekart_site
[DEBUG] 2018-12-20 07:02:45,974 | /home/babitagujar/frappe-bench/apps/frappe/frappe/utils/scheduler.py:
Site: erpnext_site
Queued events for site erpnext_site
[DEBUG] 2018-12-20 07:02:46,016 | /home/babitagujar/frappe-bench/apps/frappe/frappe/utils/scheduler.py:
Site: library
Queued events for site library
[DEBUG] 2018-12-20 07:03:46,100 | /home/babitagujar/frappe-bench/apps/frappe/frappe/utils/scheduler.py:
Site: ekart_site
Queued events for site ekart_site
[DEBUG] 2018-12-20 07:03:46,113 | /home/babitagujar/frappe-bench/apps/frappe/frappe/utils/scheduler.py:
Site: erpnext_site
Queued events for site erpnext_site
[DEBUG] 2018-12-20 07:03:46,125 | /home/babitagujar/frappe-bench/apps/frappe/frappe/utils/scheduler.py:
Site: library
Queued events for site library
[DEBUG] 2018-12-20 07:04:46,209 | /home/babitagujar/frappe-bench/apps/frappe/frappe/utils/scheduler.py:
Site: ekart_site
Queued events for site ekart_site
[DEBUG] 2018-12-20 07:04:46,221 | /home/babitagujar/frappe-bench/apps/frappe/frappe/utils/scheduler.py:
Site: erpnext_site
Queued events for site erpnext_site
[DEBUG] 2018-12-20 07:04:46,234 | /home/babitagujar/frappe-bench/apps/frappe/frappe/utils/scheduler.py:
Site: library
Queued events for site library
[DEBUG] 2018-12-20 07:05:46,320 | /home/babitagujar/frappe-bench/apps/frappe/frappe/utils/scheduler.py:
Site: ekart_site
Queued events for site ekart_site
[DEBUG] 2018-12-20 07:05:46,334 | /home/babitagujar/frappe-bench/apps/frappe/frappe/utils/scheduler.py:
Site: erpnext_site
Queued events for site erpnext_site
[DEBUG] 2018-12-20 07:05:46,348 | /home/babitagujar/frappe-bench/apps/frappe/frappe/utils/scheduler.py:
Site: library
Queued events for site library
[DEBUG] 2018-12-20 07:06:46,451 | /home/babitagujar/frappe-bench/apps/frappe/frappe/utils/scheduler.py:
Site: ekart_site
Queued events for site ekart_site
[DEBUG] 2018-12-20 07:06:46,485 | /home/babitagujar/frappe-bench/apps/frappe/frappe/utils/scheduler.py:
Site: erpnext_site
Queued events for site erpnext_site
[DEBUG] 2018-12-20 07:06:46,536 | /home/babitagujar/frappe-bench/apps/frappe/frappe/utils/scheduler.py:
Site: library
Queued events for site library
[DEBUG] 2018-12-20 07:07:46,622 | /home/babitagujar/frappe-bench/apps/frappe/frappe/utils/scheduler.py:
Site: ekart_site
Queued events for site ekart_site
[DEBUG] 2018-12-20 07:07:46,635 | /home/babitagujar/frappe-bench/apps/frappe/frappe/utils/scheduler.py:
Site: erpnext_site
Queued events for site erpnext_site
[DEBUG] 2018-12-20 07:07:46,648 | /home/babitagujar/frappe-bench/apps/frappe/frappe/utils/scheduler.py:
Site: library
Queued events for site library
[DEBUG] 2018-12-20 07:08:46,733 | /home/babitagujar/frappe-bench/apps/frappe/frappe/utils/scheduler.py:
Site: ekart_site
Queued events for site ekart_site
[DEBUG] 2018-12-20 07:08:46,746 | /home/babitagujar/frappe-bench/apps/frappe/frappe/utils/scheduler.py:
Site: erpnext_site
Queued events for site erpnext_site
[DEBUG] 2018-12-20 07:08:46,762 | /home/babitagujar/frappe-bench/apps/frappe/frappe/utils/scheduler.py:
Site: library
Queued events for site library
[DEBUG] 2018-12-20 07:09:46,847 | /home/babitagujar/frappe-bench/apps/frappe/frappe/utils/scheduler.py:
Site: ekart_site
Queued events for site ekart_site
[DEBUG] 2018-12-20 07:09:46,859 | /home/babitagujar/frappe-bench/apps/frappe/frappe/utils/scheduler.py:
Site: erpnext_site
Queued events for site erpnext_site
[DEBUG] 2018-12-20 07:09:46,872 | /home/babitagujar/frappe-bench/apps/frappe/frappe/utils/scheduler.py:
Site: library
Queued events for site library
[DEBUG] 2018-12-20 07:10:46,978 | /home/babitagujar/frappe-bench/apps/frappe/frappe/utils/scheduler.py:
Site: ekart_site
Queued events for site ekart_site
[DEBUG] 2018-12-20 07:10:47,016 | /home/babitagujar/frappe-bench/apps/frappe/frappe/utils/scheduler.py:
Site: erpnext_site
Queued events for site erpnext_site
[DEBUG] 2018-12-20 07:10:47,067 | /home/babitagujar/frappe-bench/apps/frappe/frappe/utils/scheduler.py:
Site: library
Queued events for site library
[DEBUG] 2018-12-20 07:11:47,155 | /home/babitagujar/frappe-bench/apps/frappe/frappe/utils/scheduler.py:
Site: ekart_site
Queued events for site ekart_site
[DEBUG] 2018-12-20 07:11:47,170 | /home/babitagujar/frappe-bench/apps/frappe/frappe/utils/scheduler.py:
Site: erpnext_site
Queued events for site erpnext_site
[DEBUG] 2018-12-20 07:11:47,185 | /home/babitagujar/frappe-bench/apps/frappe/frappe/utils/scheduler.py:
Site: library
Queued events for site library
[DEBUG] 2018-12-20 07:12:47,276 | /home/babitagujar/frappe-bench/apps/frappe/frappe/utils/scheduler.py:
Site: ekart_site
Queued events for site ekart_site
[DEBUG] 2018-12-20 07:12:47,298 | /home/babitagujar/frappe-bench/apps/frappe/frappe/utils/scheduler.py:
Site: erpnext_site
Queued events for site erpnext_site
[DEBUG] 2018-12-20 07:12:47,313 | /home/babitagujar/frappe-bench/apps/frappe/frappe/utils/scheduler.py:
Site: library
Queued events for site library
[DEBUG] 2018-12-20 07:13:47,403 | /home/babitagujar/frappe-bench/apps/frappe/frappe/utils/scheduler.py:
Site: ekart_site
Queued events for site ekart_site
[DEBUG] 2018-12-20 07:13:47,417 | /home/babitagujar/frappe-bench/apps/frappe/frappe/utils/scheduler.py:
Site: erpnext_site
Queued events for site erpnext_site
[DEBUG] 2018-12-20 07:13:47,431 | /home/babitagujar/frappe-bench/apps/frappe/frappe/utils/scheduler.py:
Site: library
Queued events for site library
[DEBUG] 2018-12-20 07:14:47,541 | /home/babitagujar/frappe-bench/apps/frappe/frappe/utils/scheduler.py:
Site: ekart_site
Queued events for site ekart_site
[DEBUG] 2018-12-20 07:14:47,575 | /home/babitagujar/frappe-bench/apps/frappe/frappe/utils/scheduler.py:
Site: erpnext_site
Queued events for site erpnext_site
[DEBUG] 2018-12-20 07:14:47,626 | /home/babitagujar/frappe-bench/apps/frappe/frappe/utils/scheduler.py:
Site: library
Queued events for site library
[DEBUG] 2018-12-20 07:15:47,714 | /home/babitagujar/frappe-bench/apps/frappe/frappe/utils/scheduler.py:
Site: ekart_site
Queued events for site ekart_site
[DEBUG] 2018-12-20 07:15:47,729 | /home/babitagujar/frappe-bench/apps/frappe/frappe/utils/scheduler.py:
Site: erpnext_site
Queued events for site erpnext_site
[DEBUG] 2018-12-20 07:15:47,744 | /home/babitagujar/frappe-bench/apps/frappe/frappe/utils/scheduler.py:
Site: library
Queued events for site library
[DEBUG] 2018-12-20 07:16:47,835 | /home/babitagujar/frappe-bench/apps/frappe/frappe/utils/scheduler.py:
Site: ekart_site
Queued events for site ekart_site
[DEBUG] 2018-12-20 07:16:47,853 | /home/babitagujar/frappe-bench/apps/frappe/frappe/utils/scheduler.py:
Site: erpnext_site
Queued events for site erpnext_site
[DEBUG] 2018-12-20 07:16:47,871 | /home/babitagujar/frappe-bench/apps/frappe/frappe/utils/scheduler.py:
Site: library
Queued events for site library
[DEBUG] 2018-12-20 07:17:47,969 | /home/babitagujar/frappe-bench/apps/frappe/frappe/utils/scheduler.py:
Site: ekart_site
Queued events for site ekart_site
[DEBUG] 2018-12-20 07:17:47,982 | /home/babitagujar/frappe-bench/apps/frappe/frappe/utils/scheduler.py:
Site: erpnext_site
Queued events for site erpnext_site
[DEBUG] 2018-12-20 07:17:47,995 | /home/babitagujar/frappe-bench/apps/frappe/frappe/utils/scheduler.py:
Site: library
Queued events for site library
[DEBUG] 2018-12-20 07:18:48,097 | /home/babitagujar/frappe-bench/apps/frappe/frappe/utils/scheduler.py:
Site: ekart_site
Queued events for site ekart_site
[DEBUG] 2018-12-20 07:18:48,124 | /home/babitagujar/frappe-bench/apps/frappe/frappe/utils/scheduler.py:
Site: erpnext_site
Queued events for site erpnext_site
[DEBUG] 2018-12-20 07:18:48,167 | /home/babitagujar/frappe-bench/apps/frappe/frappe/utils/scheduler.py:
Site: library
Queued events for site library
[DEBUG] 2018-12-20 07:19:48,213 | /home/babitagujar/frappe-bench/apps/frappe/frappe/utils/scheduler.py:
Site: ekart_site
Queued events for site ekart_site
[DEBUG] 2018-12-20 07:19:48,227 | /home/babitagujar/frappe-bench/apps/frappe/frappe/utils/scheduler.py:
Site: erpnext_site
Queued events for site erpnext_site
[DEBUG] 2018-12-20 07:19:48,239 | /home/babitagujar/frappe-bench/apps/frappe/frappe/utils/scheduler.py:
Site: library
Queued events for site library
[DEBUG] 2018-12-20 07:20:48,325 | /home/babitagujar/frappe-bench/apps/frappe/frappe/utils/scheduler.py:
Site: ekart_site
Queued events for site ekart_site
[DEBUG] 2018-12-20 07:20:48,338 | /home/babitagujar/frappe-bench/apps/frappe/frappe/utils/scheduler.py:
Site: erpnext_site
Queued events for site erpnext_site
[DEBUG] 2018-12-20 07:20:48,351 | /home/babitagujar/frappe-bench/apps/frappe/frappe/utils/scheduler.py:
Site: library
Queued events for site library
[DEBUG] 2018-12-20 07:21:48,439 | /home/babitagujar/frappe-bench/apps/frappe/frappe/utils/scheduler.py:
Site: ekart_site
Queued events for site ekart_site
[DEBUG] 2018-12-20 07:21:48,456 | /home/babitagujar/frappe-bench/apps/frappe/frappe/utils/scheduler.py:
Site: erpnext_site
Queued events for site erpnext_site
[DEBUG] 2018-12-20 07:21:48,472 | /home/babitagujar/frappe-bench/apps/frappe/frappe/utils/scheduler.py:
Site: library
Queued events for site library
[DEBUG] 2018-12-20 07:22:48,580 | /home/babitagujar/frappe-bench/apps/frappe/frappe/utils/scheduler.py:
Site: ekart_site
Queued events for site ekart_site
[DEBUG] 2018-12-20 07:22:48,608 | /home/babitagujar/frappe-bench/apps/frappe/frappe/utils/scheduler.py:
Site: erpnext_site
Queued events for site erpnext_site
[DEBUG] 2018-12-20 07:22:48,650 | /home/babitagujar/frappe-bench/apps/frappe/frappe/utils/scheduler.py:
Site: library
Queued events for site library
[DEBUG] 2018-12-20 07:23:48,736 | /home/babitagujar/frappe-bench/apps/frappe/frappe/utils/scheduler.py:
Site: ekart_site
Queued events for site ekart_site
[DEBUG] 2018-12-20 07:23:48,749 | /home/babitagujar/frappe-bench/apps/frappe/frappe/utils/scheduler.py:
Site: erpnext_site
Queued events for site erpnext_site
[DEBUG] 2018-12-20 07:23:48,762 | /home/babitagujar/frappe-bench/apps/frappe/frappe/utils/scheduler.py:
Site: library
Queued events for site library
[DEBUG] 2018-12-20 07:24:48,807 | /home/babitagujar/frappe-bench/apps/frappe/frappe/utils/scheduler.py:
Site: ekart_site
Queued events for site ekart_site
[DEBUG] 2018-12-20 07:24:48,823 | /home/babitagujar/frappe-bench/apps/frappe/frappe/utils/scheduler.py:
Site: erpnext_site
Queued events for site erpnext_site
[DEBUG] 2018-12-20 07:24:48,836 | /home/babitagujar/frappe-bench/apps/frappe/frappe/utils/scheduler.py:
Site: library
Queued events for site library
[DEBUG] 2018-12-20 07:25:48,921 | /home/babitagujar/frappe-bench/apps/frappe/frappe/utils/scheduler.py:
Site: ekart_site
Queued events for site ekart_site
[DEBUG] 2018-12-20 07:25:48,935 | /home/babitagujar/frappe-bench/apps/frappe/frappe/utils/scheduler.py:
Site: erpnext_site
Queued events for site erpnext_site
[DEBUG] 2018-12-20 07:25:48,947 | /home/babitagujar/frappe-bench/apps/frappe/frappe/utils/scheduler.py:
Site: library
Queued events for site library
[DEBUG] 2018-12-20 07:26:49,054 | /home/babitagujar/frappe-bench/apps/frappe/frappe/utils/scheduler.py:
Site: ekart_site
Queued events for site ekart_site
[DEBUG] 2018-12-20 07:26:49,082 | /home/babitagujar/frappe-bench/apps/frappe/frappe/utils/scheduler.py:
Site: erpnext_site
Queued events for site erpnext_site
[DEBUG] 2018-12-20 07:26:49,126 | /home/babitagujar/frappe-bench/apps/frappe/frappe/utils/scheduler.py:
Site: library
Queued events for site library
[DEBUG] 2018-12-20 07:27:49,214 | /home/babitagujar/frappe-bench/apps/frappe/frappe/utils/scheduler.py:
Site: ekart_site
Queued events for site ekart_site
[DEBUG] 2018-12-20 07:27:49,230 | /home/babitagujar/frappe-bench/apps/frappe/frappe/utils/scheduler.py:
Site: erpnext_site
Queued events for site erpnext_site
[DEBUG] 2018-12-20 07:27:49,245 | /home/babitagujar/frappe-bench/apps/frappe/frappe/utils/scheduler.py:
Site: library
Queued events for site library
[DEBUG] 2018-12-20 07:28:49,333 | /home/babitagujar/frappe-bench/apps/frappe/frappe/utils/scheduler.py:
Site: ekart_site
Queued events for site ekart_site
[DEBUG] 2018-12-20 07:28:49,346 | /home/babitagujar/frappe-bench/apps/frappe/frappe/utils/scheduler.py:
Site: erpnext_site
Queued events for site erpnext_site
[DEBUG] 2018-12-20 07:28:49,359 | /home/babitagujar/frappe-bench/apps/frappe/frappe/utils/scheduler.py:
Site: library
Queued events for site library
[DEBUG] 2018-12-20 07:29:49,433 | /home/babitagujar/frappe-bench/apps/frappe/frappe/utils/scheduler.py:
Site: ekart_site
Queued events for site ekart_site
[DEBUG] 2018-12-20 07:29:49,445 | /home/babitagujar/frappe-bench/apps/frappe/frappe/utils/scheduler.py:
Site: erpnext_site
Queued events for site erpnext_site
[DEBUG] 2018-12-20 07:29:49,460 | /home/babitagujar/frappe-bench/apps/frappe/frappe/utils/scheduler.py:
Site: library
Queued events for site library
[DEBUG] 2018-12-20 07:30:49,579 | /home/babitagujar/frappe-bench/apps/frappe/frappe/utils/scheduler.py:
Site: ekart_site
Queued events for site ekart_site
[DEBUG] 2018-12-20 07:30:49,642 | /home/babitagujar/frappe-bench/apps/frappe/frappe/utils/scheduler.py:
Site: erpnext_site
Queued events for site erpnext_site
[DEBUG] 2018-12-20 07:30:49,705 | /home/babitagujar/frappe-bench/apps/frappe/frappe/utils/scheduler.py:
Site: library
Queued events for site library
[DEBUG] 2018-12-20 07:31:49,798 | /home/babitagujar/frappe-bench/apps/frappe/frappe/utils/scheduler.py:
Site: ekart_site
Queued events for site ekart_site
[DEBUG] 2018-12-20 07:31:49,813 | /home/babitagujar/frappe-bench/apps/frappe/frappe/utils/scheduler.py:
Site: erpnext_site
Queued events for site erpnext_site
[DEBUG] 2018-12-20 07:31:49,829 | /home/babitagujar/frappe-bench/apps/frappe/frappe/utils/scheduler.py:
Site: library
Queued events for site library
[DEBUG] 2018-12-20 07:32:49,919 | /home/babitagujar/frappe-bench/apps/frappe/frappe/utils/scheduler.py:
Site: ekart_site
Queued events for site ekart_site
[DEBUG] 2018-12-20 07:32:49,934 | /home/babitagujar/frappe-bench/apps/frappe/frappe/utils/scheduler.py:
Site: erpnext_site
Queued events for site erpnext_site
[DEBUG] 2018-12-20 07:32:49,951 | /home/babitagujar/frappe-bench/apps/frappe/frappe/utils/scheduler.py:
Site: library
Queued events for site library
[DEBUG] 2018-12-20 07:33:50,036 | /home/babitagujar/frappe-bench/apps/frappe/frappe/utils/scheduler.py:
Site: ekart_site
Queued events for site ekart_site
[DEBUG] 2018-12-20 07:33:50,049 | /home/babitagujar/frappe-bench/apps/frappe/frappe/utils/scheduler.py:
Site: erpnext_site
Queued events for site erpnext_site
[DEBUG] 2018-12-20 07:33:50,062 | /home/babitagujar/frappe-bench/apps/frappe/frappe/utils/scheduler.py:
Site: library
Queued events for site library
[DEBUG] 2018-12-20 07:34:50,170 | /home/babitagujar/frappe-bench/apps/frappe/frappe/utils/scheduler.py:
Site: ekart_site
Queued events for site ekart_site
[DEBUG] 2018-12-20 07:34:50,203 | /home/babitagujar/frappe-bench/apps/frappe/frappe/utils/scheduler.py:
Site: erpnext_site
Queued events for site erpnext_site
[DEBUG] 2018-12-20 07:34:50,254 | /home/babitagujar/frappe-bench/apps/frappe/frappe/utils/scheduler.py:
Site: library
Queued events for site library
[DEBUG] 2018-12-20 07:35:50,341 | /home/babitagujar/frappe-bench/apps/frappe/frappe/utils/scheduler.py:
Site: ekart_site
Queued events for site ekart_site
[DEBUG] 2018-12-20 07:35:50,356 | /home/babitagujar/frappe-bench/apps/frappe/frappe/utils/scheduler.py:
Site: erpnext_site
Queued events for site erpnext_site
[DEBUG] 2018-12-20 07:35:50,370 | /home/babitagujar/frappe-bench/apps/frappe/frappe/utils/scheduler.py:
Site: library
Queued events for site library
[DEBUG] 2018-12-20 07:36:50,455 | /home/babitagujar/frappe-bench/apps/frappe/frappe/utils/scheduler.py:
Site: ekart_site
Queued events for site ekart_site
[DEBUG] 2018-12-20 07:36:50,468 | /home/babitagujar/frappe-bench/apps/frappe/frappe/utils/scheduler.py:
Site: erpnext_site
Queued events for site erpnext_site
[DEBUG] 2018-12-20 07:36:50,480 | /home/babitagujar/frappe-bench/apps/frappe/frappe/utils/scheduler.py:
Site: library
Queued events for site library
[DEBUG] 2018-12-20 07:37:50,565 | /home/babitagujar/frappe-bench/apps/frappe/frappe/utils/scheduler.py:
Site: ekart_site
Queued events for site ekart_site
[DEBUG] 2018-12-20 07:37:50,578 | /home/babitagujar/frappe-bench/apps/frappe/frappe/utils/scheduler.py:
Site: erpnext_site
Queued events for site erpnext_site
[DEBUG] 2018-12-20 07:37:50,591 | /home/babitagujar/frappe-bench/apps/frappe/frappe/utils/scheduler.py:
Site: library
Queued events for site library
[DEBUG] 2018-12-20 07:38:50,694 | /home/babitagujar/frappe-bench/apps/frappe/frappe/utils/scheduler.py:
Site: ekart_site
Queued events for site ekart_site
[DEBUG] 2018-12-20 07:38:50,720 | /home/babitagujar/frappe-bench/apps/frappe/frappe/utils/scheduler.py:
Site: erpnext_site
Queued events for site erpnext_site
[DEBUG] 2018-12-20 07:38:50,761 | /home/babitagujar/frappe-bench/apps/frappe/frappe/utils/scheduler.py:
Site: library
Queued events for site library
[DEBUG] 2018-12-20 07:39:50,846 | /home/babitagujar/frappe-bench/apps/frappe/frappe/utils/scheduler.py:
Site: ekart_site
Queued events for site ekart_site
[DEBUG] 2018-12-20 07:39:50,859 | /home/babitagujar/frappe-bench/apps/frappe/frappe/utils/scheduler.py:
Site: erpnext_site
Queued events for site erpnext_site
[DEBUG] 2018-12-20 07:39:50,871 | /home/babitagujar/frappe-bench/apps/frappe/frappe/utils/scheduler.py:
Site: library
Queued events for site library
[DEBUG] 2018-12-20 07:40:50,962 | /home/babitagujar/frappe-bench/apps/frappe/frappe/utils/scheduler.py:
Site: ekart_site
Queued events for site ekart_site
[DEBUG] 2018-12-20 07:40:50,977 | /home/babitagujar/frappe-bench/apps/frappe/frappe/utils/scheduler.py:
Site: erpnext_site
Queued events for site erpnext_site
[DEBUG] 2018-12-20 07:40:50,992 | /home/babitagujar/frappe-bench/apps/frappe/frappe/utils/scheduler.py:
Site: library
Queued events for site library
[DEBUG] 2018-12-20 07:41:51,080 | /home/babitagujar/frappe-bench/apps/frappe/frappe/utils/scheduler.py:
Site: ekart_site
Queued events for site ekart_site
[DEBUG] 2018-12-20 07:41:51,093 | /home/babitagujar/frappe-bench/apps/frappe/frappe/utils/scheduler.py:
Site: erpnext_site
Queued events for site erpnext_site
[DEBUG] 2018-12-20 07:41:51,107 | /home/babitagujar/frappe-bench/apps/frappe/frappe/utils/scheduler.py:
Site: library
Queued events for site library
[DEBUG] 2018-12-20 07:42:51,213 | /home/babitagujar/frappe-bench/apps/frappe/frappe/utils/scheduler.py:
Site: ekart_site
Queued events for site ekart_site
[DEBUG] 2018-12-20 07:42:51,250 | /home/babitagujar/frappe-bench/apps/frappe/frappe/utils/scheduler.py:
Site: erpnext_site
Queued events for site erpnext_site
[DEBUG] 2018-12-20 07:42:51,306 | /home/babitagujar/frappe-bench/apps/frappe/frappe/utils/scheduler.py:
Site: library
Queued events for site library
[DEBUG] 2018-12-20 07:43:51,391 | /home/babitagujar/frappe-bench/apps/frappe/frappe/utils/scheduler.py:
Site: ekart_site
Queued events for site ekart_site
[DEBUG] 2018-12-20 07:43:51,404 | /home/babitagujar/frappe-bench/apps/frappe/frappe/utils/scheduler.py:
Site: erpnext_site
Queued events for site erpnext_site
[DEBUG] 2018-12-20 07:43:51,417 | /home/babitagujar/frappe-bench/apps/frappe/frappe/utils/scheduler.py:
Site: library
Queued events for site library
[DEBUG] 2018-12-20 07:44:51,506 | /home/babitagujar/frappe-bench/apps/frappe/frappe/utils/scheduler.py:
Site: ekart_site
Queued events for site ekart_site
[DEBUG] 2018-12-20 07:44:51,520 | /home/babitagujar/frappe-bench/apps/frappe/frappe/utils/scheduler.py:
Site: erpnext_site
Queued events for site erpnext_site
[DEBUG] 2018-12-20 07:44:51,536 | /home/babitagujar/frappe-bench/apps/frappe/frappe/utils/scheduler.py:
Site: library
Queued events for site library
[DEBUG] 2018-12-20 07:45:51,625 | /home/babitagujar/frappe-bench/apps/frappe/frappe/utils/scheduler.py:
Site: ekart_site
Queued events for site ekart_site
[DEBUG] 2018-12-20 07:45:51,638 | /home/babitagujar/frappe-bench/apps/frappe/frappe/utils/scheduler.py:
Site: erpnext_site
Queued events for site erpnext_site
[DEBUG] 2018-12-20 07:45:51,654 | /home/babitagujar/frappe-bench/apps/frappe/frappe/utils/scheduler.py:
Site: library
Queued events for site library
[DEBUG] 2018-12-20 07:46:51,742 | /home/babitagujar/frappe-bench/apps/frappe/frappe/utils/scheduler.py:
Site: ekart_site
Queued events for site ekart_site
[DEBUG] 2018-12-20 07:46:51,767 | /home/babitagujar/frappe-bench/apps/frappe/frappe/utils/scheduler.py:
Site: erpnext_site
Queued events for site erpnext_site
[DEBUG] 2018-12-20 07:46:51,821 | /home/babitagujar/frappe-bench/apps/frappe/frappe/utils/scheduler.py:
Site: library
Queued events for site library
[DEBUG] 2018-12-20 07:47:51,909 | /home/babitagujar/frappe-bench/apps/frappe/frappe/utils/scheduler.py:
Site: ekart_site
Queued events for site ekart_site
[DEBUG] 2018-12-20 07:47:51,926 | /home/babitagujar/frappe-bench/apps/frappe/frappe/utils/scheduler.py:
Site: erpnext_site
Queued events for site erpnext_site
[DEBUG] 2018-12-20 07:47:51,942 | /home/babitagujar/frappe-bench/apps/frappe/frappe/utils/scheduler.py:
Site: library
Queued events for site library
[DEBUG] 2018-12-20 07:48:52,031 | /home/babitagujar/frappe-bench/apps/frappe/frappe/utils/scheduler.py:
Site: ekart_site
Queued events for site ekart_site
[DEBUG] 2018-12-20 07:48:52,048 | /home/babitagujar/frappe-bench/apps/frappe/frappe/utils/scheduler.py:
Site: erpnext_site
Queued events for site erpnext_site
[DEBUG] 2018-12-20 07:48:52,064 | /home/babitagujar/frappe-bench/apps/frappe/frappe/utils/scheduler.py:
Site: library
Queued events for site library
[DEBUG] 2018-12-20 07:49:52,150 | /home/babitagujar/frappe-bench/apps/frappe/frappe/utils/scheduler.py:
Site: ekart_site
Queued events for site ekart_site
[DEBUG] 2018-12-20 07:49:52,165 | /home/babitagujar/frappe-bench/apps/frappe/frappe/utils/scheduler.py:
Site: erpnext_site
Queued events for site erpnext_site
[DEBUG] 2018-12-20 07:49:52,181 | /home/babitagujar/frappe-bench/apps/frappe/frappe/utils/scheduler.py:
Site: library
Queued events for site library
[DEBUG] 2018-12-20 07:50:52,283 | /home/babitagujar/frappe-bench/apps/frappe/frappe/utils/scheduler.py:
Site: ekart_site
Queued events for site ekart_site
[DEBUG] 2018-12-20 07:50:52,317 | /home/babitagujar/frappe-bench/apps/frappe/frappe/utils/scheduler.py:
Site: erpnext_site
Queued events for site erpnext_site
[DEBUG] 2018-12-20 07:50:52,371 | /home/babitagujar/frappe-bench/apps/frappe/frappe/utils/scheduler.py:
Site: library
Queued events for site library
[DEBUG] 2018-12-20 07:51:52,455 | /home/babitagujar/frappe-bench/apps/frappe/frappe/utils/scheduler.py:
Site: ekart_site
Queued events for site ekart_site
[DEBUG] 2018-12-20 07:51:52,468 | /home/babitagujar/frappe-bench/apps/frappe/frappe/utils/scheduler.py:
Site: erpnext_site
Queued events for site erpnext_site
[DEBUG] 2018-12-20 07:51:52,485 | /home/babitagujar/frappe-bench/apps/frappe/frappe/utils/scheduler.py:
Site: library
Queued events for site library
[DEBUG] 2018-12-20 07:52:52,578 | /home/babitagujar/frappe-bench/apps/frappe/frappe/utils/scheduler.py:
Site: ekart_site
Queued events for site ekart_site
[DEBUG] 2018-12-20 07:52:52,595 | /home/babitagujar/frappe-bench/apps/frappe/frappe/utils/scheduler.py:
Site: erpnext_site
Queued events for site erpnext_site
[DEBUG] 2018-12-20 07:52:52,613 | /home/babitagujar/frappe-bench/apps/frappe/frappe/utils/scheduler.py:
Site: library
Queued events for site library
[DEBUG] 2018-12-20 07:53:52,697 | /home/babitagujar/frappe-bench/apps/frappe/frappe/utils/scheduler.py:
Site: ekart_site
Queued events for site ekart_site
[DEBUG] 2018-12-20 07:53:52,710 | /home/babitagujar/frappe-bench/apps/frappe/frappe/utils/scheduler.py:
Site: erpnext_site
Queued events for site erpnext_site
[DEBUG] 2018-12-20 07:53:52,722 | /home/babitagujar/frappe-bench/apps/frappe/frappe/utils/scheduler.py:
Site: library
Queued events for site library
[DEBUG] 2018-12-20 07:54:52,826 | /home/babitagujar/frappe-bench/apps/frappe/frappe/utils/scheduler.py:
Site: ekart_site
Queued events for site ekart_site
[DEBUG] 2018-12-20 07:54:52,860 | /home/babitagujar/frappe-bench/apps/frappe/frappe/utils/scheduler.py:
Site: erpnext_site
Queued events for site erpnext_site
[DEBUG] 2018-12-20 07:54:52,913 | /home/babitagujar/frappe-bench/apps/frappe/frappe/utils/scheduler.py:
Site: library
Queued events for site library
[DEBUG] 2018-12-20 07:55:52,997 | /home/babitagujar/frappe-bench/apps/frappe/frappe/utils/scheduler.py:
Site: ekart_site
Queued events for site ekart_site
[DEBUG] 2018-12-20 07:55:53,017 | /home/babitagujar/frappe-bench/apps/frappe/frappe/utils/scheduler.py:
Site: erpnext_site
Queued events for site erpnext_site
[DEBUG] 2018-12-20 07:55:53,031 | /home/babitagujar/frappe-bench/apps/frappe/frappe/utils/scheduler.py:
Site: library
Queued events for site library
[DEBUG] 2018-12-20 07:56:53,116 | /home/babitagujar/frappe-bench/apps/frappe/frappe/utils/scheduler.py:
Site: ekart_site
Queued events for site ekart_site
[DEBUG] 2018-12-20 07:56:53,131 | /home/babitagujar/frappe-bench/apps/frappe/frappe/utils/scheduler.py:
Site: erpnext_site
Queued events for site erpnext_site
[DEBUG] 2018-12-20 07:56:53,144 | /home/babitagujar/frappe-bench/apps/frappe/frappe/utils/scheduler.py:
Site: library
Queued events for site library
[DEBUG] 2018-12-20 07:57:53,231 | /home/babitagujar/frappe-bench/apps/frappe/frappe/utils/scheduler.py:
Site: ekart_site
Queued events for site ekart_site
[DEBUG] 2018-12-20 07:57:53,244 | /home/babitagujar/frappe-bench/apps/frappe/frappe/utils/scheduler.py:
Site: erpnext_site
Queued events for site erpnext_site
[DEBUG] 2018-12-20 07:57:53,258 | /home/babitagujar/frappe-bench/apps/frappe/frappe/utils/scheduler.py:
Site: library
Queued events for site library
[DEBUG] 2018-12-20 07:58:53,367 | /home/babitagujar/frappe-bench/apps/frappe/frappe/utils/scheduler.py:
Site: ekart_site
Queued events for site ekart_site
[DEBUG] 2018-12-20 07:58:53,402 | /home/babitagujar/frappe-bench/apps/frappe/frappe/utils/scheduler.py:
Site: erpnext_site
Queued events for site erpnext_site
[DEBUG] 2018-12-20 07:58:53,460 | /home/babitagujar/frappe-bench/apps/frappe/frappe/utils/scheduler.py:
Site: library
Queued events for site library
[DEBUG] 2018-12-20 07:59:53,547 | /home/babitagujar/frappe-bench/apps/frappe/frappe/utils/scheduler.py:
Site: ekart_site
Queued events for site ekart_site
[DEBUG] 2018-12-20 07:59:53,560 | /home/babitagujar/frappe-bench/apps/frappe/frappe/utils/scheduler.py:
Site: erpnext_site
Queued events for site erpnext_site
[DEBUG] 2018-12-20 07:59:53,572 | /home/babitagujar/frappe-bench/apps/frappe/frappe/utils/scheduler.py:
Site: library
Queued events for site library
[DEBUG] 2018-12-20 08:00:53,661 | /home/babitagujar/frappe-bench/apps/frappe/frappe/utils/scheduler.py:
Site: ekart_site
Queued events for site ekart_site
[DEBUG] 2018-12-20 08:00:53,673 | /home/babitagujar/frappe-bench/apps/frappe/frappe/utils/scheduler.py:
Site: erpnext_site
Queued events for site erpnext_site
