[DEBUG] 2018-12-21 01:06:41,770 | /home/babitagujar/frappe-bench/apps/frappe/frappe/utils/scheduler.py:
Site: library
Queued events for site library
[DEBUG] 2018-12-21 01:07:41,864 | /home/babitagujar/frappe-bench/apps/frappe/frappe/utils/scheduler.py:
Site: ekart_site
Queued events for site ekart_site
[DEBUG] 2018-12-21 01:07:41,879 | /home/babitagujar/frappe-bench/apps/frappe/frappe/utils/scheduler.py:
Site: erpnext_site
Queued events for site erpnext_site
[DEBUG] 2018-12-21 01:07:41,893 | /home/babitagujar/frappe-bench/apps/frappe/frappe/utils/scheduler.py:
Site: library
Queued events for site library
[DEBUG] 2018-12-21 01:08:41,980 | /home/babitagujar/frappe-bench/apps/frappe/frappe/utils/scheduler.py:
Site: ekart_site
Queued events for site ekart_site
[DEBUG] 2018-12-21 01:08:41,993 | /home/babitagujar/frappe-bench/apps/frappe/frappe/utils/scheduler.py:
Site: erpnext_site
Queued events for site erpnext_site
[DEBUG] 2018-12-21 01:08:42,007 | /home/babitagujar/frappe-bench/apps/frappe/frappe/utils/scheduler.py:
Site: library
Queued events for site library
[DEBUG] 2018-12-21 01:09:42,093 | /home/babitagujar/frappe-bench/apps/frappe/frappe/utils/scheduler.py:
Site: ekart_site
Queued events for site ekart_site
[DEBUG] 2018-12-21 01:09:42,105 | /home/babitagujar/frappe-bench/apps/frappe/frappe/utils/scheduler.py:
Site: erpnext_site
Queued events for site erpnext_site
[DEBUG] 2018-12-21 01:09:42,117 | /home/babitagujar/frappe-bench/apps/frappe/frappe/utils/scheduler.py:
Site: library
Queued events for site library
[DEBUG] 2018-12-21 01:10:42,221 | /home/babitagujar/frappe-bench/apps/frappe/frappe/utils/scheduler.py:
Site: ekart_site
Queued events for site ekart_site
[DEBUG] 2018-12-21 01:10:42,245 | /home/babitagujar/frappe-bench/apps/frappe/frappe/utils/scheduler.py:
Site: erpnext_site
Queued events for site erpnext_site
[DEBUG] 2018-12-21 01:10:42,284 | /home/babitagujar/frappe-bench/apps/frappe/frappe/utils/scheduler.py:
Site: library
Queued events for site library
[DEBUG] 2018-12-21 01:11:42,368 | /home/babitagujar/frappe-bench/apps/frappe/frappe/utils/scheduler.py:
Site: ekart_site
Queued events for site ekart_site
[DEBUG] 2018-12-21 01:11:42,382 | /home/babitagujar/frappe-bench/apps/frappe/frappe/utils/scheduler.py:
Site: erpnext_site
Queued events for site erpnext_site
[DEBUG] 2018-12-21 01:11:42,395 | /home/babitagujar/frappe-bench/apps/frappe/frappe/utils/scheduler.py:
Site: library
Queued events for site library
[DEBUG] 2018-12-21 01:12:42,484 | /home/babitagujar/frappe-bench/apps/frappe/frappe/utils/scheduler.py:
Site: ekart_site
Queued events for site ekart_site
[DEBUG] 2018-12-21 01:12:42,498 | /home/babitagujar/frappe-bench/apps/frappe/frappe/utils/scheduler.py:
Site: erpnext_site
Queued events for site erpnext_site
[DEBUG] 2018-12-21 01:12:42,512 | /home/babitagujar/frappe-bench/apps/frappe/frappe/utils/scheduler.py:
Site: library
Queued events for site library
[DEBUG] 2018-12-21 01:13:42,600 | /home/babitagujar/frappe-bench/apps/frappe/frappe/utils/scheduler.py:
Site: ekart_site
Queued events for site ekart_site
[DEBUG] 2018-12-21 01:13:42,615 | /home/babitagujar/frappe-bench/apps/frappe/frappe/utils/scheduler.py:
Site: erpnext_site
Queued events for site erpnext_site
[DEBUG] 2018-12-21 01:13:42,628 | /home/babitagujar/frappe-bench/apps/frappe/frappe/utils/scheduler.py:
Site: library
Queued events for site library
[DEBUG] 2018-12-21 01:14:42,728 | /home/babitagujar/frappe-bench/apps/frappe/frappe/utils/scheduler.py:
Site: ekart_site
Queued events for site ekart_site
[DEBUG] 2018-12-21 01:14:42,761 | /home/babitagujar/frappe-bench/apps/frappe/frappe/utils/scheduler.py:
Site: erpnext_site
Queued events for site erpnext_site
[DEBUG] 2018-12-21 01:14:42,815 | /home/babitagujar/frappe-bench/apps/frappe/frappe/utils/scheduler.py:
Site: library
Queued events for site library
[DEBUG] 2018-12-21 01:15:42,910 | /home/babitagujar/frappe-bench/apps/frappe/frappe/utils/scheduler.py:
Site: ekart_site
Queued events for site ekart_site
[DEBUG] 2018-12-21 01:15:42,929 | /home/babitagujar/frappe-bench/apps/frappe/frappe/utils/scheduler.py:
Site: erpnext_site
Queued events for site erpnext_site
[DEBUG] 2018-12-21 01:15:42,946 | /home/babitagujar/frappe-bench/apps/frappe/frappe/utils/scheduler.py:
Site: library
Queued events for site library
[DEBUG] 2018-12-21 01:16:43,034 | /home/babitagujar/frappe-bench/apps/frappe/frappe/utils/scheduler.py:
Site: ekart_site
Queued events for site ekart_site
[DEBUG] 2018-12-21 01:16:43,047 | /home/babitagujar/frappe-bench/apps/frappe/frappe/utils/scheduler.py:
Site: erpnext_site
Queued events for site erpnext_site
[DEBUG] 2018-12-21 01:16:43,060 | /home/babitagujar/frappe-bench/apps/frappe/frappe/utils/scheduler.py:
Site: library
Queued events for site library
[DEBUG] 2018-12-21 01:17:43,145 | /home/babitagujar/frappe-bench/apps/frappe/frappe/utils/scheduler.py:
Site: ekart_site
Queued events for site ekart_site
[DEBUG] 2018-12-21 01:17:43,157 | /home/babitagujar/frappe-bench/apps/frappe/frappe/utils/scheduler.py:
Site: erpnext_site
Queued events for site erpnext_site
[DEBUG] 2018-12-21 01:17:43,168 | /home/babitagujar/frappe-bench/apps/frappe/frappe/utils/scheduler.py:
Site: library
Queued events for site library
[DEBUG] 2018-12-21 01:18:43,268 | /home/babitagujar/frappe-bench/apps/frappe/frappe/utils/scheduler.py:
Site: ekart_site
Queued events for site ekart_site
[DEBUG] 2018-12-21 01:18:43,302 | /home/babitagujar/frappe-bench/apps/frappe/frappe/utils/scheduler.py:
Site: erpnext_site
Queued events for site erpnext_site
[DEBUG] 2018-12-21 01:18:43,343 | /home/babitagujar/frappe-bench/apps/frappe/frappe/utils/scheduler.py:
Site: library
Queued events for site library
[DEBUG] 2018-12-21 01:19:43,430 | /home/babitagujar/frappe-bench/apps/frappe/frappe/utils/scheduler.py:
Site: ekart_site
Queued events for site ekart_site
[DEBUG] 2018-12-21 01:19:43,442 | /home/babitagujar/frappe-bench/apps/frappe/frappe/utils/scheduler.py:
Site: erpnext_site
Queued events for site erpnext_site
[DEBUG] 2018-12-21 01:19:43,455 | /home/babitagujar/frappe-bench/apps/frappe/frappe/utils/scheduler.py:
Site: library
Queued events for site library
[DEBUG] 2018-12-21 01:20:43,534 | /home/babitagujar/frappe-bench/apps/frappe/frappe/utils/scheduler.py:
Site: ekart_site
Queued events for site ekart_site
[DEBUG] 2018-12-21 01:20:43,546 | /home/babitagujar/frappe-bench/apps/frappe/frappe/utils/scheduler.py:
Site: erpnext_site
Queued events for site erpnext_site
[DEBUG] 2018-12-21 01:20:43,562 | /home/babitagujar/frappe-bench/apps/frappe/frappe/utils/scheduler.py:
Site: library
Queued events for site library
[DEBUG] 2018-12-21 01:21:43,647 | /home/babitagujar/frappe-bench/apps/frappe/frappe/utils/scheduler.py:
Site: ekart_site
Queued events for site ekart_site
[DEBUG] 2018-12-21 01:21:43,659 | /home/babitagujar/frappe-bench/apps/frappe/frappe/utils/scheduler.py:
Site: erpnext_site
Queued events for site erpnext_site
[DEBUG] 2018-12-21 01:21:43,670 | /home/babitagujar/frappe-bench/apps/frappe/frappe/utils/scheduler.py:
Site: library
Queued events for site library
[DEBUG] 2018-12-21 01:22:43,773 | /home/babitagujar/frappe-bench/apps/frappe/frappe/utils/scheduler.py:
Site: ekart_site
Queued events for site ekart_site
[DEBUG] 2018-12-21 01:22:43,798 | /home/babitagujar/frappe-bench/apps/frappe/frappe/utils/scheduler.py:
Site: erpnext_site
Queued events for site erpnext_site
[DEBUG] 2018-12-21 01:22:43,841 | /home/babitagujar/frappe-bench/apps/frappe/frappe/utils/scheduler.py:
Site: library
Queued events for site library
[DEBUG] 2018-12-21 01:23:43,927 | /home/babitagujar/frappe-bench/apps/frappe/frappe/utils/scheduler.py:
Site: ekart_site
Queued events for site ekart_site
[DEBUG] 2018-12-21 01:23:43,941 | /home/babitagujar/frappe-bench/apps/frappe/frappe/utils/scheduler.py:
Site: erpnext_site
Queued events for site erpnext_site
[DEBUG] 2018-12-21 01:23:43,955 | /home/babitagujar/frappe-bench/apps/frappe/frappe/utils/scheduler.py:
Site: library
Queued events for site library
[DEBUG] 2018-12-21 01:24:44,040 | /home/babitagujar/frappe-bench/apps/frappe/frappe/utils/scheduler.py:
Site: ekart_site
Queued events for site ekart_site
[DEBUG] 2018-12-21 01:24:44,053 | /home/babitagujar/frappe-bench/apps/frappe/frappe/utils/scheduler.py:
Site: erpnext_site
Queued events for site erpnext_site
[DEBUG] 2018-12-21 01:24:44,066 | /home/babitagujar/frappe-bench/apps/frappe/frappe/utils/scheduler.py:
Site: library
Queued events for site library
[DEBUG] 2018-12-21 01:25:44,121 | /home/babitagujar/frappe-bench/apps/frappe/frappe/utils/scheduler.py:
Site: ekart_site
Queued events for site ekart_site
[DEBUG] 2018-12-21 01:25:44,134 | /home/babitagujar/frappe-bench/apps/frappe/frappe/utils/scheduler.py:
Site: erpnext_site
Queued events for site erpnext_site
[DEBUG] 2018-12-21 01:25:44,146 | /home/babitagujar/frappe-bench/apps/frappe/frappe/utils/scheduler.py:
Site: library
Queued events for site library
[DEBUG] 2018-12-21 01:26:44,249 | /home/babitagujar/frappe-bench/apps/frappe/frappe/utils/scheduler.py:
Site: ekart_site
Queued events for site ekart_site
[DEBUG] 2018-12-21 01:26:44,272 | /home/babitagujar/frappe-bench/apps/frappe/frappe/utils/scheduler.py:
Site: erpnext_site
Queued events for site erpnext_site
[DEBUG] 2018-12-21 01:26:44,309 | /home/babitagujar/frappe-bench/apps/frappe/frappe/utils/scheduler.py:
Site: library
Queued events for site library
[DEBUG] 2018-12-21 01:27:44,394 | /home/babitagujar/frappe-bench/apps/frappe/frappe/utils/scheduler.py:
Site: ekart_site
Queued events for site ekart_site
[DEBUG] 2018-12-21 01:27:44,406 | /home/babitagujar/frappe-bench/apps/frappe/frappe/utils/scheduler.py:
Site: erpnext_site
Queued events for site erpnext_site
[DEBUG] 2018-12-21 01:27:44,417 | /home/babitagujar/frappe-bench/apps/frappe/frappe/utils/scheduler.py:
Site: library
Queued events for site library
[DEBUG] 2018-12-21 01:28:44,501 | /home/babitagujar/frappe-bench/apps/frappe/frappe/utils/scheduler.py:
Site: ekart_site
Queued events for site ekart_site
[DEBUG] 2018-12-21 01:28:44,513 | /home/babitagujar/frappe-bench/apps/frappe/frappe/utils/scheduler.py:
Site: erpnext_site
Queued events for site erpnext_site
[DEBUG] 2018-12-21 01:28:44,525 | /home/babitagujar/frappe-bench/apps/frappe/frappe/utils/scheduler.py:
Site: library
Queued events for site library
[DEBUG] 2018-12-21 01:29:44,613 | /home/babitagujar/frappe-bench/apps/frappe/frappe/utils/scheduler.py:
Site: ekart_site
Queued events for site ekart_site
[DEBUG] 2018-12-21 01:29:44,626 | /home/babitagujar/frappe-bench/apps/frappe/frappe/utils/scheduler.py:
Site: erpnext_site
Queued events for site erpnext_site
[DEBUG] 2018-12-21 01:29:44,639 | /home/babitagujar/frappe-bench/apps/frappe/frappe/utils/scheduler.py:
Site: library
Queued events for site library
[DEBUG] 2018-12-21 01:30:44,736 | /home/babitagujar/frappe-bench/apps/frappe/frappe/utils/scheduler.py:
Site: ekart_site
Queued events for site ekart_site
[DEBUG] 2018-12-21 01:30:44,811 | /home/babitagujar/frappe-bench/apps/frappe/frappe/utils/scheduler.py:
Site: erpnext_site
Queued events for site erpnext_site
[DEBUG] 2018-12-21 01:30:44,878 | /home/babitagujar/frappe-bench/apps/frappe/frappe/utils/scheduler.py:
Site: library
Queued events for site library
[DEBUG] 2018-12-21 01:31:44,963 | /home/babitagujar/frappe-bench/apps/frappe/frappe/utils/scheduler.py:
Site: ekart_site
Queued events for site ekart_site
[DEBUG] 2018-12-21 01:31:44,975 | /home/babitagujar/frappe-bench/apps/frappe/frappe/utils/scheduler.py:
Site: erpnext_site
Queued events for site erpnext_site
[DEBUG] 2018-12-21 01:31:44,988 | /home/babitagujar/frappe-bench/apps/frappe/frappe/utils/scheduler.py:
Site: library
Queued events for site library
[DEBUG] 2018-12-21 01:32:45,078 | /home/babitagujar/frappe-bench/apps/frappe/frappe/utils/scheduler.py:
Site: ekart_site
Queued events for site ekart_site
[DEBUG] 2018-12-21 01:32:45,094 | /home/babitagujar/frappe-bench/apps/frappe/frappe/utils/scheduler.py:
Site: erpnext_site
Queued events for site erpnext_site
[DEBUG] 2018-12-21 01:32:45,109 | /home/babitagujar/frappe-bench/apps/frappe/frappe/utils/scheduler.py:
Site: library
Queued events for site library
[DEBUG] 2018-12-21 01:33:45,195 | /home/babitagujar/frappe-bench/apps/frappe/frappe/utils/scheduler.py:
Site: ekart_site
Queued events for site ekart_site
[DEBUG] 2018-12-21 01:33:45,210 | /home/babitagujar/frappe-bench/apps/frappe/frappe/utils/scheduler.py:
Site: erpnext_site
Queued events for site erpnext_site
[DEBUG] 2018-12-21 01:33:45,224 | /home/babitagujar/frappe-bench/apps/frappe/frappe/utils/scheduler.py:
Site: library
Queued events for site library
[DEBUG] 2018-12-21 01:34:45,306 | /home/babitagujar/frappe-bench/apps/frappe/frappe/utils/scheduler.py:
Site: ekart_site
Queued events for site ekart_site
[DEBUG] 2018-12-21 01:34:45,353 | /home/babitagujar/frappe-bench/apps/frappe/frappe/utils/scheduler.py:
Site: erpnext_site
Queued events for site erpnext_site
[DEBUG] 2018-12-21 01:34:45,404 | /home/babitagujar/frappe-bench/apps/frappe/frappe/utils/scheduler.py:
Site: library
Queued events for site library
[DEBUG] 2018-12-21 01:35:45,489 | /home/babitagujar/frappe-bench/apps/frappe/frappe/utils/scheduler.py:
Site: ekart_site
Queued events for site ekart_site
[DEBUG] 2018-12-21 01:35:45,501 | /home/babitagujar/frappe-bench/apps/frappe/frappe/utils/scheduler.py:
Site: erpnext_site
Queued events for site erpnext_site
[DEBUG] 2018-12-21 01:35:45,513 | /home/babitagujar/frappe-bench/apps/frappe/frappe/utils/scheduler.py:
Site: library
Queued events for site library
[DEBUG] 2018-12-21 01:36:45,602 | /home/babitagujar/frappe-bench/apps/frappe/frappe/utils/scheduler.py:
Site: ekart_site
Queued events for site ekart_site
[DEBUG] 2018-12-21 01:36:45,615 | /home/babitagujar/frappe-bench/apps/frappe/frappe/utils/scheduler.py:
Site: erpnext_site
Queued events for site erpnext_site
[DEBUG] 2018-12-21 01:36:45,628 | /home/babitagujar/frappe-bench/apps/frappe/frappe/utils/scheduler.py:
Site: library
Queued events for site library
[DEBUG] 2018-12-21 01:37:45,718 | /home/babitagujar/frappe-bench/apps/frappe/frappe/utils/scheduler.py:
Site: ekart_site
Queued events for site ekart_site
[DEBUG] 2018-12-21 01:37:45,734 | /home/babitagujar/frappe-bench/apps/frappe/frappe/utils/scheduler.py:
Site: erpnext_site
Queued events for site erpnext_site
[DEBUG] 2018-12-21 01:37:45,751 | /home/babitagujar/frappe-bench/apps/frappe/frappe/utils/scheduler.py:
Site: library
Queued events for site library
[DEBUG] 2018-12-21 01:38:45,854 | /home/babitagujar/frappe-bench/apps/frappe/frappe/utils/scheduler.py:
Site: ekart_site
Queued events for site ekart_site
[DEBUG] 2018-12-21 01:38:45,883 | /home/babitagujar/frappe-bench/apps/frappe/frappe/utils/scheduler.py:
Site: erpnext_site
Queued events for site erpnext_site
[DEBUG] 2018-12-21 01:38:45,921 | /home/babitagujar/frappe-bench/apps/frappe/frappe/utils/scheduler.py:
Site: library
Queued events for site library
[DEBUG] 2018-12-21 01:39:46,009 | /home/babitagujar/frappe-bench/apps/frappe/frappe/utils/scheduler.py:
Site: ekart_site
Queued events for site ekart_site
[DEBUG] 2018-12-21 01:39:46,022 | /home/babitagujar/frappe-bench/apps/frappe/frappe/utils/scheduler.py:
Site: erpnext_site
Queued events for site erpnext_site
[DEBUG] 2018-12-21 01:39:46,033 | /home/babitagujar/frappe-bench/apps/frappe/frappe/utils/scheduler.py:
Site: library
Queued events for site library
[DEBUG] 2018-12-21 01:40:46,120 | /home/babitagujar/frappe-bench/apps/frappe/frappe/utils/scheduler.py:
Site: ekart_site
Queued events for site ekart_site
[DEBUG] 2018-12-21 01:40:46,133 | /home/babitagujar/frappe-bench/apps/frappe/frappe/utils/scheduler.py:
Site: erpnext_site
Queued events for site erpnext_site
[DEBUG] 2018-12-21 01:40:46,146 | /home/babitagujar/frappe-bench/apps/frappe/frappe/utils/scheduler.py:
Site: library
Queued events for site library
[DEBUG] 2018-12-21 01:41:46,231 | /home/babitagujar/frappe-bench/apps/frappe/frappe/utils/scheduler.py:
Site: ekart_site
Queued events for site ekart_site
[DEBUG] 2018-12-21 01:41:46,244 | /home/babitagujar/frappe-bench/apps/frappe/frappe/utils/scheduler.py:
Site: erpnext_site
Queued events for site erpnext_site
[DEBUG] 2018-12-21 01:41:46,257 | /home/babitagujar/frappe-bench/apps/frappe/frappe/utils/scheduler.py:
Site: library
Queued events for site library
[DEBUG] 2018-12-21 01:42:46,357 | /home/babitagujar/frappe-bench/apps/frappe/frappe/utils/scheduler.py:
Site: ekart_site
Queued events for site ekart_site
[DEBUG] 2018-12-21 01:42:46,381 | /home/babitagujar/frappe-bench/apps/frappe/frappe/utils/scheduler.py:
Site: erpnext_site
Queued events for site erpnext_site
[DEBUG] 2018-12-21 01:42:46,421 | /home/babitagujar/frappe-bench/apps/frappe/frappe/utils/scheduler.py:
Site: library
Queued events for site library
[DEBUG] 2018-12-21 01:43:46,511 | /home/babitagujar/frappe-bench/apps/frappe/frappe/utils/scheduler.py:
Site: ekart_site
Queued events for site ekart_site
[DEBUG] 2018-12-21 01:43:46,524 | /home/babitagujar/frappe-bench/apps/frappe/frappe/utils/scheduler.py:
Site: erpnext_site
Queued events for site erpnext_site
[DEBUG] 2018-12-21 01:43:46,538 | /home/babitagujar/frappe-bench/apps/frappe/frappe/utils/scheduler.py:
Site: library
Queued events for site library
[DEBUG] 2018-12-21 01:44:46,626 | /home/babitagujar/frappe-bench/apps/frappe/frappe/utils/scheduler.py:
Site: ekart_site
Queued events for site ekart_site
[DEBUG] 2018-12-21 01:44:46,640 | /home/babitagujar/frappe-bench/apps/frappe/frappe/utils/scheduler.py:
Site: erpnext_site
Queued events for site erpnext_site
[DEBUG] 2018-12-21 01:44:46,655 | /home/babitagujar/frappe-bench/apps/frappe/frappe/utils/scheduler.py:
Site: library
Queued events for site library
[DEBUG] 2018-12-21 01:45:46,742 | /home/babitagujar/frappe-bench/apps/frappe/frappe/utils/scheduler.py:
Site: ekart_site
Queued events for site ekart_site
[DEBUG] 2018-12-21 01:45:46,754 | /home/babitagujar/frappe-bench/apps/frappe/frappe/utils/scheduler.py:
Site: erpnext_site
Queued events for site erpnext_site
[DEBUG] 2018-12-21 01:45:46,767 | /home/babitagujar/frappe-bench/apps/frappe/frappe/utils/scheduler.py:
Site: library
Queued events for site library
[DEBUG] 2018-12-21 01:46:46,879 | /home/babitagujar/frappe-bench/apps/frappe/frappe/utils/scheduler.py:
Site: ekart_site
Queued events for site ekart_site
[DEBUG] 2018-12-21 01:46:46,915 | /home/babitagujar/frappe-bench/apps/frappe/frappe/utils/scheduler.py:
Site: erpnext_site
Queued events for site erpnext_site
[DEBUG] 2018-12-21 01:46:46,969 | /home/babitagujar/frappe-bench/apps/frappe/frappe/utils/scheduler.py:
Site: library
Queued events for site library
[DEBUG] 2018-12-21 01:47:47,053 | /home/babitagujar/frappe-bench/apps/frappe/frappe/utils/scheduler.py:
Site: ekart_site
Queued events for site ekart_site
[DEBUG] 2018-12-21 01:47:47,064 | /home/babitagujar/frappe-bench/apps/frappe/frappe/utils/scheduler.py:
Site: erpnext_site
Queued events for site erpnext_site
[DEBUG] 2018-12-21 01:47:47,076 | /home/babitagujar/frappe-bench/apps/frappe/frappe/utils/scheduler.py:
Site: library
Queued events for site library
[DEBUG] 2018-12-21 01:48:47,162 | /home/babitagujar/frappe-bench/apps/frappe/frappe/utils/scheduler.py:
Site: ekart_site
Queued events for site ekart_site
[DEBUG] 2018-12-21 01:48:47,174 | /home/babitagujar/frappe-bench/apps/frappe/frappe/utils/scheduler.py:
Site: erpnext_site
Queued events for site erpnext_site
[DEBUG] 2018-12-21 01:48:47,186 | /home/babitagujar/frappe-bench/apps/frappe/frappe/utils/scheduler.py:
Site: library
Queued events for site library
[DEBUG] 2018-12-21 01:49:47,273 | /home/babitagujar/frappe-bench/apps/frappe/frappe/utils/scheduler.py:
Site: ekart_site
Queued events for site ekart_site
[DEBUG] 2018-12-21 01:49:47,286 | /home/babitagujar/frappe-bench/apps/frappe/frappe/utils/scheduler.py:
Site: erpnext_site
Queued events for site erpnext_site
[DEBUG] 2018-12-21 01:49:47,297 | /home/babitagujar/frappe-bench/apps/frappe/frappe/utils/scheduler.py:
Site: library
Queued events for site library
[DEBUG] 2018-12-21 01:50:47,398 | /home/babitagujar/frappe-bench/apps/frappe/frappe/utils/scheduler.py:
Site: ekart_site
Queued events for site ekart_site
[DEBUG] 2018-12-21 01:50:47,430 | /home/babitagujar/frappe-bench/apps/frappe/frappe/utils/scheduler.py:
Site: erpnext_site
Queued events for site erpnext_site
[DEBUG] 2018-12-21 01:50:47,468 | /home/babitagujar/frappe-bench/apps/frappe/frappe/utils/scheduler.py:
Site: library
Queued events for site library
[DEBUG] 2018-12-21 01:51:47,555 | /home/babitagujar/frappe-bench/apps/frappe/frappe/utils/scheduler.py:
Site: ekart_site
Queued events for site ekart_site
[DEBUG] 2018-12-21 01:51:47,570 | /home/babitagujar/frappe-bench/apps/frappe/frappe/utils/scheduler.py:
Site: erpnext_site
Queued events for site erpnext_site
[DEBUG] 2018-12-21 01:51:47,584 | /home/babitagujar/frappe-bench/apps/frappe/frappe/utils/scheduler.py:
Site: library
Queued events for site library
[DEBUG] 2018-12-21 01:52:47,671 | /home/babitagujar/frappe-bench/apps/frappe/frappe/utils/scheduler.py:
Site: ekart_site
Queued events for site ekart_site
[DEBUG] 2018-12-21 01:52:47,683 | /home/babitagujar/frappe-bench/apps/frappe/frappe/utils/scheduler.py:
Site: erpnext_site
Queued events for site erpnext_site
[DEBUG] 2018-12-21 01:52:47,695 | /home/babitagujar/frappe-bench/apps/frappe/frappe/utils/scheduler.py:
Site: library
Queued events for site library
[DEBUG] 2018-12-21 01:53:47,782 | /home/babitagujar/frappe-bench/apps/frappe/frappe/utils/scheduler.py:
Site: ekart_site
Queued events for site ekart_site
[DEBUG] 2018-12-21 01:53:47,797 | /home/babitagujar/frappe-bench/apps/frappe/frappe/utils/scheduler.py:
Site: erpnext_site
Queued events for site erpnext_site
[DEBUG] 2018-12-21 01:53:47,809 | /home/babitagujar/frappe-bench/apps/frappe/frappe/utils/scheduler.py:
Site: library
Queued events for site library
[DEBUG] 2018-12-21 01:54:47,911 | /home/babitagujar/frappe-bench/apps/frappe/frappe/utils/scheduler.py:
Site: ekart_site
Queued events for site ekart_site
[DEBUG] 2018-12-21 01:54:47,935 | /home/babitagujar/frappe-bench/apps/frappe/frappe/utils/scheduler.py:
Site: erpnext_site
Queued events for site erpnext_site
[DEBUG] 2018-12-21 01:54:47,979 | /home/babitagujar/frappe-bench/apps/frappe/frappe/utils/scheduler.py:
Site: library
Queued events for site library
[DEBUG] 2018-12-21 01:55:48,063 | /home/babitagujar/frappe-bench/apps/frappe/frappe/utils/scheduler.py:
Site: ekart_site
Queued events for site ekart_site
[DEBUG] 2018-12-21 01:55:48,076 | /home/babitagujar/frappe-bench/apps/frappe/frappe/utils/scheduler.py:
Site: erpnext_site
Queued events for site erpnext_site
[DEBUG] 2018-12-21 01:55:48,088 | /home/babitagujar/frappe-bench/apps/frappe/frappe/utils/scheduler.py:
Site: library
Queued events for site library
[DEBUG] 2018-12-21 01:56:48,166 | /home/babitagujar/frappe-bench/apps/frappe/frappe/utils/scheduler.py:
Site: ekart_site
Queued events for site ekart_site
[DEBUG] 2018-12-21 01:56:48,178 | /home/babitagujar/frappe-bench/apps/frappe/frappe/utils/scheduler.py:
Site: erpnext_site
Queued events for site erpnext_site
[DEBUG] 2018-12-21 01:56:48,190 | /home/babitagujar/frappe-bench/apps/frappe/frappe/utils/scheduler.py:
Site: library
Queued events for site library
[DEBUG] 2018-12-21 01:57:48,274 | /home/babitagujar/frappe-bench/apps/frappe/frappe/utils/scheduler.py:
Site: ekart_site
Queued events for site ekart_site
[DEBUG] 2018-12-21 01:57:48,286 | /home/babitagujar/frappe-bench/apps/frappe/frappe/utils/scheduler.py:
Site: erpnext_site
Queued events for site erpnext_site
[DEBUG] 2018-12-21 01:57:48,298 | /home/babitagujar/frappe-bench/apps/frappe/frappe/utils/scheduler.py:
Site: library
Queued events for site library
[DEBUG] 2018-12-21 01:58:48,403 | /home/babitagujar/frappe-bench/apps/frappe/frappe/utils/scheduler.py:
Site: ekart_site
Queued events for site ekart_site
[DEBUG] 2018-12-21 01:58:48,427 | /home/babitagujar/frappe-bench/apps/frappe/frappe/utils/scheduler.py:
Site: erpnext_site
Queued events for site erpnext_site
[DEBUG] 2018-12-21 01:58:48,467 | /home/babitagujar/frappe-bench/apps/frappe/frappe/utils/scheduler.py:
Site: library
Queued events for site library
[DEBUG] 2018-12-21 01:59:48,554 | /home/babitagujar/frappe-bench/apps/frappe/frappe/utils/scheduler.py:
Site: ekart_site
Queued events for site ekart_site
[DEBUG] 2018-12-21 01:59:48,566 | /home/babitagujar/frappe-bench/apps/frappe/frappe/utils/scheduler.py:
Site: erpnext_site
Queued events for site erpnext_site
[DEBUG] 2018-12-21 01:59:48,579 | /home/babitagujar/frappe-bench/apps/frappe/frappe/utils/scheduler.py:
Site: library
Queued events for site library
[DEBUG] 2018-12-21 02:00:48,666 | /home/babitagujar/frappe-bench/apps/frappe/frappe/utils/scheduler.py:
Site: ekart_site
Queued events for site ekart_site
[DEBUG] 2018-12-21 02:00:48,680 | /home/babitagujar/frappe-bench/apps/frappe/frappe/utils/scheduler.py:
Site: erpnext_site
Queued events for site erpnext_site
[DEBUG] 2018-12-21 02:00:48,694 | /home/babitagujar/frappe-bench/apps/frappe/frappe/utils/scheduler.py:
Site: library
Queued events for site library
[DEBUG] 2018-12-21 02:01:48,774 | /home/babitagujar/frappe-bench/apps/frappe/frappe/utils/scheduler.py:
Site: ekart_site
Queued events for site ekart_site
[DEBUG] 2018-12-21 02:01:48,788 | /home/babitagujar/frappe-bench/apps/frappe/frappe/utils/scheduler.py:
Site: erpnext_site
Queued events for site erpnext_site
[DEBUG] 2018-12-21 02:01:48,803 | /home/babitagujar/frappe-bench/apps/frappe/frappe/utils/scheduler.py:
Site: library
Queued events for site library
[DEBUG] 2018-12-21 02:02:48,911 | /home/babitagujar/frappe-bench/apps/frappe/frappe/utils/scheduler.py:
Site: ekart_site
Queued events for site ekart_site
[DEBUG] 2018-12-21 02:02:48,943 | /home/babitagujar/frappe-bench/apps/frappe/frappe/utils/scheduler.py:
Site: erpnext_site
Queued events for site erpnext_site
[DEBUG] 2018-12-21 02:02:48,993 | /home/babitagujar/frappe-bench/apps/frappe/frappe/utils/scheduler.py:
Site: library
Queued events for site library
[DEBUG] 2018-12-21 02:03:49,082 | /home/babitagujar/frappe-bench/apps/frappe/frappe/utils/scheduler.py:
Site: ekart_site
Queued events for site ekart_site
[DEBUG] 2018-12-21 02:03:49,096 | /home/babitagujar/frappe-bench/apps/frappe/frappe/utils/scheduler.py:
Site: erpnext_site
Queued events for site erpnext_site
[DEBUG] 2018-12-21 02:03:49,115 | /home/babitagujar/frappe-bench/apps/frappe/frappe/utils/scheduler.py:
Site: library
Queued events for site library
[DEBUG] 2018-12-21 02:04:49,202 | /home/babitagujar/frappe-bench/apps/frappe/frappe/utils/scheduler.py:
Site: ekart_site
Queued events for site ekart_site
[DEBUG] 2018-12-21 02:04:49,215 | /home/babitagujar/frappe-bench/apps/frappe/frappe/utils/scheduler.py:
Site: erpnext_site
Queued events for site erpnext_site
[DEBUG] 2018-12-21 02:04:49,227 | /home/babitagujar/frappe-bench/apps/frappe/frappe/utils/scheduler.py:
Site: library
Queued events for site library
[DEBUG] 2018-12-21 02:05:49,311 | /home/babitagujar/frappe-bench/apps/frappe/frappe/utils/scheduler.py:
Site: ekart_site
Queued events for site ekart_site
[DEBUG] 2018-12-21 02:05:49,324 | /home/babitagujar/frappe-bench/apps/frappe/frappe/utils/scheduler.py:
Site: erpnext_site
Queued events for site erpnext_site
[DEBUG] 2018-12-21 02:05:49,336 | /home/babitagujar/frappe-bench/apps/frappe/frappe/utils/scheduler.py:
Site: library
Queued events for site library
[DEBUG] 2018-12-21 02:06:49,441 | /home/babitagujar/frappe-bench/apps/frappe/frappe/utils/scheduler.py:
Site: ekart_site
Queued events for site ekart_site
[DEBUG] 2018-12-21 02:06:49,475 | /home/babitagujar/frappe-bench/apps/frappe/frappe/utils/scheduler.py:
Site: erpnext_site
Queued events for site erpnext_site
[DEBUG] 2018-12-21 02:06:49,529 | /home/babitagujar/frappe-bench/apps/frappe/frappe/utils/scheduler.py:
Site: library
Queued events for site library
[DEBUG] 2018-12-21 02:07:49,615 | /home/babitagujar/frappe-bench/apps/frappe/frappe/utils/scheduler.py:
Site: ekart_site
Queued events for site ekart_site
[DEBUG] 2018-12-21 02:07:49,629 | /home/babitagujar/frappe-bench/apps/frappe/frappe/utils/scheduler.py:
Site: erpnext_site
Queued events for site erpnext_site
[DEBUG] 2018-12-21 02:07:49,643 | /home/babitagujar/frappe-bench/apps/frappe/frappe/utils/scheduler.py:
Site: library
Queued events for site library
[DEBUG] 2018-12-21 02:08:49,728 | /home/babitagujar/frappe-bench/apps/frappe/frappe/utils/scheduler.py:
Site: ekart_site
Queued events for site ekart_site
[DEBUG] 2018-12-21 02:08:49,740 | /home/babitagujar/frappe-bench/apps/frappe/frappe/utils/scheduler.py:
Site: erpnext_site
Queued events for site erpnext_site
[DEBUG] 2018-12-21 02:08:49,753 | /home/babitagujar/frappe-bench/apps/frappe/frappe/utils/scheduler.py:
Site: library
Queued events for site library
[DEBUG] 2018-12-21 02:09:49,838 | /home/babitagujar/frappe-bench/apps/frappe/frappe/utils/scheduler.py:
Site: ekart_site
Queued events for site ekart_site
[DEBUG] 2018-12-21 02:09:49,851 | /home/babitagujar/frappe-bench/apps/frappe/frappe/utils/scheduler.py:
Site: erpnext_site
Queued events for site erpnext_site
[DEBUG] 2018-12-21 02:09:49,864 | /home/babitagujar/frappe-bench/apps/frappe/frappe/utils/scheduler.py:
Site: library
Queued events for site library
[DEBUG] 2018-12-21 02:10:49,935 | /home/babitagujar/frappe-bench/apps/frappe/frappe/utils/scheduler.py:
Site: ekart_site
Queued events for site ekart_site
[DEBUG] 2018-12-21 02:10:49,960 | /home/babitagujar/frappe-bench/apps/frappe/frappe/utils/scheduler.py:
Site: erpnext_site
Queued events for site erpnext_site
[DEBUG] 2018-12-21 02:10:50,002 | /home/babitagujar/frappe-bench/apps/frappe/frappe/utils/scheduler.py:
Site: library
Queued events for site library
[DEBUG] 2018-12-21 02:11:50,088 | /home/babitagujar/frappe-bench/apps/frappe/frappe/utils/scheduler.py:
Site: ekart_site
Queued events for site ekart_site
[DEBUG] 2018-12-21 02:11:50,100 | /home/babitagujar/frappe-bench/apps/frappe/frappe/utils/scheduler.py:
Site: erpnext_site
Queued events for site erpnext_site
[DEBUG] 2018-12-21 02:11:50,112 | /home/babitagujar/frappe-bench/apps/frappe/frappe/utils/scheduler.py:
Site: library
Queued events for site library
[DEBUG] 2018-12-21 02:12:50,201 | /home/babitagujar/frappe-bench/apps/frappe/frappe/utils/scheduler.py:
Site: ekart_site
Queued events for site ekart_site
[DEBUG] 2018-12-21 02:12:50,216 | /home/babitagujar/frappe-bench/apps/frappe/frappe/utils/scheduler.py:
Site: erpnext_site
Queued events for site erpnext_site
[DEBUG] 2018-12-21 02:12:50,229 | /home/babitagujar/frappe-bench/apps/frappe/frappe/utils/scheduler.py:
Site: library
Queued events for site library
[DEBUG] 2018-12-21 02:13:50,317 | /home/babitagujar/frappe-bench/apps/frappe/frappe/utils/scheduler.py:
Site: ekart_site
Queued events for site ekart_site
[DEBUG] 2018-12-21 02:13:50,329 | /home/babitagujar/frappe-bench/apps/frappe/frappe/utils/scheduler.py:
Site: erpnext_site
Queued events for site erpnext_site
[DEBUG] 2018-12-21 02:13:50,341 | /home/babitagujar/frappe-bench/apps/frappe/frappe/utils/scheduler.py:
Site: library
Queued events for site library
[DEBUG] 2018-12-21 02:14:50,447 | /home/babitagujar/frappe-bench/apps/frappe/frappe/utils/scheduler.py:
Site: ekart_site
Queued events for site ekart_site
[DEBUG] 2018-12-21 02:14:50,480 | /home/babitagujar/frappe-bench/apps/frappe/frappe/utils/scheduler.py:
Site: erpnext_site
Queued events for site erpnext_site
[DEBUG] 2018-12-21 02:14:50,534 | /home/babitagujar/frappe-bench/apps/frappe/frappe/utils/scheduler.py:
Site: library
Queued events for site library
[DEBUG] 2018-12-21 02:15:50,623 | /home/babitagujar/frappe-bench/apps/frappe/frappe/utils/scheduler.py:
Site: ekart_site
Queued events for site ekart_site
[DEBUG] 2018-12-21 02:15:50,636 | /home/babitagujar/frappe-bench/apps/frappe/frappe/utils/scheduler.py:
Site: erpnext_site
Queued events for site erpnext_site
[DEBUG] 2018-12-21 02:15:50,659 | /home/babitagujar/frappe-bench/apps/frappe/frappe/utils/scheduler.py:
Site: library
Queued events for site library
[DEBUG] 2018-12-21 02:16:50,745 | /home/babitagujar/frappe-bench/apps/frappe/frappe/utils/scheduler.py:
Site: ekart_site
Queued events for site ekart_site
[DEBUG] 2018-12-21 02:16:50,759 | /home/babitagujar/frappe-bench/apps/frappe/frappe/utils/scheduler.py:
Site: erpnext_site
Queued events for site erpnext_site
[DEBUG] 2018-12-21 02:16:50,772 | /home/babitagujar/frappe-bench/apps/frappe/frappe/utils/scheduler.py:
Site: library
Queued events for site library
[DEBUG] 2018-12-21 02:17:50,867 | /home/babitagujar/frappe-bench/apps/frappe/frappe/utils/scheduler.py:
Site: ekart_site
Queued events for site ekart_site
[DEBUG] 2018-12-21 02:17:50,885 | /home/babitagujar/frappe-bench/apps/frappe/frappe/utils/scheduler.py:
Site: erpnext_site
Queued events for site erpnext_site
[DEBUG] 2018-12-21 02:17:50,904 | /home/babitagujar/frappe-bench/apps/frappe/frappe/utils/scheduler.py:
Site: library
Queued events for site library
[DEBUG] 2018-12-21 02:18:51,014 | /home/babitagujar/frappe-bench/apps/frappe/frappe/utils/scheduler.py:
Site: ekart_site
Queued events for site ekart_site
[DEBUG] 2018-12-21 02:18:51,047 | /home/babitagujar/frappe-bench/apps/frappe/frappe/utils/scheduler.py:
Site: erpnext_site
Queued events for site erpnext_site
[DEBUG] 2018-12-21 02:18:51,101 | /home/babitagujar/frappe-bench/apps/frappe/frappe/utils/scheduler.py:
Site: library
Queued events for site library
[DEBUG] 2018-12-21 02:19:51,188 | /home/babitagujar/frappe-bench/apps/frappe/frappe/utils/scheduler.py:
Site: ekart_site
Queued events for site ekart_site
[DEBUG] 2018-12-21 02:19:51,201 | /home/babitagujar/frappe-bench/apps/frappe/frappe/utils/scheduler.py:
Site: erpnext_site
Queued events for site erpnext_site
[DEBUG] 2018-12-21 02:19:51,214 | /home/babitagujar/frappe-bench/apps/frappe/frappe/utils/scheduler.py:
Site: library
Queued events for site library
[DEBUG] 2018-12-21 02:20:51,299 | /home/babitagujar/frappe-bench/apps/frappe/frappe/utils/scheduler.py:
Site: ekart_site
Queued events for site ekart_site
[DEBUG] 2018-12-21 02:20:51,312 | /home/babitagujar/frappe-bench/apps/frappe/frappe/utils/scheduler.py:
Site: erpnext_site
Queued events for site erpnext_site
[DEBUG] 2018-12-21 02:20:51,324 | /home/babitagujar/frappe-bench/apps/frappe/frappe/utils/scheduler.py:
Site: library
Queued events for site library
[DEBUG] 2018-12-21 02:21:51,404 | /home/babitagujar/frappe-bench/apps/frappe/frappe/utils/scheduler.py:
Site: ekart_site
Queued events for site ekart_site
[DEBUG] 2018-12-21 02:21:51,418 | /home/babitagujar/frappe-bench/apps/frappe/frappe/utils/scheduler.py:
Site: erpnext_site
Queued events for site erpnext_site
[DEBUG] 2018-12-21 02:21:51,431 | /home/babitagujar/frappe-bench/apps/frappe/frappe/utils/scheduler.py:
Site: library
Queued events for site library
[DEBUG] 2018-12-21 02:22:51,542 | /home/babitagujar/frappe-bench/apps/frappe/frappe/utils/scheduler.py:
Site: ekart_site
Queued events for site ekart_site
[DEBUG] 2018-12-21 02:22:51,575 | /home/babitagujar/frappe-bench/apps/frappe/frappe/utils/scheduler.py:
Site: erpnext_site
Queued events for site erpnext_site
[DEBUG] 2018-12-21 02:22:51,626 | /home/babitagujar/frappe-bench/apps/frappe/frappe/utils/scheduler.py:
Site: library
Queued events for site library
[DEBUG] 2018-12-21 02:23:51,713 | /home/babitagujar/frappe-bench/apps/frappe/frappe/utils/scheduler.py:
Site: ekart_site
Queued events for site ekart_site
[DEBUG] 2018-12-21 02:23:51,727 | /home/babitagujar/frappe-bench/apps/frappe/frappe/utils/scheduler.py:
Site: erpnext_site
Queued events for site erpnext_site
[DEBUG] 2018-12-21 02:23:51,741 | /home/babitagujar/frappe-bench/apps/frappe/frappe/utils/scheduler.py:
Site: library
Queued events for site library
[DEBUG] 2018-12-21 02:24:51,828 | /home/babitagujar/frappe-bench/apps/frappe/frappe/utils/scheduler.py:
Site: ekart_site
Queued events for site ekart_site
[DEBUG] 2018-12-21 02:24:51,839 | /home/babitagujar/frappe-bench/apps/frappe/frappe/utils/scheduler.py:
Site: erpnext_site
Queued events for site erpnext_site
[DEBUG] 2018-12-21 02:24:51,854 | /home/babitagujar/frappe-bench/apps/frappe/frappe/utils/scheduler.py:
Site: library
Queued events for site library
[DEBUG] 2018-12-21 02:25:51,938 | /home/babitagujar/frappe-bench/apps/frappe/frappe/utils/scheduler.py:
Site: ekart_site
Queued events for site ekart_site
[DEBUG] 2018-12-21 02:25:51,952 | /home/babitagujar/frappe-bench/apps/frappe/frappe/utils/scheduler.py:
Site: erpnext_site
Queued events for site erpnext_site
[DEBUG] 2018-12-21 02:25:51,965 | /home/babitagujar/frappe-bench/apps/frappe/frappe/utils/scheduler.py:
Site: library
Queued events for site library
[DEBUG] 2018-12-21 02:26:52,072 | /home/babitagujar/frappe-bench/apps/frappe/frappe/utils/scheduler.py:
Site: ekart_site
Queued events for site ekart_site
[DEBUG] 2018-12-21 02:26:52,094 | /home/babitagujar/frappe-bench/apps/frappe/frappe/utils/scheduler.py:
Site: erpnext_site
Queued events for site erpnext_site
[DEBUG] 2018-12-21 02:26:52,132 | /home/babitagujar/frappe-bench/apps/frappe/frappe/utils/scheduler.py:
Site: library
Queued events for site library
[DEBUG] 2018-12-21 02:27:52,220 | /home/babitagujar/frappe-bench/apps/frappe/frappe/utils/scheduler.py:
Site: ekart_site
Queued events for site ekart_site
[DEBUG] 2018-12-21 02:27:52,235 | /home/babitagujar/frappe-bench/apps/frappe/frappe/utils/scheduler.py:
Site: erpnext_site
Queued events for site erpnext_site
[DEBUG] 2018-12-21 02:27:52,248 | /home/babitagujar/frappe-bench/apps/frappe/frappe/utils/scheduler.py:
Site: library
Queued events for site library
[DEBUG] 2018-12-21 02:28:52,335 | /home/babitagujar/frappe-bench/apps/frappe/frappe/utils/scheduler.py:
Site: ekart_site
Queued events for site ekart_site
[DEBUG] 2018-12-21 02:28:52,349 | /home/babitagujar/frappe-bench/apps/frappe/frappe/utils/scheduler.py:
Site: erpnext_site
Queued events for site erpnext_site
[DEBUG] 2018-12-21 02:28:52,363 | /home/babitagujar/frappe-bench/apps/frappe/frappe/utils/scheduler.py:
Site: library
Queued events for site library
[DEBUG] 2018-12-21 02:29:52,451 | /home/babitagujar/frappe-bench/apps/frappe/frappe/utils/scheduler.py:
Site: ekart_site
Queued events for site ekart_site
[DEBUG] 2018-12-21 02:29:52,463 | /home/babitagujar/frappe-bench/apps/frappe/frappe/utils/scheduler.py:
Site: erpnext_site
Queued events for site erpnext_site
[DEBUG] 2018-12-21 02:29:52,475 | /home/babitagujar/frappe-bench/apps/frappe/frappe/utils/scheduler.py:
Site: library
Queued events for site library
[DEBUG] 2018-12-21 02:30:52,585 | /home/babitagujar/frappe-bench/apps/frappe/frappe/utils/scheduler.py:
Site: ekart_site
Queued events for site ekart_site
[DEBUG] 2018-12-21 02:30:52,641 | /home/babitagujar/frappe-bench/apps/frappe/frappe/utils/scheduler.py:
Site: erpnext_site
Queued events for site erpnext_site
[DEBUG] 2018-12-21 02:30:52,706 | /home/babitagujar/frappe-bench/apps/frappe/frappe/utils/scheduler.py:
Site: library
Queued events for site library
[DEBUG] 2018-12-21 02:31:52,791 | /home/babitagujar/frappe-bench/apps/frappe/frappe/utils/scheduler.py:
Site: ekart_site
Queued events for site ekart_site
[DEBUG] 2018-12-21 02:31:52,806 | /home/babitagujar/frappe-bench/apps/frappe/frappe/utils/scheduler.py:
Site: erpnext_site
Queued events for site erpnext_site
[DEBUG] 2018-12-21 02:31:52,819 | /home/babitagujar/frappe-bench/apps/frappe/frappe/utils/scheduler.py:
Site: library
Queued events for site library
[DEBUG] 2018-12-21 02:32:52,904 | /home/babitagujar/frappe-bench/apps/frappe/frappe/utils/scheduler.py:
Site: ekart_site
Queued events for site ekart_site
[DEBUG] 2018-12-21 02:32:52,916 | /home/babitagujar/frappe-bench/apps/frappe/frappe/utils/scheduler.py:
Site: erpnext_site
Queued events for site erpnext_site
[DEBUG] 2018-12-21 02:32:52,928 | /home/babitagujar/frappe-bench/apps/frappe/frappe/utils/scheduler.py:
Site: library
Queued events for site library
[DEBUG] 2018-12-21 02:33:53,021 | /home/babitagujar/frappe-bench/apps/frappe/frappe/utils/scheduler.py:
Site: ekart_site
Queued events for site ekart_site
[DEBUG] 2018-12-21 02:33:53,041 | /home/babitagujar/frappe-bench/apps/frappe/frappe/utils/scheduler.py:
Site: erpnext_site
Queued events for site erpnext_site
[DEBUG] 2018-12-21 02:33:53,061 | /home/babitagujar/frappe-bench/apps/frappe/frappe/utils/scheduler.py:
Site: library
Queued events for site library
[DEBUG] 2018-12-21 02:34:53,165 | /home/babitagujar/frappe-bench/apps/frappe/frappe/utils/scheduler.py:
Site: ekart_site
Queued events for site ekart_site
[DEBUG] 2018-12-21 02:34:53,191 | /home/babitagujar/frappe-bench/apps/frappe/frappe/utils/scheduler.py:
Site: erpnext_site
Queued events for site erpnext_site
[DEBUG] 2018-12-21 02:34:53,230 | /home/babitagujar/frappe-bench/apps/frappe/frappe/utils/scheduler.py:
Site: library
Queued events for site library
[DEBUG] 2018-12-21 02:35:53,315 | /home/babitagujar/frappe-bench/apps/frappe/frappe/utils/scheduler.py:
Site: ekart_site
Queued events for site ekart_site
[DEBUG] 2018-12-21 02:35:53,327 | /home/babitagujar/frappe-bench/apps/frappe/frappe/utils/scheduler.py:
Site: erpnext_site
Queued events for site erpnext_site
[DEBUG] 2018-12-21 02:35:53,339 | /home/babitagujar/frappe-bench/apps/frappe/frappe/utils/scheduler.py:
Site: library
Queued events for site library
[DEBUG] 2018-12-21 02:36:53,419 | /home/babitagujar/frappe-bench/apps/frappe/frappe/utils/scheduler.py:
Site: ekart_site
Queued events for site ekart_site
[DEBUG] 2018-12-21 02:36:53,432 | /home/babitagujar/frappe-bench/apps/frappe/frappe/utils/scheduler.py:
Site: erpnext_site
Queued events for site erpnext_site
[DEBUG] 2018-12-21 02:36:53,445 | /home/babitagujar/frappe-bench/apps/frappe/frappe/utils/scheduler.py:
Site: library
Queued events for site library
[DEBUG] 2018-12-21 02:37:53,533 | /home/babitagujar/frappe-bench/apps/frappe/frappe/utils/scheduler.py:
Site: ekart_site
Queued events for site ekart_site
[DEBUG] 2018-12-21 02:37:53,547 | /home/babitagujar/frappe-bench/apps/frappe/frappe/utils/scheduler.py:
Site: erpnext_site
Queued events for site erpnext_site
[DEBUG] 2018-12-21 02:37:53,560 | /home/babitagujar/frappe-bench/apps/frappe/frappe/utils/scheduler.py:
Site: library
Queued events for site library
[DEBUG] 2018-12-21 02:38:53,670 | /home/babitagujar/frappe-bench/apps/frappe/frappe/utils/scheduler.py:
Site: ekart_site
Queued events for site ekart_site
[DEBUG] 2018-12-21 02:38:53,707 | /home/babitagujar/frappe-bench/apps/frappe/frappe/utils/scheduler.py:
Site: erpnext_site
Queued events for site erpnext_site
[DEBUG] 2018-12-21 02:38:53,763 | /home/babitagujar/frappe-bench/apps/frappe/frappe/utils/scheduler.py:
Site: library
Queued events for site library
[DEBUG] 2018-12-21 02:39:53,850 | /home/babitagujar/frappe-bench/apps/frappe/frappe/utils/scheduler.py:
Site: ekart_site
Queued events for site ekart_site
[DEBUG] 2018-12-21 02:39:53,864 | /home/babitagujar/frappe-bench/apps/frappe/frappe/utils/scheduler.py:
Site: erpnext_site
Queued events for site erpnext_site
[DEBUG] 2018-12-21 02:39:53,877 | /home/babitagujar/frappe-bench/apps/frappe/frappe/utils/scheduler.py:
Site: library
Queued events for site library
[DEBUG] 2018-12-21 02:40:53,965 | /home/babitagujar/frappe-bench/apps/frappe/frappe/utils/scheduler.py:
Site: ekart_site
Queued events for site ekart_site
[DEBUG] 2018-12-21 02:40:53,979 | /home/babitagujar/frappe-bench/apps/frappe/frappe/utils/scheduler.py:
Site: erpnext_site
Queued events for site erpnext_site
[DEBUG] 2018-12-21 02:40:53,994 | /home/babitagujar/frappe-bench/apps/frappe/frappe/utils/scheduler.py:
Site: library
Queued events for site library
[DEBUG] 2018-12-21 02:41:54,080 | /home/babitagujar/frappe-bench/apps/frappe/frappe/utils/scheduler.py:
Site: ekart_site
Queued events for site ekart_site
[DEBUG] 2018-12-21 02:41:54,092 | /home/babitagujar/frappe-bench/apps/frappe/frappe/utils/scheduler.py:
Site: erpnext_site
Queued events for site erpnext_site
[DEBUG] 2018-12-21 02:41:54,104 | /home/babitagujar/frappe-bench/apps/frappe/frappe/utils/scheduler.py:
Site: library
Queued events for site library
[DEBUG] 2018-12-21 02:42:54,208 | /home/babitagujar/frappe-bench/apps/frappe/frappe/utils/scheduler.py:
Site: ekart_site
Queued events for site ekart_site
[DEBUG] 2018-12-21 02:42:54,234 | /home/babitagujar/frappe-bench/apps/frappe/frappe/utils/scheduler.py:
Site: erpnext_site
Queued events for site erpnext_site
[DEBUG] 2018-12-21 02:42:54,277 | /home/babitagujar/frappe-bench/apps/frappe/frappe/utils/scheduler.py:
Site: library
Queued events for site library
[DEBUG] 2018-12-21 02:43:54,364 | /home/babitagujar/frappe-bench/apps/frappe/frappe/utils/scheduler.py:
Site: ekart_site
Queued events for site ekart_site
[DEBUG] 2018-12-21 02:43:54,378 | /home/babitagujar/frappe-bench/apps/frappe/frappe/utils/scheduler.py:
Site: erpnext_site
Queued events for site erpnext_site
[DEBUG] 2018-12-21 02:43:54,391 | /home/babitagujar/frappe-bench/apps/frappe/frappe/utils/scheduler.py:
Site: library
Queued events for site library
[DEBUG] 2018-12-21 02:44:54,479 | /home/babitagujar/frappe-bench/apps/frappe/frappe/utils/scheduler.py:
Site: ekart_site
Queued events for site ekart_site
[DEBUG] 2018-12-21 02:44:54,492 | /home/babitagujar/frappe-bench/apps/frappe/frappe/utils/scheduler.py:
Site: erpnext_site
Queued events for site erpnext_site
[DEBUG] 2018-12-21 02:44:54,506 | /home/babitagujar/frappe-bench/apps/frappe/frappe/utils/scheduler.py:
Site: library
Queued events for site library
[DEBUG] 2018-12-21 02:45:54,570 | /home/babitagujar/frappe-bench/apps/frappe/frappe/utils/scheduler.py:
Site: ekart_site
Queued events for site ekart_site
[DEBUG] 2018-12-21 02:45:54,582 | /home/babitagujar/frappe-bench/apps/frappe/frappe/utils/scheduler.py:
Site: erpnext_site
Queued events for site erpnext_site
[DEBUG] 2018-12-21 02:45:54,593 | /home/babitagujar/frappe-bench/apps/frappe/frappe/utils/scheduler.py:
Site: library
Queued events for site library
[DEBUG] 2018-12-21 02:46:54,696 | /home/babitagujar/frappe-bench/apps/frappe/frappe/utils/scheduler.py:
Site: ekart_site
Queued events for site ekart_site
[DEBUG] 2018-12-21 02:46:54,727 | /home/babitagujar/frappe-bench/apps/frappe/frappe/utils/scheduler.py:
Site: erpnext_site
Queued events for site erpnext_site
[DEBUG] 2018-12-21 02:46:54,782 | /home/babitagujar/frappe-bench/apps/frappe/frappe/utils/scheduler.py:
Site: library
Queued events for site library
[DEBUG] 2018-12-21 02:47:54,869 | /home/babitagujar/frappe-bench/apps/frappe/frappe/utils/scheduler.py:
Site: ekart_site
Queued events for site ekart_site
[DEBUG] 2018-12-21 02:47:54,881 | /home/babitagujar/frappe-bench/apps/frappe/frappe/utils/scheduler.py:
Site: erpnext_site
Queued events for site erpnext_site
[DEBUG] 2018-12-21 02:47:54,892 | /home/babitagujar/frappe-bench/apps/frappe/frappe/utils/scheduler.py:
Site: library
Queued events for site library
[DEBUG] 2018-12-21 02:48:54,982 | /home/babitagujar/frappe-bench/apps/frappe/frappe/utils/scheduler.py:
Site: ekart_site
Queued events for site ekart_site
[DEBUG] 2018-12-21 02:48:54,999 | /home/babitagujar/frappe-bench/apps/frappe/frappe/utils/scheduler.py:
Site: erpnext_site
Queued events for site erpnext_site
[DEBUG] 2018-12-21 02:48:55,016 | /home/babitagujar/frappe-bench/apps/frappe/frappe/utils/scheduler.py:
Site: library
Queued events for site library
[DEBUG] 2018-12-21 02:49:55,102 | /home/babitagujar/frappe-bench/apps/frappe/frappe/utils/scheduler.py:
Site: ekart_site
Queued events for site ekart_site
[DEBUG] 2018-12-21 02:49:55,114 | /home/babitagujar/frappe-bench/apps/frappe/frappe/utils/scheduler.py:
Site: erpnext_site
Queued events for site erpnext_site
[DEBUG] 2018-12-21 02:49:55,126 | /home/babitagujar/frappe-bench/apps/frappe/frappe/utils/scheduler.py:
Site: library
Queued events for site library
[DEBUG] 2018-12-21 02:50:55,232 | /home/babitagujar/frappe-bench/apps/frappe/frappe/utils/scheduler.py:
Site: ekart_site
Queued events for site ekart_site
[DEBUG] 2018-12-21 02:50:55,264 | /home/babitagujar/frappe-bench/apps/frappe/frappe/utils/scheduler.py:
Site: erpnext_site
Queued events for site erpnext_site
[DEBUG] 2018-12-21 02:50:55,316 | /home/babitagujar/frappe-bench/apps/frappe/frappe/utils/scheduler.py:
Site: library
Queued events for site library
[DEBUG] 2018-12-21 02:51:55,402 | /home/babitagujar/frappe-bench/apps/frappe/frappe/utils/scheduler.py:
Site: ekart_site
Queued events for site ekart_site
[DEBUG] 2018-12-21 02:51:55,414 | /home/babitagujar/frappe-bench/apps/frappe/frappe/utils/scheduler.py:
Site: erpnext_site
Queued events for site erpnext_site
[DEBUG] 2018-12-21 02:51:55,426 | /home/babitagujar/frappe-bench/apps/frappe/frappe/utils/scheduler.py:
Site: library
Queued events for site library
[DEBUG] 2018-12-21 02:52:55,510 | /home/babitagujar/frappe-bench/apps/frappe/frappe/utils/scheduler.py:
Site: ekart_site
Queued events for site ekart_site
[DEBUG] 2018-12-21 02:52:55,522 | /home/babitagujar/frappe-bench/apps/frappe/frappe/utils/scheduler.py:
Site: erpnext_site
Queued events for site erpnext_site
[DEBUG] 2018-12-21 02:52:55,534 | /home/babitagujar/frappe-bench/apps/frappe/frappe/utils/scheduler.py:
Site: library
Queued events for site library
[DEBUG] 2018-12-21 02:53:55,621 | /home/babitagujar/frappe-bench/apps/frappe/frappe/utils/scheduler.py:
Site: ekart_site
Queued events for site ekart_site
[DEBUG] 2018-12-21 02:53:55,635 | /home/babitagujar/frappe-bench/apps/frappe/frappe/utils/scheduler.py:
Site: erpnext_site
Queued events for site erpnext_site
[DEBUG] 2018-12-21 02:53:55,648 | /home/babitagujar/frappe-bench/apps/frappe/frappe/utils/scheduler.py:
Site: library
Queued events for site library
[DEBUG] 2018-12-21 02:54:55,747 | /home/babitagujar/frappe-bench/apps/frappe/frappe/utils/scheduler.py:
Site: ekart_site
Queued events for site ekart_site
[DEBUG] 2018-12-21 02:54:55,771 | /home/babitagujar/frappe-bench/apps/frappe/frappe/utils/scheduler.py:
Site: erpnext_site
Queued events for site erpnext_site
[DEBUG] 2018-12-21 02:54:55,811 | /home/babitagujar/frappe-bench/apps/frappe/frappe/utils/scheduler.py:
Site: library
Queued events for site library
[DEBUG] 2018-12-21 02:55:55,899 | /home/babitagujar/frappe-bench/apps/frappe/frappe/utils/scheduler.py:
Site: ekart_site
Queued events for site ekart_site
[DEBUG] 2018-12-21 02:55:55,913 | /home/babitagujar/frappe-bench/apps/frappe/frappe/utils/scheduler.py:
Site: erpnext_site
Queued events for site erpnext_site
[DEBUG] 2018-12-21 02:55:55,928 | /home/babitagujar/frappe-bench/apps/frappe/frappe/utils/scheduler.py:
Site: library
Queued events for site library
[DEBUG] 2018-12-21 02:56:56,022 | /home/babitagujar/frappe-bench/apps/frappe/frappe/utils/scheduler.py:
Site: ekart_site
Queued events for site ekart_site
[DEBUG] 2018-12-21 02:56:56,037 | /home/babitagujar/frappe-bench/apps/frappe/frappe/utils/scheduler.py:
Site: erpnext_site
Queued events for site erpnext_site
[DEBUG] 2018-12-21 02:56:56,050 | /home/babitagujar/frappe-bench/apps/frappe/frappe/utils/scheduler.py:
Site: library
Queued events for site library
[DEBUG] 2018-12-21 02:57:56,135 | /home/babitagujar/frappe-bench/apps/frappe/frappe/utils/scheduler.py:
Site: ekart_site
Queued events for site ekart_site
[DEBUG] 2018-12-21 02:57:56,147 | /home/babitagujar/frappe-bench/apps/frappe/frappe/utils/scheduler.py:
Site: erpnext_site
Queued events for site erpnext_site
[DEBUG] 2018-12-21 02:57:56,159 | /home/babitagujar/frappe-bench/apps/frappe/frappe/utils/scheduler.py:
Site: library
Queued events for site library
[DEBUG] 2018-12-21 02:58:56,265 | /home/babitagujar/frappe-bench/apps/frappe/frappe/utils/scheduler.py:
Site: ekart_site
Queued events for site ekart_site
[DEBUG] 2018-12-21 02:58:56,298 | /home/babitagujar/frappe-bench/apps/frappe/frappe/utils/scheduler.py:
Site: erpnext_site
Queued events for site erpnext_site
[DEBUG] 2018-12-21 02:58:56,349 | /home/babitagujar/frappe-bench/apps/frappe/frappe/utils/scheduler.py:
Site: library
Queued events for site library
[DEBUG] 2018-12-21 02:59:56,437 | /home/babitagujar/frappe-bench/apps/frappe/frappe/utils/scheduler.py:
Site: ekart_site
Queued events for site ekart_site
[DEBUG] 2018-12-21 02:59:56,450 | /home/babitagujar/frappe-bench/apps/frappe/frappe/utils/scheduler.py:
Site: erpnext_site
Queued events for site erpnext_site
[DEBUG] 2018-12-21 02:59:56,464 | /home/babitagujar/frappe-bench/apps/frappe/frappe/utils/scheduler.py:
Site: library
Queued events for site library
[DEBUG] 2018-12-21 03:00:56,553 | /home/babitagujar/frappe-bench/apps/frappe/frappe/utils/scheduler.py:
Site: ekart_site
Queued events for site ekart_site
[DEBUG] 2018-12-21 03:00:56,569 | /home/babitagujar/frappe-bench/apps/frappe/frappe/utils/scheduler.py:
Site: erpnext_site
Queued events for site erpnext_site
[DEBUG] 2018-12-21 03:00:56,583 | /home/babitagujar/frappe-bench/apps/frappe/frappe/utils/scheduler.py:
Site: library
Queued events for site library
[DEBUG] 2018-12-21 03:01:56,669 | /home/babitagujar/frappe-bench/apps/frappe/frappe/utils/scheduler.py:
Site: ekart_site
Queued events for site ekart_site
[DEBUG] 2018-12-21 03:01:56,684 | /home/babitagujar/frappe-bench/apps/frappe/frappe/utils/scheduler.py:
Site: erpnext_site
Queued events for site erpnext_site
[DEBUG] 2018-12-21 03:01:56,697 | /home/babitagujar/frappe-bench/apps/frappe/frappe/utils/scheduler.py:
Site: library
Queued events for site library
[DEBUG] 2018-12-21 03:02:56,806 | /home/babitagujar/frappe-bench/apps/frappe/frappe/utils/scheduler.py:
Site: ekart_site
Queued events for site ekart_site
[DEBUG] 2018-12-21 03:02:56,832 | /home/babitagujar/frappe-bench/apps/frappe/frappe/utils/scheduler.py:
Site: erpnext_site
Queued events for site erpnext_site
[DEBUG] 2018-12-21 03:02:56,878 | /home/babitagujar/frappe-bench/apps/frappe/frappe/utils/scheduler.py:
Site: library
Queued events for site library
[DEBUG] 2018-12-21 03:03:56,967 | /home/babitagujar/frappe-bench/apps/frappe/frappe/utils/scheduler.py:
Site: ekart_site
Queued events for site ekart_site
[DEBUG] 2018-12-21 03:03:56,981 | /home/babitagujar/frappe-bench/apps/frappe/frappe/utils/scheduler.py:
Site: erpnext_site
Queued events for site erpnext_site
[DEBUG] 2018-12-21 03:03:56,995 | /home/babitagujar/frappe-bench/apps/frappe/frappe/utils/scheduler.py:
Site: library
Queued events for site library
[DEBUG] 2018-12-21 03:04:57,084 | /home/babitagujar/frappe-bench/apps/frappe/frappe/utils/scheduler.py:
Site: ekart_site
Queued events for site ekart_site
[DEBUG] 2018-12-21 03:04:57,098 | /home/babitagujar/frappe-bench/apps/frappe/frappe/utils/scheduler.py:
Site: erpnext_site
Queued events for site erpnext_site
[DEBUG] 2018-12-21 03:04:57,111 | /home/babitagujar/frappe-bench/apps/frappe/frappe/utils/scheduler.py:
Site: library
Queued events for site library
[DEBUG] 2018-12-21 03:05:57,202 | /home/babitagujar/frappe-bench/apps/frappe/frappe/utils/scheduler.py:
Site: ekart_site
Queued events for site ekart_site
[DEBUG] 2018-12-21 03:05:57,215 | /home/babitagujar/frappe-bench/apps/frappe/frappe/utils/scheduler.py:
Site: erpnext_site
Queued events for site erpnext_site
[DEBUG] 2018-12-21 03:05:57,228 | /home/babitagujar/frappe-bench/apps/frappe/frappe/utils/scheduler.py:
Site: library
Queued events for site library
[DEBUG] 2018-12-21 03:06:57,333 | /home/babitagujar/frappe-bench/apps/frappe/frappe/utils/scheduler.py:
Site: ekart_site
Queued events for site ekart_site
[DEBUG] 2018-12-21 03:06:57,363 | /home/babitagujar/frappe-bench/apps/frappe/frappe/utils/scheduler.py:
Site: erpnext_site
Queued events for site erpnext_site
[DEBUG] 2018-12-21 03:06:57,400 | /home/babitagujar/frappe-bench/apps/frappe/frappe/utils/scheduler.py:
Site: library
Queued events for site library
[DEBUG] 2018-12-21 03:07:57,487 | /home/babitagujar/frappe-bench/apps/frappe/frappe/utils/scheduler.py:
Site: ekart_site
Queued events for site ekart_site
[DEBUG] 2018-12-21 03:07:57,500 | /home/babitagujar/frappe-bench/apps/frappe/frappe/utils/scheduler.py:
Site: erpnext_site
Queued events for site erpnext_site
[DEBUG] 2018-12-21 03:07:57,514 | /home/babitagujar/frappe-bench/apps/frappe/frappe/utils/scheduler.py:
Site: library
Queued events for site library
[DEBUG] 2018-12-21 03:08:57,601 | /home/babitagujar/frappe-bench/apps/frappe/frappe/utils/scheduler.py:
Site: ekart_site
Queued events for site ekart_site
[DEBUG] 2018-12-21 03:08:57,613 | /home/babitagujar/frappe-bench/apps/frappe/frappe/utils/scheduler.py:
Site: erpnext_site
Queued events for site erpnext_site
[DEBUG] 2018-12-21 03:08:57,626 | /home/babitagujar/frappe-bench/apps/frappe/frappe/utils/scheduler.py:
Site: library
Queued events for site library
[DEBUG] 2018-12-21 03:09:57,718 | /home/babitagujar/frappe-bench/apps/frappe/frappe/utils/scheduler.py:
Site: ekart_site
Queued events for site ekart_site
[DEBUG] 2018-12-21 03:09:57,733 | /home/babitagujar/frappe-bench/apps/frappe/frappe/utils/scheduler.py:
Site: erpnext_site
Queued events for site erpnext_site
[DEBUG] 2018-12-21 03:09:57,746 | /home/babitagujar/frappe-bench/apps/frappe/frappe/utils/scheduler.py:
Site: library
Queued events for site library
[DEBUG] 2018-12-21 03:10:57,849 | /home/babitagujar/frappe-bench/apps/frappe/frappe/utils/scheduler.py:
Site: ekart_site
Queued events for site ekart_site
[DEBUG] 2018-12-21 03:10:57,884 | /home/babitagujar/frappe-bench/apps/frappe/frappe/utils/scheduler.py:
Site: erpnext_site
Queued events for site erpnext_site
[DEBUG] 2018-12-21 03:10:57,950 | /home/babitagujar/frappe-bench/apps/frappe/frappe/utils/scheduler.py:
Site: library
Queued events for site library
[DEBUG] 2018-12-21 03:11:58,035 | /home/babitagujar/frappe-bench/apps/frappe/frappe/utils/scheduler.py:
Site: ekart_site
Queued events for site ekart_site
[DEBUG] 2018-12-21 03:11:58,048 | /home/babitagujar/frappe-bench/apps/frappe/frappe/utils/scheduler.py:
Site: erpnext_site
Queued events for site erpnext_site
[DEBUG] 2018-12-21 03:11:58,061 | /home/babitagujar/frappe-bench/apps/frappe/frappe/utils/scheduler.py:
Site: library
Queued events for site library
[DEBUG] 2018-12-21 03:12:58,148 | /home/babitagujar/frappe-bench/apps/frappe/frappe/utils/scheduler.py:
Site: ekart_site
Queued events for site ekart_site
[DEBUG] 2018-12-21 03:12:58,160 | /home/babitagujar/frappe-bench/apps/frappe/frappe/utils/scheduler.py:
Site: erpnext_site
Queued events for site erpnext_site
[DEBUG] 2018-12-21 03:12:58,171 | /home/babitagujar/frappe-bench/apps/frappe/frappe/utils/scheduler.py:
Site: library
Queued events for site library
[DEBUG] 2018-12-21 03:13:58,261 | /home/babitagujar/frappe-bench/apps/frappe/frappe/utils/scheduler.py:
Site: ekart_site
Queued events for site ekart_site
[DEBUG] 2018-12-21 03:13:58,276 | /home/babitagujar/frappe-bench/apps/frappe/frappe/utils/scheduler.py:
Site: erpnext_site
Queued events for site erpnext_site
[DEBUG] 2018-12-21 03:13:58,298 | /home/babitagujar/frappe-bench/apps/frappe/frappe/utils/scheduler.py:
Site: library
Queued events for site library
[DEBUG] 2018-12-21 03:14:58,404 | /home/babitagujar/frappe-bench/apps/frappe/frappe/utils/scheduler.py:
Site: ekart_site
Queued events for site ekart_site
[DEBUG] 2018-12-21 03:14:58,437 | /home/babitagujar/frappe-bench/apps/frappe/frappe/utils/scheduler.py:
Site: erpnext_site
Queued events for site erpnext_site
[DEBUG] 2018-12-21 03:14:58,490 | /home/babitagujar/frappe-bench/apps/frappe/frappe/utils/scheduler.py:
Site: library
Queued events for site library
[DEBUG] 2018-12-21 03:15:58,578 | /home/babitagujar/frappe-bench/apps/frappe/frappe/utils/scheduler.py:
Site: ekart_site
Queued events for site ekart_site
[DEBUG] 2018-12-21 03:15:58,591 | /home/babitagujar/frappe-bench/apps/frappe/frappe/utils/scheduler.py:
Site: erpnext_site
Queued events for site erpnext_site
[DEBUG] 2018-12-21 03:15:58,604 | /home/babitagujar/frappe-bench/apps/frappe/frappe/utils/scheduler.py:
Site: library
Queued events for site library
[DEBUG] 2018-12-21 03:16:58,689 | /home/babitagujar/frappe-bench/apps/frappe/frappe/utils/scheduler.py:
Site: ekart_site
Queued events for site ekart_site
[DEBUG] 2018-12-21 03:16:58,701 | /home/babitagujar/frappe-bench/apps/frappe/frappe/utils/scheduler.py:
Site: erpnext_site
Queued events for site erpnext_site
[DEBUG] 2018-12-21 03:16:58,714 | /home/babitagujar/frappe-bench/apps/frappe/frappe/utils/scheduler.py:
Site: library
Queued events for site library
[DEBUG] 2018-12-21 03:17:58,798 | /home/babitagujar/frappe-bench/apps/frappe/frappe/utils/scheduler.py:
Site: ekart_site
Queued events for site ekart_site
[DEBUG] 2018-12-21 03:17:58,810 | /home/babitagujar/frappe-bench/apps/frappe/frappe/utils/scheduler.py:
Site: erpnext_site
Queued events for site erpnext_site
[DEBUG] 2018-12-21 03:17:58,821 | /home/babitagujar/frappe-bench/apps/frappe/frappe/utils/scheduler.py:
Site: library
Queued events for site library
[DEBUG] 2018-12-21 03:18:58,926 | /home/babitagujar/frappe-bench/apps/frappe/frappe/utils/scheduler.py:
Site: ekart_site
Queued events for site ekart_site
[DEBUG] 2018-12-21 03:18:58,959 | /home/babitagujar/frappe-bench/apps/frappe/frappe/utils/scheduler.py:
Site: erpnext_site
Queued events for site erpnext_site
[DEBUG] 2018-12-21 03:18:59,009 | /home/babitagujar/frappe-bench/apps/frappe/frappe/utils/scheduler.py:
Site: library
Queued events for site library
[DEBUG] 2018-12-21 03:19:59,100 | /home/babitagujar/frappe-bench/apps/frappe/frappe/utils/scheduler.py:
Site: ekart_site
Queued events for site ekart_site
[DEBUG] 2018-12-21 03:19:59,116 | /home/babitagujar/frappe-bench/apps/frappe/frappe/utils/scheduler.py:
Site: erpnext_site
Queued events for site erpnext_site
[DEBUG] 2018-12-21 03:19:59,133 | /home/babitagujar/frappe-bench/apps/frappe/frappe/utils/scheduler.py:
Site: library
Queued events for site library
[DEBUG] 2018-12-21 03:20:59,216 | /home/babitagujar/frappe-bench/apps/frappe/frappe/utils/scheduler.py:
Site: ekart_site
Queued events for site ekart_site
[DEBUG] 2018-12-21 03:20:59,228 | /home/babitagujar/frappe-bench/apps/frappe/frappe/utils/scheduler.py:
Site: erpnext_site
Queued events for site erpnext_site
[DEBUG] 2018-12-21 03:20:59,240 | /home/babitagujar/frappe-bench/apps/frappe/frappe/utils/scheduler.py:
Site: library
Queued events for site library
[DEBUG] 2018-12-21 03:21:59,329 | /home/babitagujar/frappe-bench/apps/frappe/frappe/utils/scheduler.py:
Site: ekart_site
Queued events for site ekart_site
[DEBUG] 2018-12-21 03:21:59,342 | /home/babitagujar/frappe-bench/apps/frappe/frappe/utils/scheduler.py:
Site: erpnext_site
Queued events for site erpnext_site
[DEBUG] 2018-12-21 03:21:59,356 | /home/babitagujar/frappe-bench/apps/frappe/frappe/utils/scheduler.py:
Site: library
Queued events for site library
[DEBUG] 2018-12-21 03:22:59,455 | /home/babitagujar/frappe-bench/apps/frappe/frappe/utils/scheduler.py:
Site: ekart_site
Queued events for site ekart_site
[DEBUG] 2018-12-21 03:22:59,478 | /home/babitagujar/frappe-bench/apps/frappe/frappe/utils/scheduler.py:
Site: erpnext_site
Queued events for site erpnext_site
[DEBUG] 2018-12-21 03:22:59,519 | /home/babitagujar/frappe-bench/apps/frappe/frappe/utils/scheduler.py:
Site: library
Queued events for site library
[DEBUG] 2018-12-21 03:23:59,606 | /home/babitagujar/frappe-bench/apps/frappe/frappe/utils/scheduler.py:
Site: ekart_site
Queued events for site ekart_site
[DEBUG] 2018-12-21 03:23:59,618 | /home/babitagujar/frappe-bench/apps/frappe/frappe/utils/scheduler.py:
Site: erpnext_site
Queued events for site erpnext_site
[DEBUG] 2018-12-21 03:23:59,633 | /home/babitagujar/frappe-bench/apps/frappe/frappe/utils/scheduler.py:
Site: library
Queued events for site library
[DEBUG] 2018-12-21 03:24:59,718 | /home/babitagujar/frappe-bench/apps/frappe/frappe/utils/scheduler.py:
Site: ekart_site
Queued events for site ekart_site
[DEBUG] 2018-12-21 03:24:59,732 | /home/babitagujar/frappe-bench/apps/frappe/frappe/utils/scheduler.py:
Site: erpnext_site
Queued events for site erpnext_site
[DEBUG] 2018-12-21 03:24:59,746 | /home/babitagujar/frappe-bench/apps/frappe/frappe/utils/scheduler.py:
Site: library
Queued events for site library
[DEBUG] 2018-12-21 03:41:22,903 | /home/babitagujar/frappe-bench/apps/frappe/frappe/utils/scheduler.py:
Site: ekart_site
Queued events for site ekart_site
[DEBUG] 2018-12-21 03:41:22,989 | /home/babitagujar/frappe-bench/apps/frappe/frappe/utils/scheduler.py:
Site: erpnext_site
Queued events for site erpnext_site
[DEBUG] 2018-12-21 03:41:23,086 | /home/babitagujar/frappe-bench/apps/frappe/frappe/utils/scheduler.py:
Site: library
Queued events for site library
[DEBUG] 2018-12-21 03:42:23,195 | /home/babitagujar/frappe-bench/apps/frappe/frappe/utils/scheduler.py:
Site: ekart_site
Queued events for site ekart_site
[DEBUG] 2018-12-21 03:42:23,233 | /home/babitagujar/frappe-bench/apps/frappe/frappe/utils/scheduler.py:
Site: erpnext_site
Queued events for site erpnext_site
[DEBUG] 2018-12-21 03:42:23,274 | /home/babitagujar/frappe-bench/apps/frappe/frappe/utils/scheduler.py:
Site: library
Queued events for site library
[DEBUG] 2018-12-21 03:43:23,359 | /home/babitagujar/frappe-bench/apps/frappe/frappe/utils/scheduler.py:
Site: ekart_site
Queued events for site ekart_site
[DEBUG] 2018-12-21 03:43:23,372 | /home/babitagujar/frappe-bench/apps/frappe/frappe/utils/scheduler.py:
Site: erpnext_site
Queued events for site erpnext_site
[DEBUG] 2018-12-21 03:43:23,384 | /home/babitagujar/frappe-bench/apps/frappe/frappe/utils/scheduler.py:
Site: library
Queued events for site library
[DEBUG] 2018-12-21 03:44:23,472 | /home/babitagujar/frappe-bench/apps/frappe/frappe/utils/scheduler.py:
Site: ekart_site
Queued events for site ekart_site
[DEBUG] 2018-12-21 03:44:23,486 | /home/babitagujar/frappe-bench/apps/frappe/frappe/utils/scheduler.py:
Site: erpnext_site
Queued events for site erpnext_site
[DEBUG] 2018-12-21 03:44:23,499 | /home/babitagujar/frappe-bench/apps/frappe/frappe/utils/scheduler.py:
Site: library
Queued events for site library
[DEBUG] 2018-12-21 03:45:23,582 | /home/babitagujar/frappe-bench/apps/frappe/frappe/utils/scheduler.py:
Site: ekart_site
Queued events for site ekart_site
[DEBUG] 2018-12-21 03:45:23,594 | /home/babitagujar/frappe-bench/apps/frappe/frappe/utils/scheduler.py:
Site: erpnext_site
Queued events for site erpnext_site
[DEBUG] 2018-12-21 03:45:23,605 | /home/babitagujar/frappe-bench/apps/frappe/frappe/utils/scheduler.py:
Site: library
Queued events for site library
[DEBUG] 2018-12-21 03:46:23,706 | /home/babitagujar/frappe-bench/apps/frappe/frappe/utils/scheduler.py:
Site: ekart_site
Queued events for site ekart_site
[DEBUG] 2018-12-21 03:46:23,731 | /home/babitagujar/frappe-bench/apps/frappe/frappe/utils/scheduler.py:
Site: erpnext_site
Queued events for site erpnext_site
[DEBUG] 2018-12-21 03:46:23,773 | /home/babitagujar/frappe-bench/apps/frappe/frappe/utils/scheduler.py:
Site: library
Queued events for site library
[DEBUG] 2018-12-21 03:47:23,861 | /home/babitagujar/frappe-bench/apps/frappe/frappe/utils/scheduler.py:
Site: ekart_site
Queued events for site ekart_site
[DEBUG] 2018-12-21 03:47:23,875 | /home/babitagujar/frappe-bench/apps/frappe/frappe/utils/scheduler.py:
Site: erpnext_site
Queued events for site erpnext_site
[DEBUG] 2018-12-21 03:47:23,891 | /home/babitagujar/frappe-bench/apps/frappe/frappe/utils/scheduler.py:
Site: library
Queued events for site library
[DEBUG] 2018-12-21 03:48:23,975 | /home/babitagujar/frappe-bench/apps/frappe/frappe/utils/scheduler.py:
Site: ekart_site
Queued events for site ekart_site
[DEBUG] 2018-12-21 03:48:23,987 | /home/babitagujar/frappe-bench/apps/frappe/frappe/utils/scheduler.py:
Site: erpnext_site
Queued events for site erpnext_site
[DEBUG] 2018-12-21 03:48:23,999 | /home/babitagujar/frappe-bench/apps/frappe/frappe/utils/scheduler.py:
Site: library
Queued events for site library
[DEBUG] 2018-12-21 03:49:24,076 | /home/babitagujar/frappe-bench/apps/frappe/frappe/utils/scheduler.py:
Site: ekart_site
Queued events for site ekart_site
[DEBUG] 2018-12-21 03:49:24,089 | /home/babitagujar/frappe-bench/apps/frappe/frappe/utils/scheduler.py:
Site: erpnext_site
Queued events for site erpnext_site
[DEBUG] 2018-12-21 03:49:24,102 | /home/babitagujar/frappe-bench/apps/frappe/frappe/utils/scheduler.py:
Site: library
Queued events for site library
[DEBUG] 2018-12-21 03:50:24,214 | /home/babitagujar/frappe-bench/apps/frappe/frappe/utils/scheduler.py:
Site: ekart_site
Queued events for site ekart_site
[DEBUG] 2018-12-21 03:50:24,241 | /home/babitagujar/frappe-bench/apps/frappe/frappe/utils/scheduler.py:
Site: erpnext_site
Queued events for site erpnext_site
[DEBUG] 2018-12-21 03:50:24,290 | /home/babitagujar/frappe-bench/apps/frappe/frappe/utils/scheduler.py:
Site: library
Queued events for site library
[DEBUG] 2018-12-21 03:51:24,373 | /home/babitagujar/frappe-bench/apps/frappe/frappe/utils/scheduler.py:
Site: ekart_site
Queued events for site ekart_site
[DEBUG] 2018-12-21 03:51:24,385 | /home/babitagujar/frappe-bench/apps/frappe/frappe/utils/scheduler.py:
Site: erpnext_site
Queued events for site erpnext_site
[DEBUG] 2018-12-21 03:51:24,397 | /home/babitagujar/frappe-bench/apps/frappe/frappe/utils/scheduler.py:
Site: library
Queued events for site library
[DEBUG] 2018-12-21 03:52:24,485 | /home/babitagujar/frappe-bench/apps/frappe/frappe/utils/scheduler.py:
Site: ekart_site
Queued events for site ekart_site
[DEBUG] 2018-12-21 03:52:24,501 | /home/babitagujar/frappe-bench/apps/frappe/frappe/utils/scheduler.py:
Site: erpnext_site
Queued events for site erpnext_site
[DEBUG] 2018-12-21 03:52:24,516 | /home/babitagujar/frappe-bench/apps/frappe/frappe/utils/scheduler.py:
Site: library
Queued events for site library
[DEBUG] 2018-12-21 03:53:24,601 | /home/babitagujar/frappe-bench/apps/frappe/frappe/utils/scheduler.py:
Site: ekart_site
Queued events for site ekart_site
[DEBUG] 2018-12-21 03:53:24,613 | /home/babitagujar/frappe-bench/apps/frappe/frappe/utils/scheduler.py:
Site: erpnext_site
Queued events for site erpnext_site
[DEBUG] 2018-12-21 03:53:24,624 | /home/babitagujar/frappe-bench/apps/frappe/frappe/utils/scheduler.py:
Site: library
Queued events for site library
[DEBUG] 2018-12-21 03:54:24,728 | /home/babitagujar/frappe-bench/apps/frappe/frappe/utils/scheduler.py:
Site: ekart_site
Queued events for site ekart_site
[DEBUG] 2018-12-21 03:54:24,761 | /home/babitagujar/frappe-bench/apps/frappe/frappe/utils/scheduler.py:
Site: erpnext_site
Queued events for site erpnext_site
[DEBUG] 2018-12-21 03:54:24,807 | /home/babitagujar/frappe-bench/apps/frappe/frappe/utils/scheduler.py:
Site: library
Queued events for site library
[DEBUG] 2018-12-21 03:55:24,894 | /home/babitagujar/frappe-bench/apps/frappe/frappe/utils/scheduler.py:
Site: ekart_site
Queued events for site ekart_site
[DEBUG] 2018-12-21 03:55:24,909 | /home/babitagujar/frappe-bench/apps/frappe/frappe/utils/scheduler.py:
Site: erpnext_site
Queued events for site erpnext_site
[DEBUG] 2018-12-21 03:55:24,923 | /home/babitagujar/frappe-bench/apps/frappe/frappe/utils/scheduler.py:
Site: library
Queued events for site library
[DEBUG] 2018-12-21 03:56:25,007 | /home/babitagujar/frappe-bench/apps/frappe/frappe/utils/scheduler.py:
Site: ekart_site
Queued events for site ekart_site
[DEBUG] 2018-12-21 03:56:25,019 | /home/babitagujar/frappe-bench/apps/frappe/frappe/utils/scheduler.py:
Site: erpnext_site
Queued events for site erpnext_site
[DEBUG] 2018-12-21 03:56:25,031 | /home/babitagujar/frappe-bench/apps/frappe/frappe/utils/scheduler.py:
Site: library
Queued events for site library
[DEBUG] 2018-12-21 03:57:25,115 | /home/babitagujar/frappe-bench/apps/frappe/frappe/utils/scheduler.py:
Site: ekart_site
Queued events for site ekart_site
[DEBUG] 2018-12-21 03:57:25,126 | /home/babitagujar/frappe-bench/apps/frappe/frappe/utils/scheduler.py:
Site: erpnext_site
Queued events for site erpnext_site
[DEBUG] 2018-12-21 03:57:25,138 | /home/babitagujar/frappe-bench/apps/frappe/frappe/utils/scheduler.py:
Site: library
Queued events for site library
[DEBUG] 2018-12-21 03:58:25,234 | /home/babitagujar/frappe-bench/apps/frappe/frappe/utils/scheduler.py:
Site: ekart_site
Queued events for site ekart_site
[DEBUG] 2018-12-21 03:58:25,272 | /home/babitagujar/frappe-bench/apps/frappe/frappe/utils/scheduler.py:
Site: erpnext_site
Queued events for site erpnext_site
[DEBUG] 2018-12-21 03:58:25,310 | /home/babitagujar/frappe-bench/apps/frappe/frappe/utils/scheduler.py:
Site: library
Queued events for site library
[DEBUG] 2018-12-21 03:59:25,395 | /home/babitagujar/frappe-bench/apps/frappe/frappe/utils/scheduler.py:
Site: ekart_site
Queued events for site ekart_site
[DEBUG] 2018-12-21 03:59:25,407 | /home/babitagujar/frappe-bench/apps/frappe/frappe/utils/scheduler.py:
Site: erpnext_site
Queued events for site erpnext_site
[DEBUG] 2018-12-21 03:59:25,419 | /home/babitagujar/frappe-bench/apps/frappe/frappe/utils/scheduler.py:
Site: library
Queued events for site library
[DEBUG] 2018-12-21 04:00:25,501 | /home/babitagujar/frappe-bench/apps/frappe/frappe/utils/scheduler.py:
Site: ekart_site
Queued events for site ekart_site
[DEBUG] 2018-12-21 04:00:25,513 | /home/babitagujar/frappe-bench/apps/frappe/frappe/utils/scheduler.py:
Site: erpnext_site
Queued events for site erpnext_site
[DEBUG] 2018-12-21 04:00:25,526 | /home/babitagujar/frappe-bench/apps/frappe/frappe/utils/scheduler.py:
Site: library
Queued events for site library
[DEBUG] 2018-12-21 04:01:25,613 | /home/babitagujar/frappe-bench/apps/frappe/frappe/utils/scheduler.py:
Site: ekart_site
Queued events for site ekart_site
[DEBUG] 2018-12-21 04:01:25,629 | /home/babitagujar/frappe-bench/apps/frappe/frappe/utils/scheduler.py:
Site: erpnext_site
Queued events for site erpnext_site
[DEBUG] 2018-12-21 04:01:25,644 | /home/babitagujar/frappe-bench/apps/frappe/frappe/utils/scheduler.py:
Site: library
Queued events for site library
[DEBUG] 2018-12-21 04:02:25,763 | /home/babitagujar/frappe-bench/apps/frappe/frappe/utils/scheduler.py:
Site: ekart_site
Queued events for site ekart_site
[DEBUG] 2018-12-21 04:02:25,792 | /home/babitagujar/frappe-bench/apps/frappe/frappe/utils/scheduler.py:
Site: erpnext_site
Queued events for site erpnext_site
[DEBUG] 2018-12-21 04:02:25,845 | /home/babitagujar/frappe-bench/apps/frappe/frappe/utils/scheduler.py:
Site: library
Queued events for site library
[DEBUG] 2018-12-21 04:03:25,931 | /home/babitagujar/frappe-bench/apps/frappe/frappe/utils/scheduler.py:
Site: ekart_site
Queued events for site ekart_site
[DEBUG] 2018-12-21 04:03:25,947 | /home/babitagujar/frappe-bench/apps/frappe/frappe/utils/scheduler.py:
Site: erpnext_site
Queued events for site erpnext_site
[DEBUG] 2018-12-21 04:03:25,963 | /home/babitagujar/frappe-bench/apps/frappe/frappe/utils/scheduler.py:
Site: library
Queued events for site library
[DEBUG] 2018-12-21 04:04:26,046 | /home/babitagujar/frappe-bench/apps/frappe/frappe/utils/scheduler.py:
Site: ekart_site
Queued events for site ekart_site
[DEBUG] 2018-12-21 04:04:26,059 | /home/babitagujar/frappe-bench/apps/frappe/frappe/utils/scheduler.py:
Site: erpnext_site
Queued events for site erpnext_site
[DEBUG] 2018-12-21 04:04:26,071 | /home/babitagujar/frappe-bench/apps/frappe/frappe/utils/scheduler.py:
Site: library
Queued events for site library
[DEBUG] 2018-12-21 04:05:26,164 | /home/babitagujar/frappe-bench/apps/frappe/frappe/utils/scheduler.py:
Site: ekart_site
Queued events for site ekart_site
[DEBUG] 2018-12-21 04:05:26,179 | /home/babitagujar/frappe-bench/apps/frappe/frappe/utils/scheduler.py:
Site: erpnext_site
Queued events for site erpnext_site
[DEBUG] 2018-12-21 04:05:26,194 | /home/babitagujar/frappe-bench/apps/frappe/frappe/utils/scheduler.py:
Site: library
Queued events for site library
[DEBUG] 2018-12-21 04:06:26,300 | /home/babitagujar/frappe-bench/apps/frappe/frappe/utils/scheduler.py:
Site: ekart_site
Queued events for site ekart_site
[DEBUG] 2018-12-21 04:06:26,336 | /home/babitagujar/frappe-bench/apps/frappe/frappe/utils/scheduler.py:
Site: erpnext_site
Queued events for site erpnext_site
[DEBUG] 2018-12-21 04:06:26,391 | /home/babitagujar/frappe-bench/apps/frappe/frappe/utils/scheduler.py:
Site: library
Queued events for site library
[DEBUG] 2018-12-21 04:07:26,477 | /home/babitagujar/frappe-bench/apps/frappe/frappe/utils/scheduler.py:
Site: ekart_site
Queued events for site ekart_site
[DEBUG] 2018-12-21 04:07:26,488 | /home/babitagujar/frappe-bench/apps/frappe/frappe/utils/scheduler.py:
Site: erpnext_site
Queued events for site erpnext_site
[DEBUG] 2018-12-21 04:07:26,501 | /home/babitagujar/frappe-bench/apps/frappe/frappe/utils/scheduler.py:
Site: library
Queued events for site library
[DEBUG] 2018-12-21 04:08:26,590 | /home/babitagujar/frappe-bench/apps/frappe/frappe/utils/scheduler.py:
Site: ekart_site
Queued events for site ekart_site
[DEBUG] 2018-12-21 04:08:26,605 | /home/babitagujar/frappe-bench/apps/frappe/frappe/utils/scheduler.py:
Site: erpnext_site
Queued events for site erpnext_site
[DEBUG] 2018-12-21 04:08:26,619 | /home/babitagujar/frappe-bench/apps/frappe/frappe/utils/scheduler.py:
Site: library
Queued events for site library
[DEBUG] 2018-12-21 04:09:26,707 | /home/babitagujar/frappe-bench/apps/frappe/frappe/utils/scheduler.py:
Site: ekart_site
Queued events for site ekart_site
[DEBUG] 2018-12-21 04:09:26,721 | /home/babitagujar/frappe-bench/apps/frappe/frappe/utils/scheduler.py:
Site: erpnext_site
Queued events for site erpnext_site
[DEBUG] 2018-12-21 04:09:26,736 | /home/babitagujar/frappe-bench/apps/frappe/frappe/utils/scheduler.py:
Site: library
Queued events for site library
[DEBUG] 2018-12-21 04:10:26,839 | /home/babitagujar/frappe-bench/apps/frappe/frappe/utils/scheduler.py:
Site: ekart_site
Queued events for site ekart_site
[DEBUG] 2018-12-21 04:10:26,871 | /home/babitagujar/frappe-bench/apps/frappe/frappe/utils/scheduler.py:
Site: erpnext_site
Queued events for site erpnext_site
[DEBUG] 2018-12-21 04:10:26,936 | /home/babitagujar/frappe-bench/apps/frappe/frappe/utils/scheduler.py:
Site: library
Queued events for site library
[DEBUG] 2018-12-21 04:11:27,022 | /home/babitagujar/frappe-bench/apps/frappe/frappe/utils/scheduler.py:
Site: ekart_site
Queued events for site ekart_site
[DEBUG] 2018-12-21 04:11:27,035 | /home/babitagujar/frappe-bench/apps/frappe/frappe/utils/scheduler.py:
Site: erpnext_site
Queued events for site erpnext_site
[DEBUG] 2018-12-21 04:11:27,047 | /home/babitagujar/frappe-bench/apps/frappe/frappe/utils/scheduler.py:
Site: library
Queued events for site library
[DEBUG] 2018-12-21 04:12:27,136 | /home/babitagujar/frappe-bench/apps/frappe/frappe/utils/scheduler.py:
Site: ekart_site
Queued events for site ekart_site
[DEBUG] 2018-12-21 04:12:27,149 | /home/babitagujar/frappe-bench/apps/frappe/frappe/utils/scheduler.py:
Site: erpnext_site
Queued events for site erpnext_site
[DEBUG] 2018-12-21 04:12:27,164 | /home/babitagujar/frappe-bench/apps/frappe/frappe/utils/scheduler.py:
Site: library
Queued events for site library
[DEBUG] 2018-12-21 04:13:27,249 | /home/babitagujar/frappe-bench/apps/frappe/frappe/utils/scheduler.py:
Site: ekart_site
Queued events for site ekart_site
[DEBUG] 2018-12-21 04:13:27,261 | /home/babitagujar/frappe-bench/apps/frappe/frappe/utils/scheduler.py:
Site: erpnext_site
Queued events for site erpnext_site
[DEBUG] 2018-12-21 04:13:27,272 | /home/babitagujar/frappe-bench/apps/frappe/frappe/utils/scheduler.py:
Site: library
Queued events for site library
[DEBUG] 2018-12-21 04:14:27,376 | /home/babitagujar/frappe-bench/apps/frappe/frappe/utils/scheduler.py:
Site: ekart_site
Queued events for site ekart_site
[DEBUG] 2018-12-21 04:14:27,408 | /home/babitagujar/frappe-bench/apps/frappe/frappe/utils/scheduler.py:
Site: erpnext_site
Queued events for site erpnext_site
[DEBUG] 2018-12-21 04:14:27,457 | /home/babitagujar/frappe-bench/apps/frappe/frappe/utils/scheduler.py:
Site: library
Queued events for site library
[DEBUG] 2018-12-21 04:15:27,538 | /home/babitagujar/frappe-bench/apps/frappe/frappe/utils/scheduler.py:
Site: ekart_site
Queued events for site ekart_site
[DEBUG] 2018-12-21 04:15:27,549 | /home/babitagujar/frappe-bench/apps/frappe/frappe/utils/scheduler.py:
Site: erpnext_site
Queued events for site erpnext_site
[DEBUG] 2018-12-21 04:15:27,561 | /home/babitagujar/frappe-bench/apps/frappe/frappe/utils/scheduler.py:
Site: library
Queued events for site library
[DEBUG] 2018-12-21 04:16:27,648 | /home/babitagujar/frappe-bench/apps/frappe/frappe/utils/scheduler.py:
Site: ekart_site
Queued events for site ekart_site
[DEBUG] 2018-12-21 04:16:27,661 | /home/babitagujar/frappe-bench/apps/frappe/frappe/utils/scheduler.py:
Site: erpnext_site
Queued events for site erpnext_site
[DEBUG] 2018-12-21 04:16:27,676 | /home/babitagujar/frappe-bench/apps/frappe/frappe/utils/scheduler.py:
Site: library
Queued events for site library
[DEBUG] 2018-12-21 04:17:27,764 | /home/babitagujar/frappe-bench/apps/frappe/frappe/utils/scheduler.py:
Site: ekart_site
Queued events for site ekart_site
[DEBUG] 2018-12-21 04:17:27,778 | /home/babitagujar/frappe-bench/apps/frappe/frappe/utils/scheduler.py:
Site: erpnext_site
Queued events for site erpnext_site
[DEBUG] 2018-12-21 04:17:27,795 | /home/babitagujar/frappe-bench/apps/frappe/frappe/utils/scheduler.py:
Site: library
Queued events for site library
[DEBUG] 2018-12-21 04:18:27,897 | /home/babitagujar/frappe-bench/apps/frappe/frappe/utils/scheduler.py:
Site: ekart_site
Queued events for site ekart_site
[DEBUG] 2018-12-21 04:18:27,928 | /home/babitagujar/frappe-bench/apps/frappe/frappe/utils/scheduler.py:
Site: erpnext_site
Queued events for site erpnext_site
[DEBUG] 2018-12-21 04:18:27,980 | /home/babitagujar/frappe-bench/apps/frappe/frappe/utils/scheduler.py:
Site: library
Queued events for site library
[DEBUG] 2018-12-21 04:19:28,067 | /home/babitagujar/frappe-bench/apps/frappe/frappe/utils/scheduler.py:
Site: ekart_site
Queued events for site ekart_site
[DEBUG] 2018-12-21 04:19:28,081 | /home/babitagujar/frappe-bench/apps/frappe/frappe/utils/scheduler.py:
Site: erpnext_site
Queued events for site erpnext_site
[DEBUG] 2018-12-21 04:19:28,095 | /home/babitagujar/frappe-bench/apps/frappe/frappe/utils/scheduler.py:
Site: library
Queued events for site library
[DEBUG] 2018-12-21 04:20:28,180 | /home/babitagujar/frappe-bench/apps/frappe/frappe/utils/scheduler.py:
Site: ekart_site
Queued events for site ekart_site
[DEBUG] 2018-12-21 04:20:28,196 | /home/babitagujar/frappe-bench/apps/frappe/frappe/utils/scheduler.py:
Site: erpnext_site
Queued events for site erpnext_site
[DEBUG] 2018-12-21 04:20:28,210 | /home/babitagujar/frappe-bench/apps/frappe/frappe/utils/scheduler.py:
Site: library
Queued events for site library
[DEBUG] 2018-12-21 04:21:28,295 | /home/babitagujar/frappe-bench/apps/frappe/frappe/utils/scheduler.py:
Site: ekart_site
Queued events for site ekart_site
[DEBUG] 2018-12-21 04:21:28,307 | /home/babitagujar/frappe-bench/apps/frappe/frappe/utils/scheduler.py:
Site: erpnext_site
Queued events for site erpnext_site
[DEBUG] 2018-12-21 04:21:28,318 | /home/babitagujar/frappe-bench/apps/frappe/frappe/utils/scheduler.py:
Site: library
Queued events for site library
[DEBUG] 2018-12-21 04:22:28,421 | /home/babitagujar/frappe-bench/apps/frappe/frappe/utils/scheduler.py:
Site: ekart_site
Queued events for site ekart_site
[DEBUG] 2018-12-21 04:22:28,453 | /home/babitagujar/frappe-bench/apps/frappe/frappe/utils/scheduler.py:
Site: erpnext_site
Queued events for site erpnext_site
[DEBUG] 2018-12-21 04:22:28,506 | /home/babitagujar/frappe-bench/apps/frappe/frappe/utils/scheduler.py:
Site: library
Queued events for site library
[DEBUG] 2018-12-21 04:23:28,593 | /home/babitagujar/frappe-bench/apps/frappe/frappe/utils/scheduler.py:
Site: ekart_site
Queued events for site ekart_site
[DEBUG] 2018-12-21 04:23:28,605 | /home/babitagujar/frappe-bench/apps/frappe/frappe/utils/scheduler.py:
Site: erpnext_site
Queued events for site erpnext_site
[DEBUG] 2018-12-21 04:23:28,620 | /home/babitagujar/frappe-bench/apps/frappe/frappe/utils/scheduler.py:
Site: library
Queued events for site library
[DEBUG] 2018-12-21 04:24:28,705 | /home/babitagujar/frappe-bench/apps/frappe/frappe/utils/scheduler.py:
Site: ekart_site
Queued events for site ekart_site
[DEBUG] 2018-12-21 04:24:28,717 | /home/babitagujar/frappe-bench/apps/frappe/frappe/utils/scheduler.py:
Site: erpnext_site
Queued events for site erpnext_site
[DEBUG] 2018-12-21 04:24:28,729 | /home/babitagujar/frappe-bench/apps/frappe/frappe/utils/scheduler.py:
Site: library
Queued events for site library
[DEBUG] 2018-12-21 04:25:28,816 | /home/babitagujar/frappe-bench/apps/frappe/frappe/utils/scheduler.py:
Site: ekart_site
Queued events for site ekart_site
[DEBUG] 2018-12-21 04:25:28,831 | /home/babitagujar/frappe-bench/apps/frappe/frappe/utils/scheduler.py:
Site: erpnext_site
Queued events for site erpnext_site
[DEBUG] 2018-12-21 04:25:28,846 | /home/babitagujar/frappe-bench/apps/frappe/frappe/utils/scheduler.py:
Site: library
Queued events for site library
[DEBUG] 2018-12-21 04:26:28,950 | /home/babitagujar/frappe-bench/apps/frappe/frappe/utils/scheduler.py:
Site: ekart_site
Queued events for site ekart_site
[DEBUG] 2018-12-21 04:26:28,982 | /home/babitagujar/frappe-bench/apps/frappe/frappe/utils/scheduler.py:
Site: erpnext_site
Queued events for site erpnext_site
[DEBUG] 2018-12-21 04:26:29,034 | /home/babitagujar/frappe-bench/apps/frappe/frappe/utils/scheduler.py:
Site: library
Queued events for site library
[DEBUG] 2018-12-21 04:27:29,121 | /home/babitagujar/frappe-bench/apps/frappe/frappe/utils/scheduler.py:
Site: ekart_site
Queued events for site ekart_site
[DEBUG] 2018-12-21 04:27:29,134 | /home/babitagujar/frappe-bench/apps/frappe/frappe/utils/scheduler.py:
Site: erpnext_site
Queued events for site erpnext_site
[DEBUG] 2018-12-21 04:27:29,149 | /home/babitagujar/frappe-bench/apps/frappe/frappe/utils/scheduler.py:
Site: library
Queued events for site library
[DEBUG] 2018-12-21 04:28:29,224 | /home/babitagujar/frappe-bench/apps/frappe/frappe/utils/scheduler.py:
Site: ekart_site
Queued events for site ekart_site
[DEBUG] 2018-12-21 04:28:29,241 | /home/babitagujar/frappe-bench/apps/frappe/frappe/utils/scheduler.py:
Site: erpnext_site
Queued events for site erpnext_site
[DEBUG] 2018-12-21 04:28:29,258 | /home/babitagujar/frappe-bench/apps/frappe/frappe/utils/scheduler.py:
Site: library
Queued events for site library
[DEBUG] 2018-12-21 04:29:29,345 | /home/babitagujar/frappe-bench/apps/frappe/frappe/utils/scheduler.py:
Site: ekart_site
Queued events for site ekart_site
[DEBUG] 2018-12-21 04:29:29,359 | /home/babitagujar/frappe-bench/apps/frappe/frappe/utils/scheduler.py:
Site: erpnext_site
Queued events for site erpnext_site
[DEBUG] 2018-12-21 04:29:29,373 | /home/babitagujar/frappe-bench/apps/frappe/frappe/utils/scheduler.py:
Site: library
Queued events for site library
[DEBUG] 2018-12-21 04:30:29,484 | /home/babitagujar/frappe-bench/apps/frappe/frappe/utils/scheduler.py:
Site: ekart_site
Queued events for site ekart_site
[DEBUG] 2018-12-21 04:30:29,540 | /home/babitagujar/frappe-bench/apps/frappe/frappe/utils/scheduler.py:
Site: erpnext_site
Queued events for site erpnext_site
[DEBUG] 2018-12-21 04:30:29,610 | /home/babitagujar/frappe-bench/apps/frappe/frappe/utils/scheduler.py:
Site: library
Queued events for site library
[DEBUG] 2018-12-21 04:31:29,696 | /home/babitagujar/frappe-bench/apps/frappe/frappe/utils/scheduler.py:
Site: ekart_site
Queued events for site ekart_site
[DEBUG] 2018-12-21 04:31:29,709 | /home/babitagujar/frappe-bench/apps/frappe/frappe/utils/scheduler.py:
Site: erpnext_site
Queued events for site erpnext_site
[DEBUG] 2018-12-21 04:31:29,722 | /home/babitagujar/frappe-bench/apps/frappe/frappe/utils/scheduler.py:
Site: library
Queued events for site library
[DEBUG] 2018-12-21 04:32:29,806 | /home/babitagujar/frappe-bench/apps/frappe/frappe/utils/scheduler.py:
Site: ekart_site
Queued events for site ekart_site
[DEBUG] 2018-12-21 04:32:29,822 | /home/babitagujar/frappe-bench/apps/frappe/frappe/utils/scheduler.py:
Site: erpnext_site
Queued events for site erpnext_site
[DEBUG] 2018-12-21 04:32:29,838 | /home/babitagujar/frappe-bench/apps/frappe/frappe/utils/scheduler.py:
Site: library
Queued events for site library
[DEBUG] 2018-12-21 04:33:29,925 | /home/babitagujar/frappe-bench/apps/frappe/frappe/utils/scheduler.py:
Site: ekart_site
Queued events for site ekart_site
[DEBUG] 2018-12-21 04:33:29,939 | /home/babitagujar/frappe-bench/apps/frappe/frappe/utils/scheduler.py:
Site: erpnext_site
Queued events for site erpnext_site
[DEBUG] 2018-12-21 04:33:29,953 | /home/babitagujar/frappe-bench/apps/frappe/frappe/utils/scheduler.py:
Site: library
Queued events for site library
[DEBUG] 2018-12-21 04:34:30,053 | /home/babitagujar/frappe-bench/apps/frappe/frappe/utils/scheduler.py:
Site: ekart_site
Queued events for site ekart_site
[DEBUG] 2018-12-21 04:34:30,077 | /home/babitagujar/frappe-bench/apps/frappe/frappe/utils/scheduler.py:
Site: erpnext_site
Queued events for site erpnext_site
[DEBUG] 2018-12-21 04:34:30,125 | /home/babitagujar/frappe-bench/apps/frappe/frappe/utils/scheduler.py:
Site: library
Queued events for site library
[DEBUG] 2018-12-21 04:35:30,215 | /home/babitagujar/frappe-bench/apps/frappe/frappe/utils/scheduler.py:
Site: ekart_site
Queued events for site ekart_site
[DEBUG] 2018-12-21 04:35:30,231 | /home/babitagujar/frappe-bench/apps/frappe/frappe/utils/scheduler.py:
Site: erpnext_site
Queued events for site erpnext_site
[DEBUG] 2018-12-21 04:35:30,245 | /home/babitagujar/frappe-bench/apps/frappe/frappe/utils/scheduler.py:
Site: library
Queued events for site library
[DEBUG] 2018-12-21 04:36:30,327 | /home/babitagujar/frappe-bench/apps/frappe/frappe/utils/scheduler.py:
Site: ekart_site
Queued events for site ekart_site
[DEBUG] 2018-12-21 04:36:30,339 | /home/babitagujar/frappe-bench/apps/frappe/frappe/utils/scheduler.py:
Site: erpnext_site
Queued events for site erpnext_site
[DEBUG] 2018-12-21 04:36:30,351 | /home/babitagujar/frappe-bench/apps/frappe/frappe/utils/scheduler.py:
Site: library
Queued events for site library
[DEBUG] 2018-12-21 04:37:30,437 | /home/babitagujar/frappe-bench/apps/frappe/frappe/utils/scheduler.py:
Site: ekart_site
Queued events for site ekart_site
[DEBUG] 2018-12-21 04:37:30,452 | /home/babitagujar/frappe-bench/apps/frappe/frappe/utils/scheduler.py:
Site: erpnext_site
Queued events for site erpnext_site
[DEBUG] 2018-12-21 04:37:30,466 | /home/babitagujar/frappe-bench/apps/frappe/frappe/utils/scheduler.py:
Site: library
Queued events for site library
[DEBUG] 2018-12-21 04:38:30,573 | /home/babitagujar/frappe-bench/apps/frappe/frappe/utils/scheduler.py:
Site: ekart_site
Queued events for site ekart_site
[DEBUG] 2018-12-21 04:38:30,607 | /home/babitagujar/frappe-bench/apps/frappe/frappe/utils/scheduler.py:
Site: erpnext_site
Queued events for site erpnext_site
[DEBUG] 2018-12-21 04:38:30,661 | /home/babitagujar/frappe-bench/apps/frappe/frappe/utils/scheduler.py:
Site: library
Queued events for site library
[DEBUG] 2018-12-21 04:39:30,748 | /home/babitagujar/frappe-bench/apps/frappe/frappe/utils/scheduler.py:
Site: ekart_site
Queued events for site ekart_site
[DEBUG] 2018-12-21 04:39:30,763 | /home/babitagujar/frappe-bench/apps/frappe/frappe/utils/scheduler.py:
Site: erpnext_site
Queued events for site erpnext_site
[DEBUG] 2018-12-21 04:39:30,778 | /home/babitagujar/frappe-bench/apps/frappe/frappe/utils/scheduler.py:
Site: library
Queued events for site library
[DEBUG] 2018-12-21 04:40:30,862 | /home/babitagujar/frappe-bench/apps/frappe/frappe/utils/scheduler.py:
Site: ekart_site
Queued events for site ekart_site
[DEBUG] 2018-12-21 04:40:30,874 | /home/babitagujar/frappe-bench/apps/frappe/frappe/utils/scheduler.py:
Site: erpnext_site
Queued events for site erpnext_site
[DEBUG] 2018-12-21 04:40:30,885 | /home/babitagujar/frappe-bench/apps/frappe/frappe/utils/scheduler.py:
Site: library
Queued events for site library
[DEBUG] 2018-12-21 04:41:30,943 | /home/babitagujar/frappe-bench/apps/frappe/frappe/utils/scheduler.py:
Site: ekart_site
Queued events for site ekart_site
[DEBUG] 2018-12-21 04:41:30,958 | /home/babitagujar/frappe-bench/apps/frappe/frappe/utils/scheduler.py:
Site: erpnext_site
Queued events for site erpnext_site
[DEBUG] 2018-12-21 04:41:30,972 | /home/babitagujar/frappe-bench/apps/frappe/frappe/utils/scheduler.py:
Site: library
Queued events for site library
[DEBUG] 2018-12-21 04:42:31,080 | /home/babitagujar/frappe-bench/apps/frappe/frappe/utils/scheduler.py:
Site: ekart_site
Queued events for site ekart_site
[DEBUG] 2018-12-21 04:42:31,113 | /home/babitagujar/frappe-bench/apps/frappe/frappe/utils/scheduler.py:
Site: erpnext_site
Queued events for site erpnext_site
[DEBUG] 2018-12-21 04:42:31,160 | /home/babitagujar/frappe-bench/apps/frappe/frappe/utils/scheduler.py:
Site: library
Queued events for site library
[DEBUG] 2018-12-21 04:43:31,250 | /home/babitagujar/frappe-bench/apps/frappe/frappe/utils/scheduler.py:
Site: ekart_site
Queued events for site ekart_site
[DEBUG] 2018-12-21 04:43:31,264 | /home/babitagujar/frappe-bench/apps/frappe/frappe/utils/scheduler.py:
Site: erpnext_site
Queued events for site erpnext_site
[DEBUG] 2018-12-21 04:43:31,278 | /home/babitagujar/frappe-bench/apps/frappe/frappe/utils/scheduler.py:
Site: library
Queued events for site library
[DEBUG] 2018-12-21 04:44:31,367 | /home/babitagujar/frappe-bench/apps/frappe/frappe/utils/scheduler.py:
Site: ekart_site
Queued events for site ekart_site
[DEBUG] 2018-12-21 04:44:31,379 | /home/babitagujar/frappe-bench/apps/frappe/frappe/utils/scheduler.py:
Site: erpnext_site
Queued events for site erpnext_site
[DEBUG] 2018-12-21 04:44:31,392 | /home/babitagujar/frappe-bench/apps/frappe/frappe/utils/scheduler.py:
Site: library
Queued events for site library
[DEBUG] 2018-12-21 04:45:31,480 | /home/babitagujar/frappe-bench/apps/frappe/frappe/utils/scheduler.py:
Site: ekart_site
Queued events for site ekart_site
[DEBUG] 2018-12-21 04:45:31,495 | /home/babitagujar/frappe-bench/apps/frappe/frappe/utils/scheduler.py:
Site: erpnext_site
Queued events for site erpnext_site
[DEBUG] 2018-12-21 04:45:31,517 | /home/babitagujar/frappe-bench/apps/frappe/frappe/utils/scheduler.py:
Site: library
Queued events for site library
[DEBUG] 2018-12-21 04:46:31,622 | /home/babitagujar/frappe-bench/apps/frappe/frappe/utils/scheduler.py:
Site: ekart_site
Queued events for site ekart_site
[DEBUG] 2018-12-21 04:46:31,646 | /home/babitagujar/frappe-bench/apps/frappe/frappe/utils/scheduler.py:
Site: erpnext_site
Queued events for site erpnext_site
[DEBUG] 2018-12-21 04:46:31,680 | /home/babitagujar/frappe-bench/apps/frappe/frappe/utils/scheduler.py:
Site: library
Queued events for site library
[DEBUG] 2018-12-21 04:47:31,767 | /home/babitagujar/frappe-bench/apps/frappe/frappe/utils/scheduler.py:
Site: ekart_site
Queued events for site ekart_site
[DEBUG] 2018-12-21 04:47:31,779 | /home/babitagujar/frappe-bench/apps/frappe/frappe/utils/scheduler.py:
Site: erpnext_site
Queued events for site erpnext_site
[DEBUG] 2018-12-21 04:47:31,791 | /home/babitagujar/frappe-bench/apps/frappe/frappe/utils/scheduler.py:
Site: library
Queued events for site library
[DEBUG] 2018-12-21 04:48:31,881 | /home/babitagujar/frappe-bench/apps/frappe/frappe/utils/scheduler.py:
Site: ekart_site
Queued events for site ekart_site
[DEBUG] 2018-12-21 04:48:31,895 | /home/babitagujar/frappe-bench/apps/frappe/frappe/utils/scheduler.py:
Site: erpnext_site
Queued events for site erpnext_site
[DEBUG] 2018-12-21 04:48:31,912 | /home/babitagujar/frappe-bench/apps/frappe/frappe/utils/scheduler.py:
Site: library
Queued events for site library
[DEBUG] 2018-12-21 04:49:32,002 | /home/babitagujar/frappe-bench/apps/frappe/frappe/utils/scheduler.py:
Site: ekart_site
Queued events for site ekart_site
[DEBUG] 2018-12-21 04:49:32,016 | /home/babitagujar/frappe-bench/apps/frappe/frappe/utils/scheduler.py:
Site: erpnext_site
Queued events for site erpnext_site
[DEBUG] 2018-12-21 04:49:32,031 | /home/babitagujar/frappe-bench/apps/frappe/frappe/utils/scheduler.py:
Site: library
Queued events for site library
[DEBUG] 2018-12-21 04:50:32,141 | /home/babitagujar/frappe-bench/apps/frappe/frappe/utils/scheduler.py:
Site: ekart_site
Queued events for site ekart_site
[DEBUG] 2018-12-21 04:50:32,175 | /home/babitagujar/frappe-bench/apps/frappe/frappe/utils/scheduler.py:
Site: erpnext_site
Queued events for site erpnext_site
[DEBUG] 2018-12-21 04:50:32,225 | /home/babitagujar/frappe-bench/apps/frappe/frappe/utils/scheduler.py:
Site: library
Queued events for site library
[DEBUG] 2018-12-21 04:51:32,307 | /home/babitagujar/frappe-bench/apps/frappe/frappe/utils/scheduler.py:
Site: ekart_site
Queued events for site ekart_site
[DEBUG] 2018-12-21 04:51:32,319 | /home/babitagujar/frappe-bench/apps/frappe/frappe/utils/scheduler.py:
Site: erpnext_site
Queued events for site erpnext_site
[DEBUG] 2018-12-21 04:51:32,332 | /home/babitagujar/frappe-bench/apps/frappe/frappe/utils/scheduler.py:
Site: library
Queued events for site library
[DEBUG] 2018-12-21 04:52:32,418 | /home/babitagujar/frappe-bench/apps/frappe/frappe/utils/scheduler.py:
Site: ekart_site
Queued events for site ekart_site
[DEBUG] 2018-12-21 04:52:32,433 | /home/babitagujar/frappe-bench/apps/frappe/frappe/utils/scheduler.py:
Site: erpnext_site
Queued events for site erpnext_site
[DEBUG] 2018-12-21 04:52:32,446 | /home/babitagujar/frappe-bench/apps/frappe/frappe/utils/scheduler.py:
Site: library
Queued events for site library
[DEBUG] 2018-12-21 04:53:32,530 | /home/babitagujar/frappe-bench/apps/frappe/frappe/utils/scheduler.py:
Site: ekart_site
Queued events for site ekart_site
[DEBUG] 2018-12-21 04:53:32,542 | /home/babitagujar/frappe-bench/apps/frappe/frappe/utils/scheduler.py:
Site: erpnext_site
Queued events for site erpnext_site
[DEBUG] 2018-12-21 04:53:32,553 | /home/babitagujar/frappe-bench/apps/frappe/frappe/utils/scheduler.py:
Site: library
Queued events for site library
[DEBUG] 2018-12-21 04:54:32,656 | /home/babitagujar/frappe-bench/apps/frappe/frappe/utils/scheduler.py:
Site: ekart_site
Queued events for site ekart_site
[DEBUG] 2018-12-21 04:54:32,681 | /home/babitagujar/frappe-bench/apps/frappe/frappe/utils/scheduler.py:
Site: erpnext_site
Queued events for site erpnext_site
[DEBUG] 2018-12-21 04:54:32,725 | /home/babitagujar/frappe-bench/apps/frappe/frappe/utils/scheduler.py:
Site: library
Queued events for site library
[DEBUG] 2018-12-21 04:55:32,820 | /home/babitagujar/frappe-bench/apps/frappe/frappe/utils/scheduler.py:
Site: ekart_site
Queued events for site ekart_site
[DEBUG] 2018-12-21 04:55:32,836 | /home/babitagujar/frappe-bench/apps/frappe/frappe/utils/scheduler.py:
Site: erpnext_site
Queued events for site erpnext_site
[DEBUG] 2018-12-21 04:55:32,850 | /home/babitagujar/frappe-bench/apps/frappe/frappe/utils/scheduler.py:
Site: library
Queued events for site library
[DEBUG] 2018-12-21 04:56:32,939 | /home/babitagujar/frappe-bench/apps/frappe/frappe/utils/scheduler.py:
Site: ekart_site
Queued events for site ekart_site
[DEBUG] 2018-12-21 04:56:32,954 | /home/babitagujar/frappe-bench/apps/frappe/frappe/utils/scheduler.py:
Site: erpnext_site
Queued events for site erpnext_site
[DEBUG] 2018-12-21 04:56:32,968 | /home/babitagujar/frappe-bench/apps/frappe/frappe/utils/scheduler.py:
Site: library
Queued events for site library
[DEBUG] 2018-12-21 04:57:33,054 | /home/babitagujar/frappe-bench/apps/frappe/frappe/utils/scheduler.py:
Site: ekart_site
Queued events for site ekart_site
[DEBUG] 2018-12-21 04:57:33,066 | /home/babitagujar/frappe-bench/apps/frappe/frappe/utils/scheduler.py:
Site: erpnext_site
Queued events for site erpnext_site
[DEBUG] 2018-12-21 04:57:33,078 | /home/babitagujar/frappe-bench/apps/frappe/frappe/utils/scheduler.py:
Site: library
Queued events for site library
[DEBUG] 2018-12-21 04:58:33,184 | /home/babitagujar/frappe-bench/apps/frappe/frappe/utils/scheduler.py:
Site: ekart_site
Queued events for site ekart_site
