[DEBUG] 2018-12-20 08:00:53,686 | /home/babitagujar/frappe-bench/apps/frappe/frappe/utils/scheduler.py:
Site: library
Queued events for site library
[DEBUG] 2018-12-20 08:01:53,777 | /home/babitagujar/frappe-bench/apps/frappe/frappe/utils/scheduler.py:
Site: ekart_site
Queued events for site ekart_site
[DEBUG] 2018-12-20 08:01:53,792 | /home/babitagujar/frappe-bench/apps/frappe/frappe/utils/scheduler.py:
Site: erpnext_site
Queued events for site erpnext_site
[DEBUG] 2018-12-20 08:01:53,807 | /home/babitagujar/frappe-bench/apps/frappe/frappe/utils/scheduler.py:
Site: library
Queued events for site library
[ERROR] 2018-12-20 08:02:49,024 | /home/babitagujar/frappe-bench/apps/frappe/frappe/app.py:
Site: ekart_site
Form Dict: {
 "name": "24ec3b40e9",
 "title": "Nescafe Coffe"
}
Request Error
Traceback (most recent call last):
  File "/home/babitagujar/frappe-bench/apps/frappe/frappe/website/render.py", line 45, in render
    data = render_page_by_language(path)
  File "/home/babitagujar/frappe-bench/apps/frappe/frappe/website/render.py", line 139, in render_page_by_language
    return render_page(path)
  File "/home/babitagujar/frappe-bench/apps/frappe/frappe/website/render.py", line 155, in render_page
    return build(path)
  File "/home/babitagujar/frappe-bench/apps/frappe/frappe/website/render.py", line 162, in build
    return build_page(path)
  File "/home/babitagujar/frappe-bench/apps/frappe/frappe/website/render.py", line 175, in build_page
    context = get_context(path)
  File "/home/babitagujar/frappe-bench/apps/frappe/frappe/website/context.py", line 28, in get_context
    context = build_context(context)
  File "/home/babitagujar/frappe-bench/apps/frappe/frappe/website/context.py", line 87, in build_context
    ret = context.doc.get_context(context)
  File "/home/babitagujar/frappe-bench/apps/frappe/frappe/website/doctype/web_form/web_form.py", line 170, in get_context
    self.add_custom_context_and_script(context)
  File "/home/babitagujar/frappe-bench/apps/frappe/frappe/website/doctype/web_form/web_form.py", line 257, in add_custom_context_and_script
    new_context = self.web_form_module.get_context(context)
  File "/home/babitagujar/frappe-bench/apps/ekart/ekart/ekart/web_form/add_product/add_product.py", line 7, in get_context
    context.product = frappe.get.doc(' Product Details', frappe.form_dict.title)
AttributeError: module 'frappe' has no attribute 'get'

During handling of the above exception, another exception occurred:

Traceback (most recent call last):
  File "/home/babitagujar/frappe-bench/apps/frappe/frappe/website/context.py", line 48, in update_controller_context
    ret = module.get_context(context)
  File "/home/babitagujar/frappe-bench/apps/frappe/frappe/www/error.py", line 12, in get_context
    print(frappe.get_traceback().encode("utf-8"))
BrokenPipeError: [Errno 32] Broken pipe

During handling of the above exception, another exception occurred:

Traceback (most recent call last):
  File "/home/babitagujar/frappe-bench/apps/frappe/frappe/app.py", line 69, in application
    response = frappe.website.render.render()
  File "/home/babitagujar/frappe-bench/apps/frappe/frappe/website/render.py", line 72, in render
    data = render_page(path)
  File "/home/babitagujar/frappe-bench/apps/frappe/frappe/website/render.py", line 155, in render_page
    return build(path)
  File "/home/babitagujar/frappe-bench/apps/frappe/frappe/website/render.py", line 162, in build
    return build_page(path)
  File "/home/babitagujar/frappe-bench/apps/frappe/frappe/website/render.py", line 175, in build_page
    context = get_context(path)
  File "/home/babitagujar/frappe-bench/apps/frappe/frappe/website/context.py", line 28, in get_context
    context = build_context(context)
  File "/home/babitagujar/frappe-bench/apps/frappe/frappe/website/context.py", line 98, in build_context
    update_controller_context(context, context.controller)
  File "/home/babitagujar/frappe-bench/apps/frappe/frappe/website/context.py", line 55, in update_controller_context
    frappe.errprint(frappe.utils.get_traceback())
  File "/home/babitagujar/frappe-bench/apps/frappe/frappe/__init__.py", line 262, in errprint
    print(msg)
BrokenPipeError: [Errno 32] Broken pipe
[ERROR] 2018-12-20 08:02:49,088 | /home/babitagujar/frappe-bench/apps/frappe/frappe/utils/error.py:
Could not take error snapshot: startswith first arg must be str or a tuple of str, not bytes
Traceback (most recent call last):
  File "/home/babitagujar/frappe-bench/apps/frappe/frappe/website/render.py", line 45, in render
    data = render_page_by_language(path)
  File "/home/babitagujar/frappe-bench/apps/frappe/frappe/website/render.py", line 139, in render_page_by_language
    return render_page(path)
  File "/home/babitagujar/frappe-bench/apps/frappe/frappe/website/render.py", line 155, in render_page
    return build(path)
  File "/home/babitagujar/frappe-bench/apps/frappe/frappe/website/render.py", line 162, in build
    return build_page(path)
  File "/home/babitagujar/frappe-bench/apps/frappe/frappe/website/render.py", line 175, in build_page
    context = get_context(path)
  File "/home/babitagujar/frappe-bench/apps/frappe/frappe/website/context.py", line 28, in get_context
    context = build_context(context)
  File "/home/babitagujar/frappe-bench/apps/frappe/frappe/website/context.py", line 87, in build_context
    ret = context.doc.get_context(context)
  File "/home/babitagujar/frappe-bench/apps/frappe/frappe/website/doctype/web_form/web_form.py", line 170, in get_context
    self.add_custom_context_and_script(context)
  File "/home/babitagujar/frappe-bench/apps/frappe/frappe/website/doctype/web_form/web_form.py", line 257, in add_custom_context_and_script
    new_context = self.web_form_module.get_context(context)
  File "/home/babitagujar/frappe-bench/apps/ekart/ekart/ekart/web_form/add_product/add_product.py", line 7, in get_context
    context.product = frappe.get.doc(' Product Details', frappe.form_dict.title)
AttributeError: module 'frappe' has no attribute 'get'

During handling of the above exception, another exception occurred:

Traceback (most recent call last):
  File "/home/babitagujar/frappe-bench/apps/frappe/frappe/website/context.py", line 48, in update_controller_context
    ret = module.get_context(context)
  File "/home/babitagujar/frappe-bench/apps/frappe/frappe/www/error.py", line 12, in get_context
    print(frappe.get_traceback().encode("utf-8"))
BrokenPipeError: [Errno 32] Broken pipe

During handling of the above exception, another exception occurred:

Traceback (most recent call last):
  File "/home/babitagujar/frappe-bench/apps/frappe/frappe/app.py", line 69, in application
    response = frappe.website.render.render()
  File "/home/babitagujar/frappe-bench/apps/frappe/frappe/website/render.py", line 72, in render
    data = render_page(path)
  File "/home/babitagujar/frappe-bench/apps/frappe/frappe/website/render.py", line 155, in render_page
    return build(path)
  File "/home/babitagujar/frappe-bench/apps/frappe/frappe/website/render.py", line 162, in build
    return build_page(path)
  File "/home/babitagujar/frappe-bench/apps/frappe/frappe/website/render.py", line 175, in build_page
    context = get_context(path)
  File "/home/babitagujar/frappe-bench/apps/frappe/frappe/website/context.py", line 28, in get_context
    context = build_context(context)
  File "/home/babitagujar/frappe-bench/apps/frappe/frappe/website/context.py", line 98, in build_context
    update_controller_context(context, context.controller)
  File "/home/babitagujar/frappe-bench/apps/frappe/frappe/website/context.py", line 55, in update_controller_context
    frappe.errprint(frappe.utils.get_traceback())
  File "/home/babitagujar/frappe-bench/apps/frappe/frappe/__init__.py", line 262, in errprint
    print(msg)
BrokenPipeError: [Errno 32] Broken pipe

During handling of the above exception, another exception occurred:

Traceback (most recent call last):
  File "/home/babitagujar/frappe-bench/apps/frappe/frappe/utils/error.py", line 37, in make_error_snapshot
    snapshot = get_snapshot(exception)
  File "/home/babitagujar/frappe-bench/apps/frappe/frappe/utils/error.py", line 132, in get_snapshot
    if type(value)==str and value.startswith(b"u'"):
TypeError: startswith first arg must be str or a tuple of str, not bytes
[DEBUG] 2018-12-20 08:02:53,908 | /home/babitagujar/frappe-bench/apps/frappe/frappe/utils/scheduler.py:
Site: ekart_site
Queued events for site ekart_site
[DEBUG] 2018-12-20 08:02:53,934 | /home/babitagujar/frappe-bench/apps/frappe/frappe/utils/scheduler.py:
Site: erpnext_site
Queued events for site erpnext_site
[DEBUG] 2018-12-20 08:02:53,978 | /home/babitagujar/frappe-bench/apps/frappe/frappe/utils/scheduler.py:
Site: library
Queued events for site library
[DEBUG] 2018-12-20 08:03:54,064 | /home/babitagujar/frappe-bench/apps/frappe/frappe/utils/scheduler.py:
Site: ekart_site
Queued events for site ekart_site
[DEBUG] 2018-12-20 08:03:54,077 | /home/babitagujar/frappe-bench/apps/frappe/frappe/utils/scheduler.py:
Site: erpnext_site
Queued events for site erpnext_site
[DEBUG] 2018-12-20 08:03:54,090 | /home/babitagujar/frappe-bench/apps/frappe/frappe/utils/scheduler.py:
Site: library
Queued events for site library
[ERROR] 2018-12-20 08:04:32,115 | /home/babitagujar/frappe-bench/apps/frappe/frappe/app.py:
Site: ekart_site
Form Dict: {
 "name": "24ec3b40e9",
 "title": "Nescafe Coffe"
}
Request Error
Traceback (most recent call last):
  File "/home/babitagujar/frappe-bench/apps/frappe/frappe/website/render.py", line 45, in render
    data = render_page_by_language(path)
  File "/home/babitagujar/frappe-bench/apps/frappe/frappe/website/render.py", line 139, in render_page_by_language
    return render_page(path)
  File "/home/babitagujar/frappe-bench/apps/frappe/frappe/website/render.py", line 155, in render_page
    return build(path)
  File "/home/babitagujar/frappe-bench/apps/frappe/frappe/website/render.py", line 162, in build
    return build_page(path)
  File "/home/babitagujar/frappe-bench/apps/frappe/frappe/website/render.py", line 175, in build_page
    context = get_context(path)
  File "/home/babitagujar/frappe-bench/apps/frappe/frappe/website/context.py", line 28, in get_context
    context = build_context(context)
  File "/home/babitagujar/frappe-bench/apps/frappe/frappe/website/context.py", line 87, in build_context
    ret = context.doc.get_context(context)
  File "/home/babitagujar/frappe-bench/apps/frappe/frappe/website/doctype/web_form/web_form.py", line 170, in get_context
    self.add_custom_context_and_script(context)
  File "/home/babitagujar/frappe-bench/apps/frappe/frappe/website/doctype/web_form/web_form.py", line 257, in add_custom_context_and_script
    new_context = self.web_form_module.get_context(context)
  File "/home/babitagujar/frappe-bench/apps/ekart/ekart/ekart/web_form/add_product/add_product.py", line 7, in get_context
    context.ekart = frappe.get.doc(' Product Details', frappe.form_dict.title)
AttributeError: module 'frappe' has no attribute 'get'

During handling of the above exception, another exception occurred:

Traceback (most recent call last):
  File "/home/babitagujar/frappe-bench/apps/frappe/frappe/website/context.py", line 48, in update_controller_context
    ret = module.get_context(context)
  File "/home/babitagujar/frappe-bench/apps/frappe/frappe/www/error.py", line 12, in get_context
    print(frappe.get_traceback().encode("utf-8"))
BrokenPipeError: [Errno 32] Broken pipe

During handling of the above exception, another exception occurred:

Traceback (most recent call last):
  File "/home/babitagujar/frappe-bench/apps/frappe/frappe/app.py", line 69, in application
    response = frappe.website.render.render()
  File "/home/babitagujar/frappe-bench/apps/frappe/frappe/website/render.py", line 72, in render
    data = render_page(path)
  File "/home/babitagujar/frappe-bench/apps/frappe/frappe/website/render.py", line 155, in render_page
    return build(path)
  File "/home/babitagujar/frappe-bench/apps/frappe/frappe/website/render.py", line 162, in build
    return build_page(path)
  File "/home/babitagujar/frappe-bench/apps/frappe/frappe/website/render.py", line 175, in build_page
    context = get_context(path)
  File "/home/babitagujar/frappe-bench/apps/frappe/frappe/website/context.py", line 28, in get_context
    context = build_context(context)
  File "/home/babitagujar/frappe-bench/apps/frappe/frappe/website/context.py", line 98, in build_context
    update_controller_context(context, context.controller)
  File "/home/babitagujar/frappe-bench/apps/frappe/frappe/website/context.py", line 55, in update_controller_context
    frappe.errprint(frappe.utils.get_traceback())
  File "/home/babitagujar/frappe-bench/apps/frappe/frappe/__init__.py", line 262, in errprint
    print(msg)
BrokenPipeError: [Errno 32] Broken pipe
[ERROR] 2018-12-20 08:04:32,177 | /home/babitagujar/frappe-bench/apps/frappe/frappe/utils/error.py:
Could not take error snapshot: startswith first arg must be str or a tuple of str, not bytes
Traceback (most recent call last):
  File "/home/babitagujar/frappe-bench/apps/frappe/frappe/website/render.py", line 45, in render
    data = render_page_by_language(path)
  File "/home/babitagujar/frappe-bench/apps/frappe/frappe/website/render.py", line 139, in render_page_by_language
    return render_page(path)
  File "/home/babitagujar/frappe-bench/apps/frappe/frappe/website/render.py", line 155, in render_page
    return build(path)
  File "/home/babitagujar/frappe-bench/apps/frappe/frappe/website/render.py", line 162, in build
    return build_page(path)
  File "/home/babitagujar/frappe-bench/apps/frappe/frappe/website/render.py", line 175, in build_page
    context = get_context(path)
  File "/home/babitagujar/frappe-bench/apps/frappe/frappe/website/context.py", line 28, in get_context
    context = build_context(context)
  File "/home/babitagujar/frappe-bench/apps/frappe/frappe/website/context.py", line 87, in build_context
    ret = context.doc.get_context(context)
  File "/home/babitagujar/frappe-bench/apps/frappe/frappe/website/doctype/web_form/web_form.py", line 170, in get_context
    self.add_custom_context_and_script(context)
  File "/home/babitagujar/frappe-bench/apps/frappe/frappe/website/doctype/web_form/web_form.py", line 257, in add_custom_context_and_script
    new_context = self.web_form_module.get_context(context)
  File "/home/babitagujar/frappe-bench/apps/ekart/ekart/ekart/web_form/add_product/add_product.py", line 7, in get_context
    context.ekart = frappe.get.doc(' Product Details', frappe.form_dict.title)
AttributeError: module 'frappe' has no attribute 'get'

During handling of the above exception, another exception occurred:

Traceback (most recent call last):
  File "/home/babitagujar/frappe-bench/apps/frappe/frappe/website/context.py", line 48, in update_controller_context
    ret = module.get_context(context)
  File "/home/babitagujar/frappe-bench/apps/frappe/frappe/www/error.py", line 12, in get_context
    print(frappe.get_traceback().encode("utf-8"))
BrokenPipeError: [Errno 32] Broken pipe

During handling of the above exception, another exception occurred:

Traceback (most recent call last):
  File "/home/babitagujar/frappe-bench/apps/frappe/frappe/app.py", line 69, in application
    response = frappe.website.render.render()
  File "/home/babitagujar/frappe-bench/apps/frappe/frappe/website/render.py", line 72, in render
    data = render_page(path)
  File "/home/babitagujar/frappe-bench/apps/frappe/frappe/website/render.py", line 155, in render_page
    return build(path)
  File "/home/babitagujar/frappe-bench/apps/frappe/frappe/website/render.py", line 162, in build
    return build_page(path)
  File "/home/babitagujar/frappe-bench/apps/frappe/frappe/website/render.py", line 175, in build_page
    context = get_context(path)
  File "/home/babitagujar/frappe-bench/apps/frappe/frappe/website/context.py", line 28, in get_context
    context = build_context(context)
  File "/home/babitagujar/frappe-bench/apps/frappe/frappe/website/context.py", line 98, in build_context
    update_controller_context(context, context.controller)
  File "/home/babitagujar/frappe-bench/apps/frappe/frappe/website/context.py", line 55, in update_controller_context
    frappe.errprint(frappe.utils.get_traceback())
  File "/home/babitagujar/frappe-bench/apps/frappe/frappe/__init__.py", line 262, in errprint
    print(msg)
BrokenPipeError: [Errno 32] Broken pipe

During handling of the above exception, another exception occurred:

Traceback (most recent call last):
  File "/home/babitagujar/frappe-bench/apps/frappe/frappe/utils/error.py", line 37, in make_error_snapshot
    snapshot = get_snapshot(exception)
  File "/home/babitagujar/frappe-bench/apps/frappe/frappe/utils/error.py", line 132, in get_snapshot
    if type(value)==str and value.startswith(b"u'"):
TypeError: startswith first arg must be str or a tuple of str, not bytes
[DEBUG] 2018-12-20 08:04:54,170 | /home/babitagujar/frappe-bench/apps/frappe/frappe/utils/scheduler.py:
Site: ekart_site
Queued events for site ekart_site
[DEBUG] 2018-12-20 08:04:54,183 | /home/babitagujar/frappe-bench/apps/frappe/frappe/utils/scheduler.py:
Site: erpnext_site
Queued events for site erpnext_site
[DEBUG] 2018-12-20 08:04:54,196 | /home/babitagujar/frappe-bench/apps/frappe/frappe/utils/scheduler.py:
Site: library
Queued events for site library
[ERROR] 2018-12-20 08:05:22,782 | /home/babitagujar/frappe-bench/apps/frappe/frappe/app.py:
Site: ekart_site
Form Dict: {
 "name": "24ec3b40e9",
 "title": "Nescafe Coffe"
}
Request Error
Traceback (most recent call last):
  File "/home/babitagujar/frappe-bench/apps/frappe/frappe/modules/utils.py", line 184, in load_doctype_module
    doctype_python_modules[key] = frappe.get_module(module_name)
  File "/home/babitagujar/frappe-bench/apps/frappe/frappe/__init__.py", line 783, in get_module
    return importlib.import_module(modulename)
  File "/home/babitagujar/frappe-bench/env/lib/python3.6/importlib/__init__.py", line 126, in import_module
    return _bootstrap._gcd_import(name[level:], package, level)
  File "<frozen importlib._bootstrap>", line 994, in _gcd_import
  File "<frozen importlib._bootstrap>", line 971, in _find_and_load
  File "<frozen importlib._bootstrap>", line 941, in _find_and_load_unlocked
  File "<frozen importlib._bootstrap>", line 219, in _call_with_frames_removed
  File "<frozen importlib._bootstrap>", line 994, in _gcd_import
  File "<frozen importlib._bootstrap>", line 971, in _find_and_load
  File "<frozen importlib._bootstrap>", line 953, in _find_and_load_unlocked
ModuleNotFoundError: No module named 'frappe.core.doctype._product_details'

During handling of the above exception, another exception occurred:

Traceback (most recent call last):
  File "/home/babitagujar/frappe-bench/apps/frappe/frappe/website/render.py", line 45, in render
    data = render_page_by_language(path)
  File "/home/babitagujar/frappe-bench/apps/frappe/frappe/website/render.py", line 139, in render_page_by_language
    return render_page(path)
  File "/home/babitagujar/frappe-bench/apps/frappe/frappe/website/render.py", line 155, in render_page
    return build(path)
  File "/home/babitagujar/frappe-bench/apps/frappe/frappe/website/render.py", line 162, in build
    return build_page(path)
  File "/home/babitagujar/frappe-bench/apps/frappe/frappe/website/render.py", line 175, in build_page
    context = get_context(path)
  File "/home/babitagujar/frappe-bench/apps/frappe/frappe/website/context.py", line 28, in get_context
    context = build_context(context)
  File "/home/babitagujar/frappe-bench/apps/frappe/frappe/website/context.py", line 87, in build_context
    ret = context.doc.get_context(context)
  File "/home/babitagujar/frappe-bench/apps/frappe/frappe/website/doctype/web_form/web_form.py", line 170, in get_context
    self.add_custom_context_and_script(context)
  File "/home/babitagujar/frappe-bench/apps/frappe/frappe/website/doctype/web_form/web_form.py", line 257, in add_custom_context_and_script
    new_context = self.web_form_module.get_context(context)
  File "/home/babitagujar/frappe-bench/apps/ekart/ekart/ekart/web_form/add_product/add_product.py", line 7, in get_context
    context.ekart = frappe.get_doc(' Product Details', frappe.form_dict.title)
  File "/home/babitagujar/frappe-bench/apps/frappe/frappe/__init__.py", line 709, in get_doc
    doc = frappe.model.document.get_doc(*args, **kwargs)
  File "/home/babitagujar/frappe-bench/apps/frappe/frappe/model/document.py", line 66, in get_doc
    controller = get_controller(doctype)
  File "/home/babitagujar/frappe-bench/apps/frappe/frappe/model/base_document.py", line 36, in get_controller
    module = load_doctype_module(doctype, module_name)
  File "/home/babitagujar/frappe-bench/apps/frappe/frappe/modules/utils.py", line 186, in load_doctype_module
    raise ImportError('Module import failed for {0} ({1})'.format(doctype, module_name + ' Error: ' + str(e)))
ImportError: Module import failed for  Product Details (frappe.core.doctype._product_details._product_details Error: No module named 'frappe.core.doctype._product_details')

During handling of the above exception, another exception occurred:

Traceback (most recent call last):
  File "/home/babitagujar/frappe-bench/apps/frappe/frappe/website/context.py", line 48, in update_controller_context
    ret = module.get_context(context)
  File "/home/babitagujar/frappe-bench/apps/frappe/frappe/www/error.py", line 12, in get_context
    print(frappe.get_traceback().encode("utf-8"))
BrokenPipeError: [Errno 32] Broken pipe

During handling of the above exception, another exception occurred:

Traceback (most recent call last):
  File "/home/babitagujar/frappe-bench/apps/frappe/frappe/app.py", line 69, in application
    response = frappe.website.render.render()
  File "/home/babitagujar/frappe-bench/apps/frappe/frappe/website/render.py", line 72, in render
    data = render_page(path)
  File "/home/babitagujar/frappe-bench/apps/frappe/frappe/website/render.py", line 155, in render_page
    return build(path)
  File "/home/babitagujar/frappe-bench/apps/frappe/frappe/website/render.py", line 162, in build
    return build_page(path)
  File "/home/babitagujar/frappe-bench/apps/frappe/frappe/website/render.py", line 175, in build_page
    context = get_context(path)
  File "/home/babitagujar/frappe-bench/apps/frappe/frappe/website/context.py", line 28, in get_context
    context = build_context(context)
  File "/home/babitagujar/frappe-bench/apps/frappe/frappe/website/context.py", line 98, in build_context
    update_controller_context(context, context.controller)
  File "/home/babitagujar/frappe-bench/apps/frappe/frappe/website/context.py", line 55, in update_controller_context
    frappe.errprint(frappe.utils.get_traceback())
  File "/home/babitagujar/frappe-bench/apps/frappe/frappe/__init__.py", line 262, in errprint
    print(msg)
BrokenPipeError: [Errno 32] Broken pipe
[ERROR] 2018-12-20 08:05:22,846 | /home/babitagujar/frappe-bench/apps/frappe/frappe/utils/error.py:
Could not take error snapshot: startswith first arg must be str or a tuple of str, not bytes
Traceback (most recent call last):
  File "/home/babitagujar/frappe-bench/apps/frappe/frappe/modules/utils.py", line 184, in load_doctype_module
    doctype_python_modules[key] = frappe.get_module(module_name)
  File "/home/babitagujar/frappe-bench/apps/frappe/frappe/__init__.py", line 783, in get_module
    return importlib.import_module(modulename)
  File "/home/babitagujar/frappe-bench/env/lib/python3.6/importlib/__init__.py", line 126, in import_module
    return _bootstrap._gcd_import(name[level:], package, level)
  File "<frozen importlib._bootstrap>", line 994, in _gcd_import
  File "<frozen importlib._bootstrap>", line 971, in _find_and_load
  File "<frozen importlib._bootstrap>", line 941, in _find_and_load_unlocked
  File "<frozen importlib._bootstrap>", line 219, in _call_with_frames_removed
  File "<frozen importlib._bootstrap>", line 994, in _gcd_import
  File "<frozen importlib._bootstrap>", line 971, in _find_and_load
  File "<frozen importlib._bootstrap>", line 953, in _find_and_load_unlocked
ModuleNotFoundError: No module named 'frappe.core.doctype._product_details'

During handling of the above exception, another exception occurred:

Traceback (most recent call last):
  File "/home/babitagujar/frappe-bench/apps/frappe/frappe/website/render.py", line 45, in render
    data = render_page_by_language(path)
  File "/home/babitagujar/frappe-bench/apps/frappe/frappe/website/render.py", line 139, in render_page_by_language
    return render_page(path)
  File "/home/babitagujar/frappe-bench/apps/frappe/frappe/website/render.py", line 155, in render_page
    return build(path)
  File "/home/babitagujar/frappe-bench/apps/frappe/frappe/website/render.py", line 162, in build
    return build_page(path)
  File "/home/babitagujar/frappe-bench/apps/frappe/frappe/website/render.py", line 175, in build_page
    context = get_context(path)
  File "/home/babitagujar/frappe-bench/apps/frappe/frappe/website/context.py", line 28, in get_context
    context = build_context(context)
  File "/home/babitagujar/frappe-bench/apps/frappe/frappe/website/context.py", line 87, in build_context
    ret = context.doc.get_context(context)
  File "/home/babitagujar/frappe-bench/apps/frappe/frappe/website/doctype/web_form/web_form.py", line 170, in get_context
    self.add_custom_context_and_script(context)
  File "/home/babitagujar/frappe-bench/apps/frappe/frappe/website/doctype/web_form/web_form.py", line 257, in add_custom_context_and_script
    new_context = self.web_form_module.get_context(context)
  File "/home/babitagujar/frappe-bench/apps/ekart/ekart/ekart/web_form/add_product/add_product.py", line 7, in get_context
    context.ekart = frappe.get_doc(' Product Details', frappe.form_dict.title)
  File "/home/babitagujar/frappe-bench/apps/frappe/frappe/__init__.py", line 709, in get_doc
    doc = frappe.model.document.get_doc(*args, **kwargs)
  File "/home/babitagujar/frappe-bench/apps/frappe/frappe/model/document.py", line 66, in get_doc
    controller = get_controller(doctype)
  File "/home/babitagujar/frappe-bench/apps/frappe/frappe/model/base_document.py", line 36, in get_controller
    module = load_doctype_module(doctype, module_name)
  File "/home/babitagujar/frappe-bench/apps/frappe/frappe/modules/utils.py", line 186, in load_doctype_module
    raise ImportError('Module import failed for {0} ({1})'.format(doctype, module_name + ' Error: ' + str(e)))
ImportError: Module import failed for  Product Details (frappe.core.doctype._product_details._product_details Error: No module named 'frappe.core.doctype._product_details')

During handling of the above exception, another exception occurred:

Traceback (most recent call last):
  File "/home/babitagujar/frappe-bench/apps/frappe/frappe/website/context.py", line 48, in update_controller_context
    ret = module.get_context(context)
  File "/home/babitagujar/frappe-bench/apps/frappe/frappe/www/error.py", line 12, in get_context
    print(frappe.get_traceback().encode("utf-8"))
BrokenPipeError: [Errno 32] Broken pipe

During handling of the above exception, another exception occurred:

Traceback (most recent call last):
  File "/home/babitagujar/frappe-bench/apps/frappe/frappe/app.py", line 69, in application
    response = frappe.website.render.render()
  File "/home/babitagujar/frappe-bench/apps/frappe/frappe/website/render.py", line 72, in render
    data = render_page(path)
  File "/home/babitagujar/frappe-bench/apps/frappe/frappe/website/render.py", line 155, in render_page
    return build(path)
  File "/home/babitagujar/frappe-bench/apps/frappe/frappe/website/render.py", line 162, in build
    return build_page(path)
  File "/home/babitagujar/frappe-bench/apps/frappe/frappe/website/render.py", line 175, in build_page
    context = get_context(path)
  File "/home/babitagujar/frappe-bench/apps/frappe/frappe/website/context.py", line 28, in get_context
    context = build_context(context)
  File "/home/babitagujar/frappe-bench/apps/frappe/frappe/website/context.py", line 98, in build_context
    update_controller_context(context, context.controller)
  File "/home/babitagujar/frappe-bench/apps/frappe/frappe/website/context.py", line 55, in update_controller_context
    frappe.errprint(frappe.utils.get_traceback())
  File "/home/babitagujar/frappe-bench/apps/frappe/frappe/__init__.py", line 262, in errprint
    print(msg)
BrokenPipeError: [Errno 32] Broken pipe

During handling of the above exception, another exception occurred:

Traceback (most recent call last):
  File "/home/babitagujar/frappe-bench/apps/frappe/frappe/utils/error.py", line 37, in make_error_snapshot
    snapshot = get_snapshot(exception)
  File "/home/babitagujar/frappe-bench/apps/frappe/frappe/utils/error.py", line 132, in get_snapshot
    if type(value)==str and value.startswith(b"u'"):
TypeError: startswith first arg must be str or a tuple of str, not bytes
[DEBUG] 2018-12-20 08:05:54,281 | /home/babitagujar/frappe-bench/apps/frappe/frappe/utils/scheduler.py:
Site: ekart_site
Queued events for site ekart_site
[DEBUG] 2018-12-20 08:05:54,294 | /home/babitagujar/frappe-bench/apps/frappe/frappe/utils/scheduler.py:
Site: erpnext_site
Queued events for site erpnext_site
[DEBUG] 2018-12-20 08:05:54,307 | /home/babitagujar/frappe-bench/apps/frappe/frappe/utils/scheduler.py:
Site: library
Queued events for site library
[DEBUG] 2018-12-20 08:06:54,411 | /home/babitagujar/frappe-bench/apps/frappe/frappe/utils/scheduler.py:
Site: ekart_site
Queued events for site ekart_site
[DEBUG] 2018-12-20 08:06:54,439 | /home/babitagujar/frappe-bench/apps/frappe/frappe/utils/scheduler.py:
Site: erpnext_site
Queued events for site erpnext_site
[DEBUG] 2018-12-20 08:06:54,486 | /home/babitagujar/frappe-bench/apps/frappe/frappe/utils/scheduler.py:
Site: library
Queued events for site library
[DEBUG] 2018-12-20 08:07:54,572 | /home/babitagujar/frappe-bench/apps/frappe/frappe/utils/scheduler.py:
Site: ekart_site
Queued events for site ekart_site
[DEBUG] 2018-12-20 08:07:54,585 | /home/babitagujar/frappe-bench/apps/frappe/frappe/utils/scheduler.py:
Site: erpnext_site
Queued events for site erpnext_site
[DEBUG] 2018-12-20 08:07:54,598 | /home/babitagujar/frappe-bench/apps/frappe/frappe/utils/scheduler.py:
Site: library
Queued events for site library
[DEBUG] 2018-12-20 08:08:54,682 | /home/babitagujar/frappe-bench/apps/frappe/frappe/utils/scheduler.py:
Site: ekart_site
Queued events for site ekart_site
[DEBUG] 2018-12-20 08:08:54,694 | /home/babitagujar/frappe-bench/apps/frappe/frappe/utils/scheduler.py:
Site: erpnext_site
Queued events for site erpnext_site
[DEBUG] 2018-12-20 08:08:54,707 | /home/babitagujar/frappe-bench/apps/frappe/frappe/utils/scheduler.py:
Site: library
Queued events for site library
[DEBUG] 2018-12-20 08:09:54,788 | /home/babitagujar/frappe-bench/apps/frappe/frappe/utils/scheduler.py:
Site: ekart_site
Queued events for site ekart_site
[DEBUG] 2018-12-20 08:09:54,800 | /home/babitagujar/frappe-bench/apps/frappe/frappe/utils/scheduler.py:
Site: erpnext_site
Queued events for site erpnext_site
[DEBUG] 2018-12-20 08:09:54,813 | /home/babitagujar/frappe-bench/apps/frappe/frappe/utils/scheduler.py:
Site: library
Queued events for site library
[DEBUG] 2018-12-20 08:10:54,920 | /home/babitagujar/frappe-bench/apps/frappe/frappe/utils/scheduler.py:
Site: ekart_site
Queued events for site ekart_site
[DEBUG] 2018-12-20 08:10:54,954 | /home/babitagujar/frappe-bench/apps/frappe/frappe/utils/scheduler.py:
Site: erpnext_site
Queued events for site erpnext_site
[DEBUG] 2018-12-20 08:10:55,006 | /home/babitagujar/frappe-bench/apps/frappe/frappe/utils/scheduler.py:
Site: library
Queued events for site library
[DEBUG] 2018-12-20 08:11:55,091 | /home/babitagujar/frappe-bench/apps/frappe/frappe/utils/scheduler.py:
Site: ekart_site
Queued events for site ekart_site
[DEBUG] 2018-12-20 08:11:55,104 | /home/babitagujar/frappe-bench/apps/frappe/frappe/utils/scheduler.py:
Site: erpnext_site
Queued events for site erpnext_site
[DEBUG] 2018-12-20 08:11:55,117 | /home/babitagujar/frappe-bench/apps/frappe/frappe/utils/scheduler.py:
Site: library
Queued events for site library
[DEBUG] 2018-12-20 08:12:55,162 | /home/babitagujar/frappe-bench/apps/frappe/frappe/utils/scheduler.py:
Site: ekart_site
Queued events for site ekart_site
[DEBUG] 2018-12-20 08:12:55,175 | /home/babitagujar/frappe-bench/apps/frappe/frappe/utils/scheduler.py:
Site: erpnext_site
Queued events for site erpnext_site
[DEBUG] 2018-12-20 08:12:55,190 | /home/babitagujar/frappe-bench/apps/frappe/frappe/utils/scheduler.py:
Site: library
Queued events for site library
[DEBUG] 2018-12-20 08:13:55,276 | /home/babitagujar/frappe-bench/apps/frappe/frappe/utils/scheduler.py:
Site: ekart_site
Queued events for site ekart_site
[DEBUG] 2018-12-20 08:13:55,290 | /home/babitagujar/frappe-bench/apps/frappe/frappe/utils/scheduler.py:
Site: erpnext_site
Queued events for site erpnext_site
[DEBUG] 2018-12-20 08:13:55,302 | /home/babitagujar/frappe-bench/apps/frappe/frappe/utils/scheduler.py:
Site: library
Queued events for site library
[DEBUG] 2018-12-20 08:14:55,408 | /home/babitagujar/frappe-bench/apps/frappe/frappe/utils/scheduler.py:
Site: ekart_site
Queued events for site ekart_site
[DEBUG] 2018-12-20 08:14:55,442 | /home/babitagujar/frappe-bench/apps/frappe/frappe/utils/scheduler.py:
Site: erpnext_site
Queued events for site erpnext_site
[DEBUG] 2018-12-20 08:14:55,493 | /home/babitagujar/frappe-bench/apps/frappe/frappe/utils/scheduler.py:
Site: library
Queued events for site library
[DEBUG] 2018-12-20 08:15:55,577 | /home/babitagujar/frappe-bench/apps/frappe/frappe/utils/scheduler.py:
Site: ekart_site
Queued events for site ekart_site
[DEBUG] 2018-12-20 08:15:55,590 | /home/babitagujar/frappe-bench/apps/frappe/frappe/utils/scheduler.py:
Site: erpnext_site
Queued events for site erpnext_site
[DEBUG] 2018-12-20 08:15:55,603 | /home/babitagujar/frappe-bench/apps/frappe/frappe/utils/scheduler.py:
Site: library
Queued events for site library
[DEBUG] 2018-12-20 08:16:55,692 | /home/babitagujar/frappe-bench/apps/frappe/frappe/utils/scheduler.py:
Site: ekart_site
Queued events for site ekart_site
[DEBUG] 2018-12-20 08:16:55,707 | /home/babitagujar/frappe-bench/apps/frappe/frappe/utils/scheduler.py:
Site: erpnext_site
Queued events for site erpnext_site
[DEBUG] 2018-12-20 08:16:55,721 | /home/babitagujar/frappe-bench/apps/frappe/frappe/utils/scheduler.py:
Site: library
Queued events for site library
[DEBUG] 2018-12-20 08:17:55,806 | /home/babitagujar/frappe-bench/apps/frappe/frappe/utils/scheduler.py:
Site: ekart_site
Queued events for site ekart_site
[DEBUG] 2018-12-20 08:17:55,819 | /home/babitagujar/frappe-bench/apps/frappe/frappe/utils/scheduler.py:
Site: erpnext_site
Queued events for site erpnext_site
[DEBUG] 2018-12-20 08:17:55,832 | /home/babitagujar/frappe-bench/apps/frappe/frappe/utils/scheduler.py:
Site: library
Queued events for site library
[DEBUG] 2018-12-20 08:18:55,945 | /home/babitagujar/frappe-bench/apps/frappe/frappe/utils/scheduler.py:
Site: ekart_site
Queued events for site ekart_site
[DEBUG] 2018-12-20 08:18:55,976 | /home/babitagujar/frappe-bench/apps/frappe/frappe/utils/scheduler.py:
Site: erpnext_site
Queued events for site erpnext_site
[DEBUG] 2018-12-20 08:18:56,027 | /home/babitagujar/frappe-bench/apps/frappe/frappe/utils/scheduler.py:
Site: library
Queued events for site library
[DEBUG] 2018-12-20 08:19:56,114 | /home/babitagujar/frappe-bench/apps/frappe/frappe/utils/scheduler.py:
Site: ekart_site
Queued events for site ekart_site
[DEBUG] 2018-12-20 08:19:56,126 | /home/babitagujar/frappe-bench/apps/frappe/frappe/utils/scheduler.py:
Site: erpnext_site
Queued events for site erpnext_site
[DEBUG] 2018-12-20 08:19:56,139 | /home/babitagujar/frappe-bench/apps/frappe/frappe/utils/scheduler.py:
Site: library
Queued events for site library
[DEBUG] 2018-12-20 08:20:56,224 | /home/babitagujar/frappe-bench/apps/frappe/frappe/utils/scheduler.py:
Site: ekart_site
Queued events for site ekart_site
[DEBUG] 2018-12-20 08:20:56,238 | /home/babitagujar/frappe-bench/apps/frappe/frappe/utils/scheduler.py:
Site: erpnext_site
Queued events for site erpnext_site
[DEBUG] 2018-12-20 08:20:56,251 | /home/babitagujar/frappe-bench/apps/frappe/frappe/utils/scheduler.py:
Site: library
Queued events for site library
[DEBUG] 2018-12-20 08:21:56,339 | /home/babitagujar/frappe-bench/apps/frappe/frappe/utils/scheduler.py:
Site: ekart_site
Queued events for site ekart_site
[DEBUG] 2018-12-20 08:21:56,352 | /home/babitagujar/frappe-bench/apps/frappe/frappe/utils/scheduler.py:
Site: erpnext_site
Queued events for site erpnext_site
[DEBUG] 2018-12-20 08:21:56,367 | /home/babitagujar/frappe-bench/apps/frappe/frappe/utils/scheduler.py:
Site: library
Queued events for site library
[DEBUG] 2018-12-20 08:22:56,470 | /home/babitagujar/frappe-bench/apps/frappe/frappe/utils/scheduler.py:
Site: ekart_site
Queued events for site ekart_site
[DEBUG] 2018-12-20 08:22:56,495 | /home/babitagujar/frappe-bench/apps/frappe/frappe/utils/scheduler.py:
Site: erpnext_site
Queued events for site erpnext_site
[DEBUG] 2018-12-20 08:22:56,536 | /home/babitagujar/frappe-bench/apps/frappe/frappe/utils/scheduler.py:
Site: library
Queued events for site library
[DEBUG] 2018-12-20 08:23:56,617 | /home/babitagujar/frappe-bench/apps/frappe/frappe/utils/scheduler.py:
Site: ekart_site
Queued events for site ekart_site
[DEBUG] 2018-12-20 08:23:56,630 | /home/babitagujar/frappe-bench/apps/frappe/frappe/utils/scheduler.py:
Site: erpnext_site
Queued events for site erpnext_site
[DEBUG] 2018-12-20 08:23:56,643 | /home/babitagujar/frappe-bench/apps/frappe/frappe/utils/scheduler.py:
Site: library
Queued events for site library
[DEBUG] 2018-12-20 08:24:56,728 | /home/babitagujar/frappe-bench/apps/frappe/frappe/utils/scheduler.py:
Site: ekart_site
Queued events for site ekart_site
[DEBUG] 2018-12-20 08:24:56,740 | /home/babitagujar/frappe-bench/apps/frappe/frappe/utils/scheduler.py:
Site: erpnext_site
Queued events for site erpnext_site
[DEBUG] 2018-12-20 08:24:56,753 | /home/babitagujar/frappe-bench/apps/frappe/frappe/utils/scheduler.py:
Site: library
Queued events for site library
[DEBUG] 2018-12-20 08:25:56,840 | /home/babitagujar/frappe-bench/apps/frappe/frappe/utils/scheduler.py:
Site: ekart_site
Queued events for site ekart_site
[DEBUG] 2018-12-20 08:25:56,853 | /home/babitagujar/frappe-bench/apps/frappe/frappe/utils/scheduler.py:
Site: erpnext_site
Queued events for site erpnext_site
[DEBUG] 2018-12-20 08:25:56,865 | /home/babitagujar/frappe-bench/apps/frappe/frappe/utils/scheduler.py:
Site: library
Queued events for site library
[DEBUG] 2018-12-20 08:26:56,965 | /home/babitagujar/frappe-bench/apps/frappe/frappe/utils/scheduler.py:
Site: ekart_site
Queued events for site ekart_site
[DEBUG] 2018-12-20 08:26:57,003 | /home/babitagujar/frappe-bench/apps/frappe/frappe/utils/scheduler.py:
Site: erpnext_site
Queued events for site erpnext_site
[DEBUG] 2018-12-20 08:26:57,053 | /home/babitagujar/frappe-bench/apps/frappe/frappe/utils/scheduler.py:
Site: library
Queued events for site library
[DEBUG] 2018-12-20 08:27:57,138 | /home/babitagujar/frappe-bench/apps/frappe/frappe/utils/scheduler.py:
Site: ekart_site
Queued events for site ekart_site
[DEBUG] 2018-12-20 08:27:57,151 | /home/babitagujar/frappe-bench/apps/frappe/frappe/utils/scheduler.py:
Site: erpnext_site
Queued events for site erpnext_site
[DEBUG] 2018-12-20 08:27:57,164 | /home/babitagujar/frappe-bench/apps/frappe/frappe/utils/scheduler.py:
Site: library
Queued events for site library
[DEBUG] 2018-12-20 08:28:57,249 | /home/babitagujar/frappe-bench/apps/frappe/frappe/utils/scheduler.py:
Site: ekart_site
Queued events for site ekart_site
[DEBUG] 2018-12-20 08:28:57,263 | /home/babitagujar/frappe-bench/apps/frappe/frappe/utils/scheduler.py:
Site: erpnext_site
Queued events for site erpnext_site
[DEBUG] 2018-12-20 08:28:57,276 | /home/babitagujar/frappe-bench/apps/frappe/frappe/utils/scheduler.py:
Site: library
Queued events for site library
[DEBUG] 2018-12-20 08:29:57,367 | /home/babitagujar/frappe-bench/apps/frappe/frappe/utils/scheduler.py:
Site: ekart_site
Queued events for site ekart_site
[DEBUG] 2018-12-20 08:29:57,383 | /home/babitagujar/frappe-bench/apps/frappe/frappe/utils/scheduler.py:
Site: erpnext_site
Queued events for site erpnext_site
[DEBUG] 2018-12-20 08:29:57,398 | /home/babitagujar/frappe-bench/apps/frappe/frappe/utils/scheduler.py:
Site: library
Queued events for site library
[DEBUG] 2018-12-20 08:30:57,519 | /home/babitagujar/frappe-bench/apps/frappe/frappe/utils/scheduler.py:
Site: ekart_site
Queued events for site ekart_site
[DEBUG] 2018-12-20 08:30:57,590 | /home/babitagujar/frappe-bench/apps/frappe/frappe/utils/scheduler.py:
Site: erpnext_site
Queued events for site erpnext_site
[DEBUG] 2018-12-20 08:30:57,689 | /home/babitagujar/frappe-bench/apps/frappe/frappe/utils/scheduler.py:
Site: library
Queued events for site library
[DEBUG] 2018-12-20 08:31:57,768 | /home/babitagujar/frappe-bench/apps/frappe/frappe/utils/scheduler.py:
Site: ekart_site
Queued events for site ekart_site
[DEBUG] 2018-12-20 08:31:57,781 | /home/babitagujar/frappe-bench/apps/frappe/frappe/utils/scheduler.py:
Site: erpnext_site
Queued events for site erpnext_site
[DEBUG] 2018-12-20 08:31:57,794 | /home/babitagujar/frappe-bench/apps/frappe/frappe/utils/scheduler.py:
Site: library
Queued events for site library
[DEBUG] 2018-12-20 08:32:57,879 | /home/babitagujar/frappe-bench/apps/frappe/frappe/utils/scheduler.py:
Site: ekart_site
Queued events for site ekart_site
[DEBUG] 2018-12-20 08:32:57,892 | /home/babitagujar/frappe-bench/apps/frappe/frappe/utils/scheduler.py:
Site: erpnext_site
Queued events for site erpnext_site
[DEBUG] 2018-12-20 08:32:57,905 | /home/babitagujar/frappe-bench/apps/frappe/frappe/utils/scheduler.py:
Site: library
Queued events for site library
[DEBUG] 2018-12-20 08:33:57,991 | /home/babitagujar/frappe-bench/apps/frappe/frappe/utils/scheduler.py:
Site: ekart_site
Queued events for site ekart_site
[DEBUG] 2018-12-20 08:33:58,006 | /home/babitagujar/frappe-bench/apps/frappe/frappe/utils/scheduler.py:
Site: erpnext_site
Queued events for site erpnext_site
[DEBUG] 2018-12-20 08:33:58,019 | /home/babitagujar/frappe-bench/apps/frappe/frappe/utils/scheduler.py:
Site: library
Queued events for site library
[DEBUG] 2018-12-20 08:34:58,106 | /home/babitagujar/frappe-bench/apps/frappe/frappe/utils/scheduler.py:
Site: ekart_site
Queued events for site ekart_site
[DEBUG] 2018-12-20 08:34:58,140 | /home/babitagujar/frappe-bench/apps/frappe/frappe/utils/scheduler.py:
Site: erpnext_site
Queued events for site erpnext_site
[DEBUG] 2018-12-20 08:34:58,195 | /home/babitagujar/frappe-bench/apps/frappe/frappe/utils/scheduler.py:
Site: library
Queued events for site library
[DEBUG] 2018-12-20 08:35:58,281 | /home/babitagujar/frappe-bench/apps/frappe/frappe/utils/scheduler.py:
Site: ekart_site
Queued events for site ekart_site
[DEBUG] 2018-12-20 08:35:58,294 | /home/babitagujar/frappe-bench/apps/frappe/frappe/utils/scheduler.py:
Site: erpnext_site
Queued events for site erpnext_site
[DEBUG] 2018-12-20 08:35:58,306 | /home/babitagujar/frappe-bench/apps/frappe/frappe/utils/scheduler.py:
Site: library
Queued events for site library
[DEBUG] 2018-12-20 08:36:58,392 | /home/babitagujar/frappe-bench/apps/frappe/frappe/utils/scheduler.py:
Site: ekart_site
Queued events for site ekart_site
[DEBUG] 2018-12-20 08:36:58,404 | /home/babitagujar/frappe-bench/apps/frappe/frappe/utils/scheduler.py:
Site: erpnext_site
Queued events for site erpnext_site
[DEBUG] 2018-12-20 08:36:58,417 | /home/babitagujar/frappe-bench/apps/frappe/frappe/utils/scheduler.py:
Site: library
Queued events for site library
[DEBUG] 2018-12-20 08:37:58,504 | /home/babitagujar/frappe-bench/apps/frappe/frappe/utils/scheduler.py:
Site: ekart_site
Queued events for site ekart_site
[DEBUG] 2018-12-20 08:37:58,517 | /home/babitagujar/frappe-bench/apps/frappe/frappe/utils/scheduler.py:
Site: erpnext_site
Queued events for site erpnext_site
[DEBUG] 2018-12-20 08:37:58,529 | /home/babitagujar/frappe-bench/apps/frappe/frappe/utils/scheduler.py:
Site: library
Queued events for site library
[DEBUG] 2018-12-20 08:38:58,633 | /home/babitagujar/frappe-bench/apps/frappe/frappe/utils/scheduler.py:
Site: ekart_site
Queued events for site ekart_site
[DEBUG] 2018-12-20 08:38:58,660 | /home/babitagujar/frappe-bench/apps/frappe/frappe/utils/scheduler.py:
Site: erpnext_site
Queued events for site erpnext_site
[DEBUG] 2018-12-20 08:38:58,708 | /home/babitagujar/frappe-bench/apps/frappe/frappe/utils/scheduler.py:
Site: library
Queued events for site library
[DEBUG] 2018-12-20 08:39:58,793 | /home/babitagujar/frappe-bench/apps/frappe/frappe/utils/scheduler.py:
Site: ekart_site
Queued events for site ekart_site
[DEBUG] 2018-12-20 08:39:58,806 | /home/babitagujar/frappe-bench/apps/frappe/frappe/utils/scheduler.py:
Site: erpnext_site
Queued events for site erpnext_site
[DEBUG] 2018-12-20 08:39:58,819 | /home/babitagujar/frappe-bench/apps/frappe/frappe/utils/scheduler.py:
Site: library
Queued events for site library
[DEBUG] 2018-12-20 08:40:58,906 | /home/babitagujar/frappe-bench/apps/frappe/frappe/utils/scheduler.py:
Site: ekart_site
Queued events for site ekart_site
[DEBUG] 2018-12-20 08:40:58,920 | /home/babitagujar/frappe-bench/apps/frappe/frappe/utils/scheduler.py:
Site: erpnext_site
Queued events for site erpnext_site
[DEBUG] 2018-12-20 08:40:58,933 | /home/babitagujar/frappe-bench/apps/frappe/frappe/utils/scheduler.py:
Site: library
Queued events for site library
[DEBUG] 2018-12-20 08:41:59,022 | /home/babitagujar/frappe-bench/apps/frappe/frappe/utils/scheduler.py:
Site: ekart_site
Queued events for site ekart_site
[DEBUG] 2018-12-20 08:41:59,038 | /home/babitagujar/frappe-bench/apps/frappe/frappe/utils/scheduler.py:
Site: erpnext_site
Queued events for site erpnext_site
[DEBUG] 2018-12-20 08:41:59,053 | /home/babitagujar/frappe-bench/apps/frappe/frappe/utils/scheduler.py:
Site: library
Queued events for site library
[DEBUG] 2018-12-20 08:42:59,160 | /home/babitagujar/frappe-bench/apps/frappe/frappe/utils/scheduler.py:
Site: ekart_site
Queued events for site ekart_site
[DEBUG] 2018-12-20 08:42:59,195 | /home/babitagujar/frappe-bench/apps/frappe/frappe/utils/scheduler.py:
Site: erpnext_site
Queued events for site erpnext_site
[DEBUG] 2018-12-20 08:42:59,249 | /home/babitagujar/frappe-bench/apps/frappe/frappe/utils/scheduler.py:
Site: library
Queued events for site library
[DEBUG] 2018-12-20 08:43:59,340 | /home/babitagujar/frappe-bench/apps/frappe/frappe/utils/scheduler.py:
Site: ekart_site
Queued events for site ekart_site
[DEBUG] 2018-12-20 08:43:59,357 | /home/babitagujar/frappe-bench/apps/frappe/frappe/utils/scheduler.py:
Site: erpnext_site
Queued events for site erpnext_site
[DEBUG] 2018-12-20 08:43:59,370 | /home/babitagujar/frappe-bench/apps/frappe/frappe/utils/scheduler.py:
Site: library
Queued events for site library
[DEBUG] 2018-12-20 08:44:59,457 | /home/babitagujar/frappe-bench/apps/frappe/frappe/utils/scheduler.py:
Site: ekart_site
Queued events for site ekart_site
[DEBUG] 2018-12-20 08:44:59,469 | /home/babitagujar/frappe-bench/apps/frappe/frappe/utils/scheduler.py:
Site: erpnext_site
Queued events for site erpnext_site
[DEBUG] 2018-12-20 08:44:59,483 | /home/babitagujar/frappe-bench/apps/frappe/frappe/utils/scheduler.py:
Site: library
Queued events for site library
[DEBUG] 2018-12-20 08:45:59,571 | /home/babitagujar/frappe-bench/apps/frappe/frappe/utils/scheduler.py:
Site: ekart_site
Queued events for site ekart_site
[DEBUG] 2018-12-20 08:45:59,587 | /home/babitagujar/frappe-bench/apps/frappe/frappe/utils/scheduler.py:
Site: erpnext_site
Queued events for site erpnext_site
[DEBUG] 2018-12-20 08:45:59,602 | /home/babitagujar/frappe-bench/apps/frappe/frappe/utils/scheduler.py:
Site: library
Queued events for site library
[DEBUG] 2018-12-20 08:46:59,709 | /home/babitagujar/frappe-bench/apps/frappe/frappe/utils/scheduler.py:
Site: ekart_site
Queued events for site ekart_site
[DEBUG] 2018-12-20 08:46:59,744 | /home/babitagujar/frappe-bench/apps/frappe/frappe/utils/scheduler.py:
Site: erpnext_site
Queued events for site erpnext_site
[DEBUG] 2018-12-20 08:46:59,798 | /home/babitagujar/frappe-bench/apps/frappe/frappe/utils/scheduler.py:
Site: library
Queued events for site library
[DEBUG] 2018-12-20 08:47:59,885 | /home/babitagujar/frappe-bench/apps/frappe/frappe/utils/scheduler.py:
Site: ekart_site
Queued events for site ekart_site
[DEBUG] 2018-12-20 08:47:59,899 | /home/babitagujar/frappe-bench/apps/frappe/frappe/utils/scheduler.py:
Site: erpnext_site
Queued events for site erpnext_site
[DEBUG] 2018-12-20 08:47:59,912 | /home/babitagujar/frappe-bench/apps/frappe/frappe/utils/scheduler.py:
Site: library
Queued events for site library
[DEBUG] 2018-12-20 08:49:00,008 | /home/babitagujar/frappe-bench/apps/frappe/frappe/utils/scheduler.py:
Site: ekart_site
Queued events for site ekart_site
[DEBUG] 2018-12-20 08:49:00,030 | /home/babitagujar/frappe-bench/apps/frappe/frappe/utils/scheduler.py:
Site: erpnext_site
Queued events for site erpnext_site
[DEBUG] 2018-12-20 08:49:00,051 | /home/babitagujar/frappe-bench/apps/frappe/frappe/utils/scheduler.py:
Site: library
Queued events for site library
[DEBUG] 2018-12-20 08:50:00,169 | /home/babitagujar/frappe-bench/apps/frappe/frappe/utils/scheduler.py:
Site: ekart_site
Queued events for site ekart_site
[DEBUG] 2018-12-20 08:50:00,202 | /home/babitagujar/frappe-bench/apps/frappe/frappe/utils/scheduler.py:
Site: erpnext_site
Queued events for site erpnext_site
[DEBUG] 2018-12-20 08:50:00,254 | /home/babitagujar/frappe-bench/apps/frappe/frappe/utils/scheduler.py:
Site: library
Queued events for site library
[DEBUG] 2018-12-20 08:51:00,341 | /home/babitagujar/frappe-bench/apps/frappe/frappe/utils/scheduler.py:
Site: ekart_site
Queued events for site ekart_site
[DEBUG] 2018-12-20 08:51:00,354 | /home/babitagujar/frappe-bench/apps/frappe/frappe/utils/scheduler.py:
Site: erpnext_site
Queued events for site erpnext_site
[DEBUG] 2018-12-20 08:51:00,367 | /home/babitagujar/frappe-bench/apps/frappe/frappe/utils/scheduler.py:
Site: library
Queued events for site library
[DEBUG] 2018-12-20 08:52:00,452 | /home/babitagujar/frappe-bench/apps/frappe/frappe/utils/scheduler.py:
Site: ekart_site
Queued events for site ekart_site
[DEBUG] 2018-12-20 08:52:00,465 | /home/babitagujar/frappe-bench/apps/frappe/frappe/utils/scheduler.py:
Site: erpnext_site
Queued events for site erpnext_site
[DEBUG] 2018-12-20 08:52:00,478 | /home/babitagujar/frappe-bench/apps/frappe/frappe/utils/scheduler.py:
Site: library
Queued events for site library
[DEBUG] 2018-12-20 08:53:00,569 | /home/babitagujar/frappe-bench/apps/frappe/frappe/utils/scheduler.py:
Site: ekart_site
Queued events for site ekart_site
[DEBUG] 2018-12-20 08:53:00,584 | /home/babitagujar/frappe-bench/apps/frappe/frappe/utils/scheduler.py:
Site: erpnext_site
Queued events for site erpnext_site
[DEBUG] 2018-12-20 08:53:00,600 | /home/babitagujar/frappe-bench/apps/frappe/frappe/utils/scheduler.py:
Site: library
Queued events for site library
[DEBUG] 2018-12-20 08:54:00,702 | /home/babitagujar/frappe-bench/apps/frappe/frappe/utils/scheduler.py:
Site: ekart_site
Queued events for site ekart_site
[DEBUG] 2018-12-20 08:54:00,735 | /home/babitagujar/frappe-bench/apps/frappe/frappe/utils/scheduler.py:
Site: erpnext_site
Queued events for site erpnext_site
[DEBUG] 2018-12-20 08:54:00,793 | /home/babitagujar/frappe-bench/apps/frappe/frappe/utils/scheduler.py:
Site: library
Queued events for site library
[DEBUG] 2018-12-20 08:55:00,880 | /home/babitagujar/frappe-bench/apps/frappe/frappe/utils/scheduler.py:
Site: ekart_site
Queued events for site ekart_site
[DEBUG] 2018-12-20 08:55:00,893 | /home/babitagujar/frappe-bench/apps/frappe/frappe/utils/scheduler.py:
Site: erpnext_site
Queued events for site erpnext_site
[DEBUG] 2018-12-20 08:55:00,906 | /home/babitagujar/frappe-bench/apps/frappe/frappe/utils/scheduler.py:
Site: library
Queued events for site library
[DEBUG] 2018-12-20 08:56:00,994 | /home/babitagujar/frappe-bench/apps/frappe/frappe/utils/scheduler.py:
Site: ekart_site
Queued events for site ekart_site
[DEBUG] 2018-12-20 08:56:01,008 | /home/babitagujar/frappe-bench/apps/frappe/frappe/utils/scheduler.py:
Site: erpnext_site
Queued events for site erpnext_site
[DEBUG] 2018-12-20 08:56:01,026 | /home/babitagujar/frappe-bench/apps/frappe/frappe/utils/scheduler.py:
Site: library
Queued events for site library
[DEBUG] 2018-12-20 08:57:01,112 | /home/babitagujar/frappe-bench/apps/frappe/frappe/utils/scheduler.py:
Site: ekart_site
Queued events for site ekart_site
[DEBUG] 2018-12-20 08:57:01,125 | /home/babitagujar/frappe-bench/apps/frappe/frappe/utils/scheduler.py:
Site: erpnext_site
Queued events for site erpnext_site
[DEBUG] 2018-12-20 08:57:01,138 | /home/babitagujar/frappe-bench/apps/frappe/frappe/utils/scheduler.py:
Site: library
Queued events for site library
[DEBUG] 2018-12-20 08:58:01,246 | /home/babitagujar/frappe-bench/apps/frappe/frappe/utils/scheduler.py:
Site: ekart_site
Queued events for site ekart_site
[DEBUG] 2018-12-20 08:58:01,285 | /home/babitagujar/frappe-bench/apps/frappe/frappe/utils/scheduler.py:
Site: erpnext_site
Queued events for site erpnext_site
[DEBUG] 2018-12-20 08:58:01,341 | /home/babitagujar/frappe-bench/apps/frappe/frappe/utils/scheduler.py:
Site: library
Queued events for site library
[DEBUG] 2018-12-20 08:59:01,426 | /home/babitagujar/frappe-bench/apps/frappe/frappe/utils/scheduler.py:
Site: ekart_site
Queued events for site ekart_site
[DEBUG] 2018-12-20 08:59:01,439 | /home/babitagujar/frappe-bench/apps/frappe/frappe/utils/scheduler.py:
Site: erpnext_site
Queued events for site erpnext_site
[DEBUG] 2018-12-20 08:59:01,453 | /home/babitagujar/frappe-bench/apps/frappe/frappe/utils/scheduler.py:
Site: library
Queued events for site library
[DEBUG] 2018-12-20 09:00:01,523 | /home/babitagujar/frappe-bench/apps/frappe/frappe/utils/scheduler.py:
Site: ekart_site
Queued events for site ekart_site
[DEBUG] 2018-12-20 09:00:01,536 | /home/babitagujar/frappe-bench/apps/frappe/frappe/utils/scheduler.py:
Site: erpnext_site
Queued events for site erpnext_site
[DEBUG] 2018-12-20 09:00:01,549 | /home/babitagujar/frappe-bench/apps/frappe/frappe/utils/scheduler.py:
Site: library
Queued events for site library
[DEBUG] 2018-12-20 09:01:01,638 | /home/babitagujar/frappe-bench/apps/frappe/frappe/utils/scheduler.py:
Site: ekart_site
Queued events for site ekart_site
[DEBUG] 2018-12-20 09:01:01,655 | /home/babitagujar/frappe-bench/apps/frappe/frappe/utils/scheduler.py:
Site: erpnext_site
Queued events for site erpnext_site
[DEBUG] 2018-12-20 09:01:01,671 | /home/babitagujar/frappe-bench/apps/frappe/frappe/utils/scheduler.py:
Site: library
Queued events for site library
[DEBUG] 2018-12-20 09:02:01,772 | /home/babitagujar/frappe-bench/apps/frappe/frappe/utils/scheduler.py:
Site: ekart_site
Queued events for site ekart_site
[DEBUG] 2018-12-20 09:02:01,806 | /home/babitagujar/frappe-bench/apps/frappe/frappe/utils/scheduler.py:
Site: erpnext_site
Queued events for site erpnext_site
[DEBUG] 2018-12-20 09:02:01,860 | /home/babitagujar/frappe-bench/apps/frappe/frappe/utils/scheduler.py:
Site: library
Queued events for site library
[DEBUG] 2018-12-20 09:03:01,945 | /home/babitagujar/frappe-bench/apps/frappe/frappe/utils/scheduler.py:
Site: ekart_site
Queued events for site ekart_site
[DEBUG] 2018-12-20 09:03:01,959 | /home/babitagujar/frappe-bench/apps/frappe/frappe/utils/scheduler.py:
Site: erpnext_site
Queued events for site erpnext_site
[DEBUG] 2018-12-20 09:03:01,972 | /home/babitagujar/frappe-bench/apps/frappe/frappe/utils/scheduler.py:
Site: library
Queued events for site library
[DEBUG] 2018-12-20 09:04:02,058 | /home/babitagujar/frappe-bench/apps/frappe/frappe/utils/scheduler.py:
Site: ekart_site
Queued events for site ekart_site
[DEBUG] 2018-12-20 09:04:02,071 | /home/babitagujar/frappe-bench/apps/frappe/frappe/utils/scheduler.py:
Site: erpnext_site
Queued events for site erpnext_site
[DEBUG] 2018-12-20 09:04:02,083 | /home/babitagujar/frappe-bench/apps/frappe/frappe/utils/scheduler.py:
Site: library
Queued events for site library
[DEBUG] 2018-12-20 09:05:02,172 | /home/babitagujar/frappe-bench/apps/frappe/frappe/utils/scheduler.py:
Site: ekart_site
Queued events for site ekart_site
[DEBUG] 2018-12-20 09:05:02,185 | /home/babitagujar/frappe-bench/apps/frappe/frappe/utils/scheduler.py:
Site: erpnext_site
Queued events for site erpnext_site
[DEBUG] 2018-12-20 09:05:02,199 | /home/babitagujar/frappe-bench/apps/frappe/frappe/utils/scheduler.py:
Site: library
Queued events for site library
[DEBUG] 2018-12-20 09:06:02,304 | /home/babitagujar/frappe-bench/apps/frappe/frappe/utils/scheduler.py:
Site: ekart_site
Queued events for site ekart_site
[DEBUG] 2018-12-20 09:06:02,338 | /home/babitagujar/frappe-bench/apps/frappe/frappe/utils/scheduler.py:
Site: erpnext_site
Queued events for site erpnext_site
[DEBUG] 2018-12-20 09:06:02,388 | /home/babitagujar/frappe-bench/apps/frappe/frappe/utils/scheduler.py:
Site: library
Queued events for site library
[DEBUG] 2018-12-20 09:07:02,475 | /home/babitagujar/frappe-bench/apps/frappe/frappe/utils/scheduler.py:
Site: ekart_site
Queued events for site ekart_site
[DEBUG] 2018-12-20 09:07:02,488 | /home/babitagujar/frappe-bench/apps/frappe/frappe/utils/scheduler.py:
Site: erpnext_site
Queued events for site erpnext_site
[DEBUG] 2018-12-20 09:07:02,501 | /home/babitagujar/frappe-bench/apps/frappe/frappe/utils/scheduler.py:
Site: library
Queued events for site library
[DEBUG] 2018-12-20 09:08:02,586 | /home/babitagujar/frappe-bench/apps/frappe/frappe/utils/scheduler.py:
Site: ekart_site
Queued events for site ekart_site
[DEBUG] 2018-12-20 09:08:02,600 | /home/babitagujar/frappe-bench/apps/frappe/frappe/utils/scheduler.py:
Site: erpnext_site
Queued events for site erpnext_site
[DEBUG] 2018-12-20 09:08:02,613 | /home/babitagujar/frappe-bench/apps/frappe/frappe/utils/scheduler.py:
Site: library
Queued events for site library
[DEBUG] 2018-12-20 09:09:02,679 | /home/babitagujar/frappe-bench/apps/frappe/frappe/utils/scheduler.py:
Site: ekart_site
Queued events for site ekart_site
[DEBUG] 2018-12-20 09:09:02,692 | /home/babitagujar/frappe-bench/apps/frappe/frappe/utils/scheduler.py:
Site: erpnext_site
Queued events for site erpnext_site
[DEBUG] 2018-12-20 09:09:02,706 | /home/babitagujar/frappe-bench/apps/frappe/frappe/utils/scheduler.py:
Site: library
Queued events for site library
[DEBUG] 2018-12-20 09:10:02,812 | /home/babitagujar/frappe-bench/apps/frappe/frappe/utils/scheduler.py:
Site: ekart_site
Queued events for site ekart_site
[DEBUG] 2018-12-20 09:10:02,839 | /home/babitagujar/frappe-bench/apps/frappe/frappe/utils/scheduler.py:
Site: erpnext_site
Queued events for site erpnext_site
[DEBUG] 2018-12-20 09:10:02,884 | /home/babitagujar/frappe-bench/apps/frappe/frappe/utils/scheduler.py:
Site: library
Queued events for site library
[DEBUG] 2018-12-20 09:11:02,975 | /home/babitagujar/frappe-bench/apps/frappe/frappe/utils/scheduler.py:
Site: ekart_site
Queued events for site ekart_site
[DEBUG] 2018-12-20 09:11:02,991 | /home/babitagujar/frappe-bench/apps/frappe/frappe/utils/scheduler.py:
Site: erpnext_site
Queued events for site erpnext_site
[DEBUG] 2018-12-20 09:11:03,007 | /home/babitagujar/frappe-bench/apps/frappe/frappe/utils/scheduler.py:
Site: library
Queued events for site library
[DEBUG] 2018-12-20 09:12:03,097 | /home/babitagujar/frappe-bench/apps/frappe/frappe/utils/scheduler.py:
Site: ekart_site
Queued events for site ekart_site
[DEBUG] 2018-12-20 09:12:03,113 | /home/babitagujar/frappe-bench/apps/frappe/frappe/utils/scheduler.py:
Site: erpnext_site
Queued events for site erpnext_site
[DEBUG] 2018-12-20 09:12:03,129 | /home/babitagujar/frappe-bench/apps/frappe/frappe/utils/scheduler.py:
Site: library
Queued events for site library
[DEBUG] 2018-12-20 09:13:03,222 | /home/babitagujar/frappe-bench/apps/frappe/frappe/utils/scheduler.py:
Site: ekart_site
Queued events for site ekart_site
[DEBUG] 2018-12-20 09:13:03,237 | /home/babitagujar/frappe-bench/apps/frappe/frappe/utils/scheduler.py:
Site: erpnext_site
Queued events for site erpnext_site
[DEBUG] 2018-12-20 09:13:03,253 | /home/babitagujar/frappe-bench/apps/frappe/frappe/utils/scheduler.py:
Site: library
Queued events for site library
[DEBUG] 2018-12-20 09:14:03,360 | /home/babitagujar/frappe-bench/apps/frappe/frappe/utils/scheduler.py:
Site: ekart_site
Queued events for site ekart_site
[DEBUG] 2018-12-20 09:14:03,383 | /home/babitagujar/frappe-bench/apps/frappe/frappe/utils/scheduler.py:
Site: erpnext_site
Queued events for site erpnext_site
[DEBUG] 2018-12-20 09:14:03,425 | /home/babitagujar/frappe-bench/apps/frappe/frappe/utils/scheduler.py:
Site: library
Queued events for site library
[DEBUG] 2018-12-20 09:15:03,512 | /home/babitagujar/frappe-bench/apps/frappe/frappe/utils/scheduler.py:
Site: ekart_site
Queued events for site ekart_site
[DEBUG] 2018-12-20 09:15:03,525 | /home/babitagujar/frappe-bench/apps/frappe/frappe/utils/scheduler.py:
Site: erpnext_site
Queued events for site erpnext_site
[DEBUG] 2018-12-20 09:15:03,538 | /home/babitagujar/frappe-bench/apps/frappe/frappe/utils/scheduler.py:
Site: library
Queued events for site library
[DEBUG] 2018-12-20 09:16:03,626 | /home/babitagujar/frappe-bench/apps/frappe/frappe/utils/scheduler.py:
Site: ekart_site
Queued events for site ekart_site
[DEBUG] 2018-12-20 09:16:03,641 | /home/babitagujar/frappe-bench/apps/frappe/frappe/utils/scheduler.py:
Site: erpnext_site
Queued events for site erpnext_site
[DEBUG] 2018-12-20 09:16:03,657 | /home/babitagujar/frappe-bench/apps/frappe/frappe/utils/scheduler.py:
Site: library
Queued events for site library
[DEBUG] 2018-12-20 09:17:03,740 | /home/babitagujar/frappe-bench/apps/frappe/frappe/utils/scheduler.py:
Site: ekart_site
Queued events for site ekart_site
[DEBUG] 2018-12-20 09:17:03,756 | /home/babitagujar/frappe-bench/apps/frappe/frappe/utils/scheduler.py:
Site: erpnext_site
Queued events for site erpnext_site
[DEBUG] 2018-12-20 09:17:03,771 | /home/babitagujar/frappe-bench/apps/frappe/frappe/utils/scheduler.py:
Site: library
Queued events for site library
[DEBUG] 2018-12-20 09:18:03,872 | /home/babitagujar/frappe-bench/apps/frappe/frappe/utils/scheduler.py:
Site: ekart_site
Queued events for site ekart_site
[DEBUG] 2018-12-20 09:18:03,901 | /home/babitagujar/frappe-bench/apps/frappe/frappe/utils/scheduler.py:
Site: erpnext_site
Queued events for site erpnext_site
[DEBUG] 2018-12-20 09:18:03,950 | /home/babitagujar/frappe-bench/apps/frappe/frappe/utils/scheduler.py:
Site: library
Queued events for site library
[DEBUG] 2018-12-20 09:19:04,036 | /home/babitagujar/frappe-bench/apps/frappe/frappe/utils/scheduler.py:
Site: ekart_site
Queued events for site ekart_site
[DEBUG] 2018-12-20 09:19:04,049 | /home/babitagujar/frappe-bench/apps/frappe/frappe/utils/scheduler.py:
Site: erpnext_site
Queued events for site erpnext_site
[DEBUG] 2018-12-20 09:19:04,062 | /home/babitagujar/frappe-bench/apps/frappe/frappe/utils/scheduler.py:
Site: library
Queued events for site library
[DEBUG] 2018-12-20 09:20:04,147 | /home/babitagujar/frappe-bench/apps/frappe/frappe/utils/scheduler.py:
Site: ekart_site
Queued events for site ekart_site
[DEBUG] 2018-12-20 09:20:04,159 | /home/babitagujar/frappe-bench/apps/frappe/frappe/utils/scheduler.py:
Site: erpnext_site
Queued events for site erpnext_site
[DEBUG] 2018-12-20 09:20:04,172 | /home/babitagujar/frappe-bench/apps/frappe/frappe/utils/scheduler.py:
Site: library
Queued events for site library
[DEBUG] 2018-12-20 09:21:04,261 | /home/babitagujar/frappe-bench/apps/frappe/frappe/utils/scheduler.py:
Site: ekart_site
Queued events for site ekart_site
[DEBUG] 2018-12-20 09:21:04,279 | /home/babitagujar/frappe-bench/apps/frappe/frappe/utils/scheduler.py:
Site: erpnext_site
Queued events for site erpnext_site
[DEBUG] 2018-12-20 09:21:04,295 | /home/babitagujar/frappe-bench/apps/frappe/frappe/utils/scheduler.py:
Site: library
Queued events for site library
[DEBUG] 2018-12-20 09:22:04,398 | /home/babitagujar/frappe-bench/apps/frappe/frappe/utils/scheduler.py:
Site: ekart_site
Queued events for site ekart_site
[DEBUG] 2018-12-20 09:22:04,423 | /home/babitagujar/frappe-bench/apps/frappe/frappe/utils/scheduler.py:
Site: erpnext_site
Queued events for site erpnext_site
[DEBUG] 2018-12-20 09:22:04,468 | /home/babitagujar/frappe-bench/apps/frappe/frappe/utils/scheduler.py:
Site: library
Queued events for site library
[DEBUG] 2018-12-20 09:23:04,556 | /home/babitagujar/frappe-bench/apps/frappe/frappe/utils/scheduler.py:
Site: ekart_site
Queued events for site ekart_site
[DEBUG] 2018-12-20 09:23:04,572 | /home/babitagujar/frappe-bench/apps/frappe/frappe/utils/scheduler.py:
Site: erpnext_site
Queued events for site erpnext_site
[DEBUG] 2018-12-20 09:23:04,588 | /home/babitagujar/frappe-bench/apps/frappe/frappe/utils/scheduler.py:
Site: library
Queued events for site library
[DEBUG] 2018-12-20 09:24:04,679 | /home/babitagujar/frappe-bench/apps/frappe/frappe/utils/scheduler.py:
Site: ekart_site
Queued events for site ekart_site
[DEBUG] 2018-12-20 09:24:04,693 | /home/babitagujar/frappe-bench/apps/frappe/frappe/utils/scheduler.py:
Site: erpnext_site
Queued events for site erpnext_site
[DEBUG] 2018-12-20 09:24:04,708 | /home/babitagujar/frappe-bench/apps/frappe/frappe/utils/scheduler.py:
Site: library
Queued events for site library
[DEBUG] 2018-12-20 09:25:04,797 | /home/babitagujar/frappe-bench/apps/frappe/frappe/utils/scheduler.py:
Site: ekart_site
Queued events for site ekart_site
[DEBUG] 2018-12-20 09:25:04,813 | /home/babitagujar/frappe-bench/apps/frappe/frappe/utils/scheduler.py:
Site: erpnext_site
Queued events for site erpnext_site
[DEBUG] 2018-12-20 09:25:04,827 | /home/babitagujar/frappe-bench/apps/frappe/frappe/utils/scheduler.py:
Site: library
Queued events for site library
[DEBUG] 2018-12-20 09:26:04,934 | /home/babitagujar/frappe-bench/apps/frappe/frappe/utils/scheduler.py:
Site: ekart_site
Queued events for site ekart_site
[DEBUG] 2018-12-20 09:26:04,962 | /home/babitagujar/frappe-bench/apps/frappe/frappe/utils/scheduler.py:
Site: erpnext_site
Queued events for site erpnext_site
[DEBUG] 2018-12-20 09:26:05,004 | /home/babitagujar/frappe-bench/apps/frappe/frappe/utils/scheduler.py:
Site: library
Queued events for site library
[DEBUG] 2018-12-20 09:27:05,099 | /home/babitagujar/frappe-bench/apps/frappe/frappe/utils/scheduler.py:
Site: ekart_site
Queued events for site ekart_site
[DEBUG] 2018-12-20 09:27:05,114 | /home/babitagujar/frappe-bench/apps/frappe/frappe/utils/scheduler.py:
Site: erpnext_site
Queued events for site erpnext_site
[DEBUG] 2018-12-20 09:27:05,129 | /home/babitagujar/frappe-bench/apps/frappe/frappe/utils/scheduler.py:
Site: library
Queued events for site library
[DEBUG] 2018-12-20 09:28:05,211 | /home/babitagujar/frappe-bench/apps/frappe/frappe/utils/scheduler.py:
Site: ekart_site
Queued events for site ekart_site
[DEBUG] 2018-12-20 09:28:05,223 | /home/babitagujar/frappe-bench/apps/frappe/frappe/utils/scheduler.py:
Site: erpnext_site
Queued events for site erpnext_site
[DEBUG] 2018-12-20 09:28:05,235 | /home/babitagujar/frappe-bench/apps/frappe/frappe/utils/scheduler.py:
Site: library
Queued events for site library
[DEBUG] 2018-12-20 09:29:05,326 | /home/babitagujar/frappe-bench/apps/frappe/frappe/utils/scheduler.py:
Site: ekart_site
Queued events for site ekart_site
[DEBUG] 2018-12-20 09:29:05,344 | /home/babitagujar/frappe-bench/apps/frappe/frappe/utils/scheduler.py:
Site: erpnext_site
Queued events for site erpnext_site
[DEBUG] 2018-12-20 09:29:05,359 | /home/babitagujar/frappe-bench/apps/frappe/frappe/utils/scheduler.py:
Site: library
Queued events for site library
[DEBUG] 2018-12-20 09:30:05,479 | /home/babitagujar/frappe-bench/apps/frappe/frappe/utils/scheduler.py:
Site: ekart_site
Queued events for site ekart_site
[DEBUG] 2018-12-20 09:30:05,554 | /home/babitagujar/frappe-bench/apps/frappe/frappe/utils/scheduler.py:
Site: erpnext_site
Queued events for site erpnext_site
[DEBUG] 2018-12-20 09:30:05,637 | /home/babitagujar/frappe-bench/apps/frappe/frappe/utils/scheduler.py:
Site: library
Queued events for site library
[DEBUG] 2018-12-20 09:31:05,722 | /home/babitagujar/frappe-bench/apps/frappe/frappe/utils/scheduler.py:
Site: ekart_site
Queued events for site ekart_site
[DEBUG] 2018-12-20 09:31:05,736 | /home/babitagujar/frappe-bench/apps/frappe/frappe/utils/scheduler.py:
Site: erpnext_site
Queued events for site erpnext_site
[DEBUG] 2018-12-20 09:31:05,749 | /home/babitagujar/frappe-bench/apps/frappe/frappe/utils/scheduler.py:
Site: library
Queued events for site library
[DEBUG] 2018-12-20 09:32:05,834 | /home/babitagujar/frappe-bench/apps/frappe/frappe/utils/scheduler.py:
Site: ekart_site
Queued events for site ekart_site
[DEBUG] 2018-12-20 09:32:05,849 | /home/babitagujar/frappe-bench/apps/frappe/frappe/utils/scheduler.py:
Site: erpnext_site
Queued events for site erpnext_site
[DEBUG] 2018-12-20 09:32:05,863 | /home/babitagujar/frappe-bench/apps/frappe/frappe/utils/scheduler.py:
Site: library
Queued events for site library
[DEBUG] 2018-12-20 09:33:05,950 | /home/babitagujar/frappe-bench/apps/frappe/frappe/utils/scheduler.py:
Site: ekart_site
Queued events for site ekart_site
[DEBUG] 2018-12-20 09:33:05,962 | /home/babitagujar/frappe-bench/apps/frappe/frappe/utils/scheduler.py:
Site: erpnext_site
Queued events for site erpnext_site
[DEBUG] 2018-12-20 09:33:05,974 | /home/babitagujar/frappe-bench/apps/frappe/frappe/utils/scheduler.py:
Site: library
Queued events for site library
[DEBUG] 2018-12-20 09:34:06,081 | /home/babitagujar/frappe-bench/apps/frappe/frappe/utils/scheduler.py:
Site: ekart_site
Queued events for site ekart_site
[DEBUG] 2018-12-20 09:34:06,115 | /home/babitagujar/frappe-bench/apps/frappe/frappe/utils/scheduler.py:
Site: erpnext_site
Queued events for site erpnext_site
[DEBUG] 2018-12-20 09:34:06,169 | /home/babitagujar/frappe-bench/apps/frappe/frappe/utils/scheduler.py:
Site: library
Queued events for site library
[DEBUG] 2018-12-20 09:35:06,264 | /home/babitagujar/frappe-bench/apps/frappe/frappe/utils/scheduler.py:
Site: ekart_site
Queued events for site ekart_site
[DEBUG] 2018-12-20 09:35:06,276 | /home/babitagujar/frappe-bench/apps/frappe/frappe/utils/scheduler.py:
Site: erpnext_site
Queued events for site erpnext_site
[DEBUG] 2018-12-20 09:35:06,289 | /home/babitagujar/frappe-bench/apps/frappe/frappe/utils/scheduler.py:
Site: library
Queued events for site library
[DEBUG] 2018-12-20 09:36:06,375 | /home/babitagujar/frappe-bench/apps/frappe/frappe/utils/scheduler.py:
Site: ekart_site
Queued events for site ekart_site
[DEBUG] 2018-12-20 09:36:06,388 | /home/babitagujar/frappe-bench/apps/frappe/frappe/utils/scheduler.py:
Site: erpnext_site
Queued events for site erpnext_site
[DEBUG] 2018-12-20 09:36:06,400 | /home/babitagujar/frappe-bench/apps/frappe/frappe/utils/scheduler.py:
Site: library
Queued events for site library
[DEBUG] 2018-12-20 09:37:06,485 | /home/babitagujar/frappe-bench/apps/frappe/frappe/utils/scheduler.py:
Site: ekart_site
Queued events for site ekart_site
[DEBUG] 2018-12-20 09:37:06,498 | /home/babitagujar/frappe-bench/apps/frappe/frappe/utils/scheduler.py:
Site: erpnext_site
Queued events for site erpnext_site
[DEBUG] 2018-12-20 09:37:06,511 | /home/babitagujar/frappe-bench/apps/frappe/frappe/utils/scheduler.py:
Site: library
Queued events for site library
[DEBUG] 2018-12-20 09:38:06,618 | /home/babitagujar/frappe-bench/apps/frappe/frappe/utils/scheduler.py:
Site: ekart_site
Queued events for site ekart_site
[DEBUG] 2018-12-20 09:38:06,651 | /home/babitagujar/frappe-bench/apps/frappe/frappe/utils/scheduler.py:
Site: erpnext_site
Queued events for site erpnext_site
[DEBUG] 2018-12-20 09:38:06,703 | /home/babitagujar/frappe-bench/apps/frappe/frappe/utils/scheduler.py:
Site: library
Queued events for site library
[DEBUG] 2018-12-20 09:39:06,789 | /home/babitagujar/frappe-bench/apps/frappe/frappe/utils/scheduler.py:
Site: ekart_site
Queued events for site ekart_site
[DEBUG] 2018-12-20 09:39:06,804 | /home/babitagujar/frappe-bench/apps/frappe/frappe/utils/scheduler.py:
Site: erpnext_site
Queued events for site erpnext_site
[DEBUG] 2018-12-20 09:39:06,819 | /home/babitagujar/frappe-bench/apps/frappe/frappe/utils/scheduler.py:
Site: library
Queued events for site library
[DEBUG] 2018-12-20 09:40:06,918 | /home/babitagujar/frappe-bench/apps/frappe/frappe/utils/scheduler.py:
Site: ekart_site
Queued events for site ekart_site
[DEBUG] 2018-12-20 09:40:06,932 | /home/babitagujar/frappe-bench/apps/frappe/frappe/utils/scheduler.py:
Site: erpnext_site
Queued events for site erpnext_site
[DEBUG] 2018-12-20 09:40:06,946 | /home/babitagujar/frappe-bench/apps/frappe/frappe/utils/scheduler.py:
Site: library
Queued events for site library
[DEBUG] 2018-12-20 09:41:07,037 | /home/babitagujar/frappe-bench/apps/frappe/frappe/utils/scheduler.py:
Site: ekart_site
Queued events for site ekart_site
[DEBUG] 2018-12-20 09:41:07,053 | /home/babitagujar/frappe-bench/apps/frappe/frappe/utils/scheduler.py:
Site: erpnext_site
Queued events for site erpnext_site
[DEBUG] 2018-12-20 09:41:07,069 | /home/babitagujar/frappe-bench/apps/frappe/frappe/utils/scheduler.py:
Site: library
Queued events for site library
[DEBUG] 2018-12-20 09:42:07,176 | /home/babitagujar/frappe-bench/apps/frappe/frappe/utils/scheduler.py:
Site: ekart_site
Queued events for site ekart_site
[DEBUG] 2018-12-20 09:42:07,210 | /home/babitagujar/frappe-bench/apps/frappe/frappe/utils/scheduler.py:
Site: erpnext_site
Queued events for site erpnext_site
[DEBUG] 2018-12-20 09:42:07,262 | /home/babitagujar/frappe-bench/apps/frappe/frappe/utils/scheduler.py:
Site: library
Queued events for site library
[DEBUG] 2018-12-20 09:43:07,348 | /home/babitagujar/frappe-bench/apps/frappe/frappe/utils/scheduler.py:
Site: ekart_site
Queued events for site ekart_site
[DEBUG] 2018-12-20 09:43:07,361 | /home/babitagujar/frappe-bench/apps/frappe/frappe/utils/scheduler.py:
Site: erpnext_site
Queued events for site erpnext_site
[DEBUG] 2018-12-20 09:43:07,373 | /home/babitagujar/frappe-bench/apps/frappe/frappe/utils/scheduler.py:
Site: library
Queued events for site library
[DEBUG] 2018-12-20 09:44:07,456 | /home/babitagujar/frappe-bench/apps/frappe/frappe/utils/scheduler.py:
Site: ekart_site
Queued events for site ekart_site
[DEBUG] 2018-12-20 09:44:07,468 | /home/babitagujar/frappe-bench/apps/frappe/frappe/utils/scheduler.py:
Site: erpnext_site
Queued events for site erpnext_site
[DEBUG] 2018-12-20 09:44:07,480 | /home/babitagujar/frappe-bench/apps/frappe/frappe/utils/scheduler.py:
Site: library
Queued events for site library
[DEBUG] 2018-12-20 09:45:07,565 | /home/babitagujar/frappe-bench/apps/frappe/frappe/utils/scheduler.py:
Site: ekart_site
Queued events for site ekart_site
[DEBUG] 2018-12-20 09:45:07,578 | /home/babitagujar/frappe-bench/apps/frappe/frappe/utils/scheduler.py:
Site: erpnext_site
Queued events for site erpnext_site
[DEBUG] 2018-12-20 09:45:07,592 | /home/babitagujar/frappe-bench/apps/frappe/frappe/utils/scheduler.py:
Site: library
Queued events for site library
[DEBUG] 2018-12-20 09:46:07,695 | /home/babitagujar/frappe-bench/apps/frappe/frappe/utils/scheduler.py:
Site: ekart_site
Queued events for site ekart_site
[DEBUG] 2018-12-20 09:46:07,728 | /home/babitagujar/frappe-bench/apps/frappe/frappe/utils/scheduler.py:
Site: erpnext_site
Queued events for site erpnext_site
[DEBUG] 2018-12-20 09:46:07,781 | /home/babitagujar/frappe-bench/apps/frappe/frappe/utils/scheduler.py:
Site: library
Queued events for site library
[DEBUG] 2018-12-20 09:47:07,844 | /home/babitagujar/frappe-bench/apps/frappe/frappe/utils/scheduler.py:
Site: ekart_site
Queued events for site ekart_site
[DEBUG] 2018-12-20 09:47:07,859 | /home/babitagujar/frappe-bench/apps/frappe/frappe/utils/scheduler.py:
Site: erpnext_site
Queued events for site erpnext_site
[DEBUG] 2018-12-20 09:47:07,873 | /home/babitagujar/frappe-bench/apps/frappe/frappe/utils/scheduler.py:
Site: library
Queued events for site library
[DEBUG] 2018-12-20 09:48:07,959 | /home/babitagujar/frappe-bench/apps/frappe/frappe/utils/scheduler.py:
Site: ekart_site
Queued events for site ekart_site
[DEBUG] 2018-12-20 09:48:07,973 | /home/babitagujar/frappe-bench/apps/frappe/frappe/utils/scheduler.py:
Site: erpnext_site
Queued events for site erpnext_site
[DEBUG] 2018-12-20 09:48:07,986 | /home/babitagujar/frappe-bench/apps/frappe/frappe/utils/scheduler.py:
Site: library
Queued events for site library
[DEBUG] 2018-12-20 09:49:08,071 | /home/babitagujar/frappe-bench/apps/frappe/frappe/utils/scheduler.py:
Site: ekart_site
Queued events for site ekart_site
[DEBUG] 2018-12-20 09:49:08,084 | /home/babitagujar/frappe-bench/apps/frappe/frappe/utils/scheduler.py:
Site: erpnext_site
Queued events for site erpnext_site
[DEBUG] 2018-12-20 09:49:08,097 | /home/babitagujar/frappe-bench/apps/frappe/frappe/utils/scheduler.py:
Site: library
Queued events for site library
[DEBUG] 2018-12-20 09:50:08,212 | /home/babitagujar/frappe-bench/apps/frappe/frappe/utils/scheduler.py:
Site: ekart_site
Queued events for site ekart_site
[DEBUG] 2018-12-20 09:50:08,251 | /home/babitagujar/frappe-bench/apps/frappe/frappe/utils/scheduler.py:
Site: erpnext_site
Queued events for site erpnext_site
[DEBUG] 2018-12-20 09:50:08,302 | /home/babitagujar/frappe-bench/apps/frappe/frappe/utils/scheduler.py:
Site: library
Queued events for site library
[DEBUG] 2018-12-20 09:54:42,482 | /home/babitagujar/frappe-bench/apps/frappe/frappe/utils/scheduler.py:
Site: ekart_site
Queued events for site ekart_site
[DEBUG] 2018-12-20 09:54:42,525 | /home/babitagujar/frappe-bench/apps/frappe/frappe/utils/scheduler.py:
Site: erpnext_site
Queued events for site erpnext_site
[DEBUG] 2018-12-20 09:54:42,579 | /home/babitagujar/frappe-bench/apps/frappe/frappe/utils/scheduler.py:
Site: library
Queued events for site library
[DEBUG] 2018-12-20 09:55:42,674 | /home/babitagujar/frappe-bench/apps/frappe/frappe/utils/scheduler.py:
Site: ekart_site
Queued events for site ekart_site
[DEBUG] 2018-12-20 09:55:42,690 | /home/babitagujar/frappe-bench/apps/frappe/frappe/utils/scheduler.py:
Site: erpnext_site
Queued events for site erpnext_site
[DEBUG] 2018-12-20 09:55:42,704 | /home/babitagujar/frappe-bench/apps/frappe/frappe/utils/scheduler.py:
Site: library
Queued events for site library
[DEBUG] 2018-12-20 09:56:42,788 | /home/babitagujar/frappe-bench/apps/frappe/frappe/utils/scheduler.py:
Site: ekart_site
Queued events for site ekart_site
[DEBUG] 2018-12-20 09:56:42,800 | /home/babitagujar/frappe-bench/apps/frappe/frappe/utils/scheduler.py:
Site: erpnext_site
Queued events for site erpnext_site
[DEBUG] 2018-12-20 09:56:42,812 | /home/babitagujar/frappe-bench/apps/frappe/frappe/utils/scheduler.py:
Site: library
Queued events for site library
[DEBUG] 2018-12-20 09:57:42,896 | /home/babitagujar/frappe-bench/apps/frappe/frappe/utils/scheduler.py:
Site: ekart_site
Queued events for site ekart_site
[DEBUG] 2018-12-20 09:57:42,909 | /home/babitagujar/frappe-bench/apps/frappe/frappe/utils/scheduler.py:
Site: erpnext_site
Queued events for site erpnext_site
[DEBUG] 2018-12-20 09:57:42,921 | /home/babitagujar/frappe-bench/apps/frappe/frappe/utils/scheduler.py:
Site: library
Queued events for site library
[DEBUG] 2018-12-20 09:58:43,021 | /home/babitagujar/frappe-bench/apps/frappe/frappe/utils/scheduler.py:
Site: ekart_site
Queued events for site ekart_site
[DEBUG] 2018-12-20 09:58:43,045 | /home/babitagujar/frappe-bench/apps/frappe/frappe/utils/scheduler.py:
Site: erpnext_site
Queued events for site erpnext_site
[DEBUG] 2018-12-20 09:58:43,087 | /home/babitagujar/frappe-bench/apps/frappe/frappe/utils/scheduler.py:
Site: library
Queued events for site library
[DEBUG] 2018-12-20 09:59:43,171 | /home/babitagujar/frappe-bench/apps/frappe/frappe/utils/scheduler.py:
Site: ekart_site
Queued events for site ekart_site
[DEBUG] 2018-12-20 09:59:43,183 | /home/babitagujar/frappe-bench/apps/frappe/frappe/utils/scheduler.py:
Site: erpnext_site
Queued events for site erpnext_site
[DEBUG] 2018-12-20 09:59:43,195 | /home/babitagujar/frappe-bench/apps/frappe/frappe/utils/scheduler.py:
Site: library
Queued events for site library
[DEBUG] 2018-12-20 10:00:43,282 | /home/babitagujar/frappe-bench/apps/frappe/frappe/utils/scheduler.py:
Site: ekart_site
Queued events for site ekart_site
[DEBUG] 2018-12-20 10:00:43,296 | /home/babitagujar/frappe-bench/apps/frappe/frappe/utils/scheduler.py:
Site: erpnext_site
Queued events for site erpnext_site
[DEBUG] 2018-12-20 10:00:43,309 | /home/babitagujar/frappe-bench/apps/frappe/frappe/utils/scheduler.py:
Site: library
Queued events for site library
[DEBUG] 2018-12-20 10:01:43,396 | /home/babitagujar/frappe-bench/apps/frappe/frappe/utils/scheduler.py:
Site: ekart_site
Queued events for site ekart_site
[DEBUG] 2018-12-20 10:01:43,408 | /home/babitagujar/frappe-bench/apps/frappe/frappe/utils/scheduler.py:
Site: erpnext_site
Queued events for site erpnext_site
[DEBUG] 2018-12-20 10:01:43,421 | /home/babitagujar/frappe-bench/apps/frappe/frappe/utils/scheduler.py:
Site: library
Queued events for site library
[DEBUG] 2018-12-20 10:02:43,521 | /home/babitagujar/frappe-bench/apps/frappe/frappe/utils/scheduler.py:
Site: ekart_site
Queued events for site ekart_site
[DEBUG] 2018-12-20 10:02:43,546 | /home/babitagujar/frappe-bench/apps/frappe/frappe/utils/scheduler.py:
Site: erpnext_site
Queued events for site erpnext_site
[DEBUG] 2018-12-20 10:02:43,586 | /home/babitagujar/frappe-bench/apps/frappe/frappe/utils/scheduler.py:
Site: library
Queued events for site library
[DEBUG] 2018-12-20 10:03:43,682 | /home/babitagujar/frappe-bench/apps/frappe/frappe/utils/scheduler.py:
Site: ekart_site
Queued events for site ekart_site
[DEBUG] 2018-12-20 10:03:43,701 | /home/babitagujar/frappe-bench/apps/frappe/frappe/utils/scheduler.py:
Site: erpnext_site
Queued events for site erpnext_site
[DEBUG] 2018-12-20 10:03:43,724 | /home/babitagujar/frappe-bench/apps/frappe/frappe/utils/scheduler.py:
Site: library
Queued events for site library
[DEBUG] 2018-12-20 10:04:43,815 | /home/babitagujar/frappe-bench/apps/frappe/frappe/utils/scheduler.py:
Site: ekart_site
Queued events for site ekart_site
[DEBUG] 2018-12-20 10:04:43,826 | /home/babitagujar/frappe-bench/apps/frappe/frappe/utils/scheduler.py:
Site: erpnext_site
Queued events for site erpnext_site
[DEBUG] 2018-12-20 10:04:43,838 | /home/babitagujar/frappe-bench/apps/frappe/frappe/utils/scheduler.py:
Site: library
Queued events for site library
[DEBUG] 2018-12-20 10:05:43,925 | /home/babitagujar/frappe-bench/apps/frappe/frappe/utils/scheduler.py:
Site: ekart_site
Queued events for site ekart_site
[DEBUG] 2018-12-20 10:05:43,939 | /home/babitagujar/frappe-bench/apps/frappe/frappe/utils/scheduler.py:
Site: erpnext_site
Queued events for site erpnext_site
[DEBUG] 2018-12-20 10:05:43,952 | /home/babitagujar/frappe-bench/apps/frappe/frappe/utils/scheduler.py:
Site: library
Queued events for site library
[DEBUG] 2018-12-20 10:06:44,057 | /home/babitagujar/frappe-bench/apps/frappe/frappe/utils/scheduler.py:
Site: ekart_site
Queued events for site ekart_site
[DEBUG] 2018-12-20 10:06:44,091 | /home/babitagujar/frappe-bench/apps/frappe/frappe/utils/scheduler.py:
Site: erpnext_site
Queued events for site erpnext_site
[DEBUG] 2018-12-20 10:06:44,145 | /home/babitagujar/frappe-bench/apps/frappe/frappe/utils/scheduler.py:
Site: library
Queued events for site library
[DEBUG] 2018-12-20 10:07:44,231 | /home/babitagujar/frappe-bench/apps/frappe/frappe/utils/scheduler.py:
Site: ekart_site
Queued events for site ekart_site
[DEBUG] 2018-12-20 10:07:44,245 | /home/babitagujar/frappe-bench/apps/frappe/frappe/utils/scheduler.py:
Site: erpnext_site
Queued events for site erpnext_site
[DEBUG] 2018-12-20 10:07:44,259 | /home/babitagujar/frappe-bench/apps/frappe/frappe/utils/scheduler.py:
Site: library
Queued events for site library
[DEBUG] 2018-12-20 10:08:44,344 | /home/babitagujar/frappe-bench/apps/frappe/frappe/utils/scheduler.py:
Site: ekart_site
Queued events for site ekart_site
[DEBUG] 2018-12-20 10:08:44,355 | /home/babitagujar/frappe-bench/apps/frappe/frappe/utils/scheduler.py:
Site: erpnext_site
Queued events for site erpnext_site
[DEBUG] 2018-12-20 10:08:44,367 | /home/babitagujar/frappe-bench/apps/frappe/frappe/utils/scheduler.py:
Site: library
Queued events for site library
[DEBUG] 2018-12-20 10:09:44,455 | /home/babitagujar/frappe-bench/apps/frappe/frappe/utils/scheduler.py:
Site: ekart_site
Queued events for site ekart_site
[DEBUG] 2018-12-20 10:09:44,468 | /home/babitagujar/frappe-bench/apps/frappe/frappe/utils/scheduler.py:
Site: erpnext_site
Queued events for site erpnext_site
[DEBUG] 2018-12-20 10:09:44,482 | /home/babitagujar/frappe-bench/apps/frappe/frappe/utils/scheduler.py:
Site: library
Queued events for site library
[DEBUG] 2018-12-20 10:10:44,584 | /home/babitagujar/frappe-bench/apps/frappe/frappe/utils/scheduler.py:
Site: ekart_site
Queued events for site ekart_site
[DEBUG] 2018-12-20 10:10:44,609 | /home/babitagujar/frappe-bench/apps/frappe/frappe/utils/scheduler.py:
Site: erpnext_site
Queued events for site erpnext_site
[DEBUG] 2018-12-20 10:10:44,647 | /home/babitagujar/frappe-bench/apps/frappe/frappe/utils/scheduler.py:
Site: library
Queued events for site library
[DEBUG] 2018-12-20 10:11:44,724 | /home/babitagujar/frappe-bench/apps/frappe/frappe/utils/scheduler.py:
Site: ekart_site
Queued events for site ekart_site
[DEBUG] 2018-12-20 10:11:44,736 | /home/babitagujar/frappe-bench/apps/frappe/frappe/utils/scheduler.py:
Site: erpnext_site
Queued events for site erpnext_site
[DEBUG] 2018-12-20 10:11:44,749 | /home/babitagujar/frappe-bench/apps/frappe/frappe/utils/scheduler.py:
Site: library
Queued events for site library
[DEBUG] 2018-12-20 10:12:44,833 | /home/babitagujar/frappe-bench/apps/frappe/frappe/utils/scheduler.py:
Site: ekart_site
Queued events for site ekart_site
[DEBUG] 2018-12-20 10:12:44,845 | /home/babitagujar/frappe-bench/apps/frappe/frappe/utils/scheduler.py:
Site: erpnext_site
Queued events for site erpnext_site
[DEBUG] 2018-12-20 10:12:44,856 | /home/babitagujar/frappe-bench/apps/frappe/frappe/utils/scheduler.py:
Site: library
Queued events for site library
[DEBUG] 2018-12-20 10:13:44,944 | /home/babitagujar/frappe-bench/apps/frappe/frappe/utils/scheduler.py:
Site: ekart_site
Queued events for site ekart_site
[DEBUG] 2018-12-20 10:13:44,957 | /home/babitagujar/frappe-bench/apps/frappe/frappe/utils/scheduler.py:
Site: erpnext_site
Queued events for site erpnext_site
[DEBUG] 2018-12-20 10:13:44,969 | /home/babitagujar/frappe-bench/apps/frappe/frappe/utils/scheduler.py:
Site: library
Queued events for site library
[DEBUG] 2018-12-20 10:14:45,081 | /home/babitagujar/frappe-bench/apps/frappe/frappe/utils/scheduler.py:
Site: ekart_site
Queued events for site ekart_site
[DEBUG] 2018-12-20 10:14:45,118 | /home/babitagujar/frappe-bench/apps/frappe/frappe/utils/scheduler.py:
Site: erpnext_site
Queued events for site erpnext_site
[DEBUG] 2018-12-20 10:14:45,179 | /home/babitagujar/frappe-bench/apps/frappe/frappe/utils/scheduler.py:
Site: library
Queued events for site library
[DEBUG] 2018-12-20 10:15:45,266 | /home/babitagujar/frappe-bench/apps/frappe/frappe/utils/scheduler.py:
Site: ekart_site
Queued events for site ekart_site
[DEBUG] 2018-12-20 10:15:45,278 | /home/babitagujar/frappe-bench/apps/frappe/frappe/utils/scheduler.py:
Site: erpnext_site
Queued events for site erpnext_site
[DEBUG] 2018-12-20 10:15:45,294 | /home/babitagujar/frappe-bench/apps/frappe/frappe/utils/scheduler.py:
Site: library
Queued events for site library
[DEBUG] 2018-12-20 10:16:45,380 | /home/babitagujar/frappe-bench/apps/frappe/frappe/utils/scheduler.py:
Site: ekart_site
Queued events for site ekart_site
[DEBUG] 2018-12-20 10:16:45,392 | /home/babitagujar/frappe-bench/apps/frappe/frappe/utils/scheduler.py:
Site: erpnext_site
Queued events for site erpnext_site
[DEBUG] 2018-12-20 10:16:45,405 | /home/babitagujar/frappe-bench/apps/frappe/frappe/utils/scheduler.py:
Site: library
Queued events for site library
[DEBUG] 2018-12-20 10:17:45,490 | /home/babitagujar/frappe-bench/apps/frappe/frappe/utils/scheduler.py:
Site: ekart_site
Queued events for site ekart_site
[DEBUG] 2018-12-20 10:17:45,503 | /home/babitagujar/frappe-bench/apps/frappe/frappe/utils/scheduler.py:
Site: erpnext_site
Queued events for site erpnext_site
[DEBUG] 2018-12-20 10:17:45,515 | /home/babitagujar/frappe-bench/apps/frappe/frappe/utils/scheduler.py:
Site: library
Queued events for site library
[DEBUG] 2018-12-20 10:18:45,618 | /home/babitagujar/frappe-bench/apps/frappe/frappe/utils/scheduler.py:
Site: ekart_site
Queued events for site ekart_site
[DEBUG] 2018-12-20 10:18:45,644 | /home/babitagujar/frappe-bench/apps/frappe/frappe/utils/scheduler.py:
Site: erpnext_site
Queued events for site erpnext_site
[DEBUG] 2018-12-20 10:18:45,690 | /home/babitagujar/frappe-bench/apps/frappe/frappe/utils/scheduler.py:
Site: library
Queued events for site library
[DEBUG] 2018-12-20 10:19:45,779 | /home/babitagujar/frappe-bench/apps/frappe/frappe/utils/scheduler.py:
Site: ekart_site
Queued events for site ekart_site
[DEBUG] 2018-12-20 10:19:45,794 | /home/babitagujar/frappe-bench/apps/frappe/frappe/utils/scheduler.py:
Site: erpnext_site
Queued events for site erpnext_site
[DEBUG] 2018-12-20 10:19:45,808 | /home/babitagujar/frappe-bench/apps/frappe/frappe/utils/scheduler.py:
Site: library
Queued events for site library
[DEBUG] 2018-12-20 10:20:45,888 | /home/babitagujar/frappe-bench/apps/frappe/frappe/utils/scheduler.py:
Site: ekart_site
Queued events for site ekart_site
[DEBUG] 2018-12-20 10:20:45,900 | /home/babitagujar/frappe-bench/apps/frappe/frappe/utils/scheduler.py:
Site: erpnext_site
Queued events for site erpnext_site
[DEBUG] 2018-12-20 10:20:45,912 | /home/babitagujar/frappe-bench/apps/frappe/frappe/utils/scheduler.py:
Site: library
Queued events for site library
[DEBUG] 2018-12-20 10:21:45,997 | /home/babitagujar/frappe-bench/apps/frappe/frappe/utils/scheduler.py:
Site: ekart_site
Queued events for site ekart_site
[DEBUG] 2018-12-20 10:21:46,008 | /home/babitagujar/frappe-bench/apps/frappe/frappe/utils/scheduler.py:
Site: erpnext_site
Queued events for site erpnext_site
[DEBUG] 2018-12-20 10:21:46,020 | /home/babitagujar/frappe-bench/apps/frappe/frappe/utils/scheduler.py:
Site: library
Queued events for site library
[DEBUG] 2018-12-20 10:22:46,122 | /home/babitagujar/frappe-bench/apps/frappe/frappe/utils/scheduler.py:
Site: ekart_site
Queued events for site ekart_site
[DEBUG] 2018-12-20 10:22:46,145 | /home/babitagujar/frappe-bench/apps/frappe/frappe/utils/scheduler.py:
Site: erpnext_site
Queued events for site erpnext_site
[DEBUG] 2018-12-20 10:22:46,191 | /home/babitagujar/frappe-bench/apps/frappe/frappe/utils/scheduler.py:
Site: library
Queued events for site library
[DEBUG] 2018-12-20 10:23:46,278 | /home/babitagujar/frappe-bench/apps/frappe/frappe/utils/scheduler.py:
Site: ekart_site
Queued events for site ekart_site
[DEBUG] 2018-12-20 10:23:46,293 | /home/babitagujar/frappe-bench/apps/frappe/frappe/utils/scheduler.py:
Site: erpnext_site
Queued events for site erpnext_site
[DEBUG] 2018-12-20 10:23:46,317 | /home/babitagujar/frappe-bench/apps/frappe/frappe/utils/scheduler.py:
Site: library
Queued events for site library
[DEBUG] 2018-12-20 10:24:46,404 | /home/babitagujar/frappe-bench/apps/frappe/frappe/utils/scheduler.py:
Site: ekart_site
Queued events for site ekart_site
[DEBUG] 2018-12-20 10:24:46,418 | /home/babitagujar/frappe-bench/apps/frappe/frappe/utils/scheduler.py:
Site: erpnext_site
Queued events for site erpnext_site
[DEBUG] 2018-12-20 10:24:46,430 | /home/babitagujar/frappe-bench/apps/frappe/frappe/utils/scheduler.py:
Site: library
Queued events for site library
[DEBUG] 2018-12-20 10:25:46,514 | /home/babitagujar/frappe-bench/apps/frappe/frappe/utils/scheduler.py:
Site: ekart_site
Queued events for site ekart_site
[DEBUG] 2018-12-20 10:25:46,528 | /home/babitagujar/frappe-bench/apps/frappe/frappe/utils/scheduler.py:
Site: erpnext_site
Queued events for site erpnext_site
[DEBUG] 2018-12-20 10:25:46,540 | /home/babitagujar/frappe-bench/apps/frappe/frappe/utils/scheduler.py:
Site: library
Queued events for site library
[DEBUG] 2018-12-20 10:26:46,643 | /home/babitagujar/frappe-bench/apps/frappe/frappe/utils/scheduler.py:
Site: ekart_site
Queued events for site ekart_site
[DEBUG] 2018-12-20 10:26:46,668 | /home/babitagujar/frappe-bench/apps/frappe/frappe/utils/scheduler.py:
Site: erpnext_site
Queued events for site erpnext_site
[DEBUG] 2018-12-20 10:26:46,709 | /home/babitagujar/frappe-bench/apps/frappe/frappe/utils/scheduler.py:
Site: library
Queued events for site library
[DEBUG] 2018-12-20 10:27:46,793 | /home/babitagujar/frappe-bench/apps/frappe/frappe/utils/scheduler.py:
Site: ekart_site
Queued events for site ekart_site
[DEBUG] 2018-12-20 10:27:46,807 | /home/babitagujar/frappe-bench/apps/frappe/frappe/utils/scheduler.py:
Site: erpnext_site
Queued events for site erpnext_site
[DEBUG] 2018-12-20 10:27:46,821 | /home/babitagujar/frappe-bench/apps/frappe/frappe/utils/scheduler.py:
Site: library
Queued events for site library
[DEBUG] 2018-12-20 10:28:46,908 | /home/babitagujar/frappe-bench/apps/frappe/frappe/utils/scheduler.py:
Site: ekart_site
Queued events for site ekart_site
[DEBUG] 2018-12-20 10:28:46,923 | /home/babitagujar/frappe-bench/apps/frappe/frappe/utils/scheduler.py:
Site: erpnext_site
Queued events for site erpnext_site
[DEBUG] 2018-12-20 10:28:46,937 | /home/babitagujar/frappe-bench/apps/frappe/frappe/utils/scheduler.py:
Site: library
Queued events for site library
[DEBUG] 2018-12-20 10:29:47,024 | /home/babitagujar/frappe-bench/apps/frappe/frappe/utils/scheduler.py:
Site: ekart_site
Queued events for site ekart_site
[DEBUG] 2018-12-20 10:29:47,036 | /home/babitagujar/frappe-bench/apps/frappe/frappe/utils/scheduler.py:
Site: erpnext_site
Queued events for site erpnext_site
[DEBUG] 2018-12-20 10:29:47,048 | /home/babitagujar/frappe-bench/apps/frappe/frappe/utils/scheduler.py:
Site: library
Queued events for site library
[DEBUG] 2018-12-20 10:30:47,160 | /home/babitagujar/frappe-bench/apps/frappe/frappe/utils/scheduler.py:
Site: ekart_site
Queued events for site ekart_site
[DEBUG] 2018-12-20 10:30:47,217 | /home/babitagujar/frappe-bench/apps/frappe/frappe/utils/scheduler.py:
Site: erpnext_site
Queued events for site erpnext_site
[DEBUG] 2018-12-20 10:30:47,283 | /home/babitagujar/frappe-bench/apps/frappe/frappe/utils/scheduler.py:
Site: library
Queued events for site library
[DEBUG] 2018-12-20 10:31:47,371 | /home/babitagujar/frappe-bench/apps/frappe/frappe/utils/scheduler.py:
Site: ekart_site
Queued events for site ekart_site
[DEBUG] 2018-12-20 10:31:47,382 | /home/babitagujar/frappe-bench/apps/frappe/frappe/utils/scheduler.py:
Site: erpnext_site
Queued events for site erpnext_site
[DEBUG] 2018-12-20 10:31:47,395 | /home/babitagujar/frappe-bench/apps/frappe/frappe/utils/scheduler.py:
Site: library
Queued events for site library
[DEBUG] 2018-12-20 10:32:47,479 | /home/babitagujar/frappe-bench/apps/frappe/frappe/utils/scheduler.py:
Site: ekart_site
Queued events for site ekart_site
[DEBUG] 2018-12-20 10:32:47,492 | /home/babitagujar/frappe-bench/apps/frappe/frappe/utils/scheduler.py:
Site: erpnext_site
Queued events for site erpnext_site
[DEBUG] 2018-12-20 10:32:47,507 | /home/babitagujar/frappe-bench/apps/frappe/frappe/utils/scheduler.py:
Site: library
Queued events for site library
[DEBUG] 2018-12-20 10:33:47,605 | /home/babitagujar/frappe-bench/apps/frappe/frappe/utils/scheduler.py:
Site: ekart_site
Queued events for site ekart_site
[DEBUG] 2018-12-20 10:33:47,619 | /home/babitagujar/frappe-bench/apps/frappe/frappe/utils/scheduler.py:
Site: erpnext_site
Queued events for site erpnext_site
[DEBUG] 2018-12-20 10:33:47,634 | /home/babitagujar/frappe-bench/apps/frappe/frappe/utils/scheduler.py:
Site: library
Queued events for site library
[DEBUG] 2018-12-20 10:34:47,748 | /home/babitagujar/frappe-bench/apps/frappe/frappe/utils/scheduler.py:
Site: ekart_site
Queued events for site ekart_site
[DEBUG] 2018-12-20 10:34:47,785 | /home/babitagujar/frappe-bench/apps/frappe/frappe/utils/scheduler.py:
Site: erpnext_site
Queued events for site erpnext_site
[DEBUG] 2018-12-20 10:34:47,842 | /home/babitagujar/frappe-bench/apps/frappe/frappe/utils/scheduler.py:
Site: library
Queued events for site library
[DEBUG] 2018-12-20 10:35:47,932 | /home/babitagujar/frappe-bench/apps/frappe/frappe/utils/scheduler.py:
Site: ekart_site
Queued events for site ekart_site
[DEBUG] 2018-12-20 10:35:47,945 | /home/babitagujar/frappe-bench/apps/frappe/frappe/utils/scheduler.py:
Site: erpnext_site
Queued events for site erpnext_site
[DEBUG] 2018-12-20 10:35:47,958 | /home/babitagujar/frappe-bench/apps/frappe/frappe/utils/scheduler.py:
Site: library
Queued events for site library
[DEBUG] 2018-12-20 10:36:48,044 | /home/babitagujar/frappe-bench/apps/frappe/frappe/utils/scheduler.py:
Site: ekart_site
Queued events for site ekart_site
[DEBUG] 2018-12-20 10:36:48,058 | /home/babitagujar/frappe-bench/apps/frappe/frappe/utils/scheduler.py:
Site: erpnext_site
Queued events for site erpnext_site
[DEBUG] 2018-12-20 10:36:48,073 | /home/babitagujar/frappe-bench/apps/frappe/frappe/utils/scheduler.py:
Site: library
Queued events for site library
[DEBUG] 2018-12-20 10:37:48,163 | /home/babitagujar/frappe-bench/apps/frappe/frappe/utils/scheduler.py:
Site: ekart_site
Queued events for site ekart_site
[DEBUG] 2018-12-20 10:37:48,175 | /home/babitagujar/frappe-bench/apps/frappe/frappe/utils/scheduler.py:
Site: erpnext_site
Queued events for site erpnext_site
[DEBUG] 2018-12-20 10:37:48,187 | /home/babitagujar/frappe-bench/apps/frappe/frappe/utils/scheduler.py:
Site: library
Queued events for site library
[DEBUG] 2018-12-20 10:38:48,288 | /home/babitagujar/frappe-bench/apps/frappe/frappe/utils/scheduler.py:
Site: ekart_site
Queued events for site ekart_site
[DEBUG] 2018-12-20 10:38:48,312 | /home/babitagujar/frappe-bench/apps/frappe/frappe/utils/scheduler.py:
Site: erpnext_site
Queued events for site erpnext_site
[DEBUG] 2018-12-20 10:38:48,353 | /home/babitagujar/frappe-bench/apps/frappe/frappe/utils/scheduler.py:
Site: library
Queued events for site library
[DEBUG] 2018-12-20 10:39:48,440 | /home/babitagujar/frappe-bench/apps/frappe/frappe/utils/scheduler.py:
Site: ekart_site
Queued events for site ekart_site
[DEBUG] 2018-12-20 10:39:48,454 | /home/babitagujar/frappe-bench/apps/frappe/frappe/utils/scheduler.py:
Site: erpnext_site
Queued events for site erpnext_site
[DEBUG] 2018-12-20 10:39:48,466 | /home/babitagujar/frappe-bench/apps/frappe/frappe/utils/scheduler.py:
Site: library
Queued events for site library
[DEBUG] 2018-12-20 10:40:48,554 | /home/babitagujar/frappe-bench/apps/frappe/frappe/utils/scheduler.py:
Site: ekart_site
Queued events for site ekart_site
[DEBUG] 2018-12-20 10:40:48,568 | /home/babitagujar/frappe-bench/apps/frappe/frappe/utils/scheduler.py:
Site: erpnext_site
Queued events for site erpnext_site
[DEBUG] 2018-12-20 10:40:48,582 | /home/babitagujar/frappe-bench/apps/frappe/frappe/utils/scheduler.py:
Site: library
Queued events for site library
[DEBUG] 2018-12-20 10:41:48,671 | /home/babitagujar/frappe-bench/apps/frappe/frappe/utils/scheduler.py:
Site: ekart_site
Queued events for site ekart_site
[DEBUG] 2018-12-20 10:41:48,685 | /home/babitagujar/frappe-bench/apps/frappe/frappe/utils/scheduler.py:
Site: erpnext_site
Queued events for site erpnext_site
[DEBUG] 2018-12-20 10:41:48,700 | /home/babitagujar/frappe-bench/apps/frappe/frappe/utils/scheduler.py:
Site: library
Queued events for site library
